design/simulation/qsim/arch.msim.vcd
$comment
	File created using the following command:
		vcd file arch.msim.vcd -direction
$end
$date
	Tue Mar 11 19:45:21 2025
$end
$version
	ModelSim Version 10.1d
$end
$timescale
	1ps
$end
$scope module sel4g_vlg_vec_tst $end
$var reg 8 ! A [7:0] $end
$var reg 8 " B [7:0] $end
$var reg 8 # C [7:0] $end
$var reg 8 $ D [7:0] $end
$var reg 2 % S [1:0] $end
$var wire 1 & Q [7] $end
$var wire 1 ' Q [6] $end
$var wire 1 ( Q [5] $end
$var wire 1 ) Q [4] $end
$var wire 1 * Q [3] $end
$var wire 1 + Q [2] $end
$var wire 1 , Q [1] $end
$var wire 1 - Q [0] $end
$var wire 1 . sampler $end
$scope module i1 $end
$var wire 1 / gnd $end
$var wire 1 0 vcc $end
$var wire 1 1 unknown $end
$var tri1 1 2 devclrn $end
$var tri1 1 3 devpor $end
$var tri1 1 4 devoe $end
$var wire 1 5 inst4|inst2[7]~0_combout $end
$var wire 1 6 inst4|inst2[7]~1_combout $end
$var wire 1 7 inst4|inst2[6]~2_combout $end
$var wire 1 8 inst4|inst2[6]~3_combout $end
$var wire 1 9 inst4|inst2[5]~4_combout $end
$var wire 1 : inst4|inst2[5]~5_combout $end
$var wire 1 ; inst4|inst2[4]~6_combout $end
$var wire 1 < inst4|inst2[4]~7_combout $end
$var wire 1 = inst4|inst2[3]~8_combout $end
$var wire 1 > inst4|inst2[3]~9_combout $end
$var wire 1 ? inst4|inst2[2]~10_combout $end
$var wire 1 @ inst4|inst2[2]~11_combout $end
$var wire 1 A inst4|inst2[1]~12_combout $end
$var wire 1 B inst4|inst2[1]~13_combout $end
$var wire 1 C inst4|inst2[0]~14_combout $end
$var wire 1 D inst4|inst2[0]~15_combout $end
$var wire 1 E B~combout [7] $end
$var wire 1 F B~combout [6] $end
$var wire 1 G B~combout [5] $end
$var wire 1 H B~combout [4] $end
$var wire 1 I B~combout [3] $end
$var wire 1 J B~combout [2] $end
$var wire 1 K B~combout [1] $end
$var wire 1 L B~combout [0] $end
$var wire 1 M C~combout [7] $end
$var wire 1 N C~combout [6] $end
$var wire 1 O C~combout [5] $end
$var wire 1 P C~combout [4] $end
$var wire 1 Q C~combout [3] $end
$var wire 1 R C~combout [2] $end
$var wire 1 S C~combout [1] $end
$var wire 1 T C~combout [0] $end
$var wire 1 U D~combout [7] $end
$var wire 1 V D~combout [6] $end
$var wire 1 W D~combout [5] $end
$var wire 1 X D~combout [4] $end
$var wire 1 Y D~combout [3] $end
$var wire 1 Z D~combout [2] $end
$var wire 1 [ D~combout [1] $end
$var wire 1 \ D~combout [0] $end
$var wire 1 ] S~combout [1] $end
$var wire 1 ^ S~combout [0] $end
$var wire 1 _ A~combout [7] $end
$var wire 1 ` A~combout [6] $end
$var wire 1 a A~combout [5] $end
$var wire 1 b A~combout [4] $end
$var wire 1 c A~combout [3] $end
$var wire 1 d A~combout [2] $end
$var wire 1 e A~combout [1] $end
$var wire 1 f A~combout [0] $end
$upscope $end
$upscope $end
$enddefinitions $end
#0
$dumpvars
b1100011 !
b1111000 "
b1100011 #
b1100110 $
b0 %
1-
1,
0+
0*
0)
1(
1'
0&
x.
0/
10
x1
12
13
14
15
16
07
08
09
0:
1;
1<
1=
1>
1?
1@
0A
0B
0C
0D
0L
0K
0J
1I
1H
1G
1F
0E
1T
1S
0R
0Q
0P
1O
1N
0M
0\
1[
1Z
0Y
0X
1W
1V
0U
0^
0]
1f
1e
0d
0c
0b
1a
1`
0_
$end
#10000
b11100011 !
b10100011 !
b10000011 !
b10001011 !
b11111000 "
b11011000 "
b100011 #
b11 #
b111 #
b100110 $
b110110 $
b110010 $
b1 %
1^
0Z
1X
0V
1R
0O
0N
0G
1E
1c
0a
0`
1_
0.
1D
1A
0?
0=
0<
0;
19
05
1B
0>
1:
06
0-
1)
0,
1*
0(
1&
#20000
b10011011 !
b10011111 !
b10011101 !
b10011000 "
b10001000 "
b10001100 "
b10001110 "
b10001111 "
b110000 $
b11 %
b10101111 "
b100111 #
b100000 $
b100100 $
b10 %
1O
0^
1]
0[
1Z
0X
1L
1K
1J
0H
1G
0F
0e
1d
1b
1.
0:
0D
0A
0@
1;
09
17
1>
16
0B
1<
18
1(
1-
1+
0*
0&
1,
0)
0'
#30000
b10100111 "
b10100111 #
b10101111 #
b10101110 #
b101100 $
b101101 $
b11101 !
b1011101 !
b10101010 #
b1101101 $
b1011001 !
b11100111 "
b11100110 "
b1101111 $
b1101011 $
b11 %
1^
0d
1`
0_
1\
1[
0Z
1Y
1V
0T
0R
1Q
1M
0L
0I
1F
0.
1D
1C
1A
1?
1=
19
08
15
0>
06
0D
1@
16
0-
1'
1*
1&
1-
0+
0&
#40000
b10111010 #
b11101011 $
b1010001 !
b11111010 #
b11100100 "
b1 %
b11011010 #
b1011010 #
b11100011 $
b11010001 !
b10010001 !
b10100011 $
b10100100 "
b10100111 $
b0 %
0^
0]
0K
0F
0c
0`
1_
1Z
0Y
0V
1U
1P
0O
1N
0M
1.
1D
0C
0;
18
05
1B
1>
1:
0D
0<
06
0-
0'
0,
0*
0(
1-
1)
1&
#50000
b10010000 !
b1011000 #
b10000111 $
b10110000 !
b100100 "
b110100 "
b10000110 $
b10110100 !
b10000100 $
b1001000 #
b100 $
b1000 #
b110110 "
b101000 #
b10101000 #
b11110100 !
b0 $
b1 %
1^
1K
1H
0E
0\
0[
0Z
0W
0U
0S
0P
1O
0N
1M
0f
1d
1a
1`
0.
1D
0A
0?
09
07
15
0B
0@
0:
16
0-
1,
1+
1(
0&
#60000
b11110110 !
b10110 "
b10000 $
b11 %
b1010110 "
b11110111 !
b10101010 #
b11010111 !
b1000110 "
b11010011 !
b10111010 #
b11111010 #
b11011010 #
b1011010 #
b10010011 !
b10 %
1S
1P
0O
1N
0M
0^
1]
1X
0H
0G
1F
1f
1e
0d
0a
0`
1.
1:
0D
1C
1?
0=
08
05
1D
1@
0>
0(
1-
1'
0-
0+
1*
#70000
b1010010 #
b1010110 #
b1000111 "
b10011011 !
b11000 $
b1011000 $
b1111000 $
b1111001 $
b1111011 $
b10011001 !
b1100111 "
b1101011 $
b10011000 !
b1010100 #
b1110111 "
b10011100 !
b11010100 #
b11 %
1^
1\
1[
1Y
0X
1W
1V
0f
0e
1d
1c
1L
1H
1G
0S
1R
0Q
1M
0.
0D
1A
1=
1;
19
17
15
1B
1>
06
0B
0>
1<
0:
16
1-
0,
0*
1&
1,
1*
0)
1(
0&
#80000
b10001100 !
b11010101 #
b1100 !
b11110111 "
b11101011 $
b11110101 "
b1 %
b101100 !
b10010101 #
b10110101 #
b10110001 #
b11110100 "
b10101011 $
b101110 !
b11010100 "
b101111 !
b11000100 "
b101011 !
b0 %
0^
0]
0V
1U
0L
0K
0H
0G
1E
1T
0R
1O
0N
1f
1e
0d
0b
1a
0_
1.
1D
0C
0A
0=
09
18
1B
1>
1:
0D
0B
0>
0:
0-
0'
0,
0*
0(
1-
1,
1*
1(
#90000
b11001100 "
b10101111 $
b10001100 "
b10111001 #
b10101101 $
b10111011 #
b111011 #
b111011 !
b1100 "
b11011 !
b1111011 #
b1011011 #
b1011111 #
b1101 "
b11101101 $
b11010 !
b1 %
1^
0f
1b
0a
1S
1R
1Q
0O
1N
0M
0[
1Z
1V
1L
1I
0F
0E
0.
1A
0@
0?
0;
19
08
07
1B
1:
18
1+
1'
0,
0(
0'
#100000
b1001 "
b1001111 #
b1011010 !
b1010010 !
b11100101 $
b11010010 !
b1100101 $
b11 %
b11010110 !
b1 "
b1000001 "
b1100111 $
b1001101 #
b11001101 #
b11000110 !
b10001101 #
b10101101 #
b10 %
0^
1]
1[
0Y
0U
1d
0c
0b
1`
1_
0S
0P
1O
0N
1M
0J
0I
1F
1.
0A
0<
1;
09
08
17
05
0B
0:
1B
1<
18
06
1)
1'
1,
1(
0,
0)
0'
1&
#110000
b1000111 $
b1000110 $
b1010110 $
b10101100 #
b11000100 !
b1010001 "
b11010001 "
b11100100 !
b10110 $
b11100101 !
b11010101 "
b10100101 !
b10101101 !
b10101001 !
b11011101 "
b10011101 "
b10100 $
b10111001 !
b11 %
1^
1J
1I
1H
0F
1E
1f
0e
0d
1c
1b
1a
0`
0T
0\
0[
1X
0W
0V
0.
1C
1A
1?
1=
0<
19
15
1D
1>
1:
16
1)
0-
0*
0(
0&
#120000
b10000 $
b10101000 #
b10011100 "
b10111000 #
b11000 $
b111001 !
b1 %
b10111010 #
b11111010 #
b11011010 #
b11001 $
b1001 $
b1001001 $
b10010100 "
b0 %
0^
0]
0_
0L
0I
1S
0R
1P
0O
1N
1\
0Z
1Y
0X
1V
1.
0C
1@
0=
1<
0;
09
0D
0>
0<
0:
0+
0)
1-
1*
1)
1(
#130000
b10110100 "
b11010010 #
b11001001 $
b1010010 #
b11101001 $
b10100100 "
b100100 "
b111000 !
b100000 "
b1111000 !
b1111100 !
b1101100 !
b100001 "
b1000010 #
b11100001 $
b11101100 !
b1100010 #
b11100000 $
b1 %
1^
0f
1d
0b
1`
1_
0\
0Y
1W
1U
0Q
0P
1O
0M
1L
0J
0H
1G
0E
0.
0?
1=
1<
08
07
1>
18
0)
1'
0*
0'
#140000
b100011 "
b11001100 !
b11000100 !
b1100011 "
b11 %
b1100000 #
b11110000 $
b10110000 $
b1000011 "
b10010000 $
b11000011 "
b10000100 !
b10010100 !
b11000010 "
b10010001 $
b10 %
1\
1X
0W
0V
0S
0^
1]
0c
1b
0a
0`
0L
1K
0G
1F
1E
1.
0<
08
1C
0A
0@
1?
0=
1;
05
06
1D
1@
1<
16
1)
1'
1+
1&
0-
0+
0)
0&
#150000
b1100001 #
b10010110 !
b1100101 #
b100101 #
b10001 $
b10100101 #
b11000110 "
b10110101 #
b10110 !
b11000100 "
b110110 !
b10000100 "
b10100100 "
b110001 $
b100100 "
b1110110 !
b100101 "
b110000 $
b11 %
1^
1L
0K
1J
1G
0F
0E
0\
1W
0U
1e
1a
1`
0_
1T
1R
1P
0N
1M
0.
1A
1=
0<
19
18
17
15
06
16
1)
0'
1&
0&
#160000
b110100 $
b1 %
b10110111 #
b100100 $
b1100110 !
b10110110 #
b10110010 #
b11110010 #
b1000110 !
b1100101 "
b0 %
1F
0b
0a
0T
1S
0R
1N
0^
0]
1Z
0X
1.
0?
07
0A
1<
1:
0@
08
0B
0)
0(
1+
1'
1,
#170000
b100110 $
b1101101 "
b1111101 "
b1000010 !
b11010010 #
b1001010 !
b1010010 #
b1111001 "
b11001010 !
b10001010 !
b1010000 #
b110110 $
b10011010 !
b1010100 #
b111001 "
b1 %
1^
0S
1R
0O
0M
0d
1c
1b
0`
1_
0J
1I
1H
0F
1[
1X
0.
0C
1A
1@
0=
0<
0;
09
18
0D
1B
0>
0:
0+
1)
0'
1-
0,
1*
1(
#180000
b10011011 !
b1110110 $
b1000100 #
b11001 "
b11 %
b1000101 #
b10111011 !
b1100101 #
b10110011 !
b11101 "
b11110011 !
b1100111 #
b1100110 $
b1100011 #
b10 %
0^
1]
1J
0G
1T
1S
0R
0P
1O
0X
1V
1f
0c
1a
1`
1.
0A
0@
1?
1;
08
05
0B
1>
1@
1<
1+
1'
1,
0*
0+
0)
#190000
b1101011 #
b11100110 $
b10011101 "
b10011100 "
b11100111 $
b11100011 $
b10010100 "
b11110111 !
b11101011 #
b11010111 !
b11001011 #
b11011111 !
b11001001 #
b11110011 $
b11001101 #
b11 %
1^
1d
1c
0a
0L
0I
1E
1\
0Z
1X
1U
0S
1R
1Q
0O
1M
0.
1D
1C
1A
1=
0<
19
18
17
15
06
1B
0>
1:
0D
0B
1>
0:
08
0-
1)
0'
1&
0,
1*
0(
1-
1,
0*
1(
1'
#200000
b11010011 $
b10001101 #
b10000100 "
b1011111 !
b10010011 $
b10011101 #
b1 %
b10000000 "
b11111 !
b10000001 "
b10010111 $
b11011 !
b10011 !
b10011111 #
b10011011 #
b0 %
0^
0]
0d
0c
0`
0_
1L
0J
0H
1S
0R
1P
0N
1Z
0W
0V
1.
1D
0C
0A
1<
0;
18
1B
1:
16
0D
0B
0<
0-
0)
0'
0,
0(
0&
1-
1,
1)
#210000
b10001 !
b10010101 $
b1 !
b11000001 "
b0 !
b11100001 "
b10011010 #
b10010010 #
b10101 $
b10000000 !
b1010101 $
b10000010 #
b11100101 "
b11000000 !
b11100100 "
b1010001 $
b11000100 !
b10000000 #
b1 %
1^
0T
0S
0Q
0P
0L
1J
1G
1F
0[
0Z
1V
0U
0f
0e
1d
0b
1`
1_
0.
1D
1A
0?
1<
09
08
07
05
1B
0@
0:
06
0-
0)
1'
0,
1+
1(
1&
#220000
b1011001 $
b11100110 "
b1011000 $
b11101110 "
b11100100 !
b10100000 #
b11100000 #
b11111110 "
b11 %
b11101100 !
b11101110 !
b11111110 !
b11100001 #
b11101001 #
b1111110 !
b11000 $
b11111010 "
b11111011 "
b11100 $
b10 %
0^
1]
1T
1Q
1O
1N
1e
1c
1b
1a
0_
1L
1K
0J
1I
1H
0\
1Z
1Y
0V
1.
0D
0A
1?
0=
0<
1;
0>
1@
1<
1-
1)
1*
0+
0)
#230000
b1111011 "
b1100 $
b101100 $
b11101101 #
b101110 $
b111110 !
b101111 $
b1110011 "
b11110 !
b10110 !
b10010110 !
b1101111 $
b1110111 "
b1101011 $
b11 %
1^
0c
0a
0`
1_
1R
1\
1[
0Z
0X
1W
1V
1J
0I
0E
0.
1C
1A
1=
19
17
15
0B
16
1,
0&
#240000
b1101101 #
b10010111 !
b1010111 "
b11101011 $
b1111101 #
b10010011 !
b1010101 "
b111101 #
b1000101 "
b1 %
b110101 #
b11000101 "
b11010011 !
b11001101 "
b11110011 !
b11101111 $
b0 %
0^
0]
1Z
1U
0K
1I
0H
0G
1E
1f
0d
1a
1`
0Q
1P
0N
0M
1.
1D
0C
0A
0;
09
18
07
05
1B
1>
1:
0D
0B
0<
0:
08
06
0-
0'
0,
0*
0(
1-
1,
1)
1(
1'
1&
#250000
b10001101 "
b10101 #
b11110001 !
b11100001 !
b10100 #
b10001100 "
b11111111 $
b11011111 $
b11011101 $
b10011101 $
b10001000 "
b10010100 #
b10101000 "
b11101 $
b10000100 #
b10101010 "
b11000100 #
b10111010 "
b11001100 #
b111010 "
b10100001 !
b110010 "
b10000001 !
b1 %
1^
0[
1X
0W
0V
0U
0e
0b
0a
0`
0T
1Q
0P
0O
1N
1M
0L
1K
0J
0I
1H
1G
0F
0E
0.
1D
0@
0?
18
15
1@
16
0-
1+
0'
0+
0&
#260000
b11001110 #
b11100 $
b10001001 !
b10001101 !
b11 %
b11000 $
b11101110 #
b10011101 !
b11101111 #
b1000 $
b1010 $
b1001010 $
b1101111 #
b1111111 #
b111111 #
b100010 "
b110111 #
b10100010 "
b11011101 !
b10 %
0H
1E
0^
1]
1d
1c
1b
1`
0\
1[
0Z
0X
1V
1T
1S
0Q
1P
1O
0N
0M
1.
05
0D
0@
0=
08
17
0>
1>
18
1-
1+
1'
1*
0*
0'
#270000
b110011 #
b1011101 !
b1011100 !
b1101010 $
b10000010 "
b1010100 !
b1000100 !
b101010 $
b10110011 #
b10111011 #
b10 "
b11 %
1^
0G
0E
1W
0V
0f
0c
0b
0_
0R
1Q
1M
0.
1D
1C
1A
1@
1?
1=
1<
1;
19
15
0>
06
16
0-
0+
0)
1*
1&
0&
#280000
b1000010 "
b1000110 !
b1000110 "
b1001110 "
b1000010 !
b1 %
b101110 $
b10011011 #
b111110 $
b10001011 #
b11001011 #
b10 !
b11001111 #
b10000010 !
b1101110 "
b10001010 !
b10011010 !
b1111110 $
b1001111 #
b1000111 #
b11101110 "
b0 %
1R
0Q
0P
0O
1N
0M
1Z
1X
1V
0^
0]
1e
0d
1c
1b
0`
1_
1J
1I
1G
1F
1E
1.
1>
0;
1:
0A
0=
05
1B
0<
0B
0>
06
0*
0(
0,
1)
1,
1*
1&
#290000
b1110110 $
b10111010 !
b11101010 "
b11100010 "
b10111110 !
b1110010 $
b1100111 #
b11111110 !
b11000010 "
b11110110 !
b11100110 !
b1101111 #
b1 %
1^
1Q
1O
0J
0I
0G
1d
0c
0b
1a
1`
0Z
0Y
0.
0C
0?
1=
1<
08
07
1>
0)
1'
0*
#300000
b11110010 $
b1101101 #
b11 %
b11100010 $
b1111101 #
b11111101 #
b1000010 "
b11011101 #
b10100110 !
b11010101 #
b10 %
0`
0E
0^
1]
0S
0Q
1P
0O
1M
0X
1U
1.
0D
0@
0=
0<
09
1B
0:
1:
1-
1+
1)
0,
1(
0(
#310000
b1000000 "
b11100011 $
b11010100 #
b0 "
b10100100 !
b10010100 #
b100100 !
b11101011 $
b100 !
b11101111 $
b10010110 #
b1000100 !
b11 %
1^
0e
0a
1`
0_
0T
1S
0N
1\
1Z
1Y
0K
0F
0.
1D
1C
1A
1@
1?
1=
1<
1;
19
18
17
15
0B
0D
0@
0>
0:
08
0-
0+
0)
0'
1,
1-
1+
1*
1(
1'
#320000
b1 "
b11101101 $
b1000101 !
b11001101 $
b10010010 #
b10001101 $
b1001 "
b1000001 !
b1001001 !
b1 %
b10011101 $
b10010 #
b11010 #
b1011 "
b1001011 !
b1011010 #
b10010101 $
b1101011 !
b10010001 $
b1011000 #
b0 %
0^
0]
0S
0R
1Q
1N
0M
1f
1e
0d
1c
1a
0[
0Z
0Y
1X
0W
0V
1L
1K
1I
1.
1D
0C
0A
1@
0=
09
18
07
1B
1>
1:
16
0D
0B
0>
0:
08
0-
0+
0'
0,
0*
0(
0&
1-
1,
1*
1(
1'
#330000
b1111011 !
b10001 $
b1001000 #
b10001011 "
b10000 $
b1001001 #
b11001011 "
b11111011 !
b10010 $
b1010010 $
b11000011 "
b11111111 !
b11001001 #
b11111101 !
b10001001 #
b1011010 $
b11011101 !
b1011110 $
b1 %
1^
0I
1F
1E
1T
0P
0N
1M
0\
1[
1Z
1Y
1V
0U
0e
1d
1b
0a
1_
0.
0@
0?
1=
0<
0;
19
05
1@
1>
1<
1:
06
1+
1)
0+
0*
0)
0(
1&
#340000
b11010011 "
b11010111 "
b10101001 #
b10011101 !
b10101101 #
b10010101 !
b11 %
b10100101 #
b11011110 $
b10011110 $
b100101 #
b10010111 !
b10110111 !
b10011010 $
b10 %
0Z
0V
1U
0^
1]
1e
0c
1a
0`
1R
0Q
1O
0M
1J
1H
1.
0@
16
0=
0<
1;
09
17
1B
0>
1>
1<
0:
18
1+
0&
1)
0,
1*
0*
0)
1(
0'
#350000
b11110111 "
b10001010 $
b11110101 "
b10100111 !
b110101 #
b1110101 "
b10001011 $
b110100 #
b110101 "
b10001001 $
b111101 "
b1110100 #
b10000001 $
b11100111 !
b1110000 #
b11101111 !
b1111000 #
b11000001 $
b11001111 !
b11000101 $
b11 %
1^
0T
0R
1Q
1P
1N
1c
0b
0a
1`
1\
0[
1Z
0Y
0X
1V
0K
1I
1G
0F
0E
0.
1C
1A
1?
1=
19
08
15
0>
1>
1:
06
1'
1*
0*
0(
1&
#360000
b111100 "
b11001110 !
b11100101 $
b1001110 !
b1011000 #
b1 %
b1100101 $
b11011000 #
b111110 "
b1100111 $
b1101111 $
b1110 !
b110 !
b100110 !
b1101011 $
b0 %
0^
0]
0O
1M
1[
0Z
1Y
1W
0U
0f
0c
1a
0`
0_
0L
1K
1.
1D
0A
1@
0?
09
18
16
0B
0@
0:
0-
0+
0'
0&
1,
1+
1(
#370000
b11011010 #
b100010 !
b100000 !
b11001010 #
b11001011 #
b1111110 "
b1110110 "
b10001011 #
b10001111 #
b100001 !
b1001011 $
b10101111 #
b11001011 $
b11001001 $
b1100001 !
b1101001 !
b1001001 !
b11001101 $
b1 %
1^
0[
1Z
0W
1U
0I
1F
1f
0e
0d
1c
0a
1`
1T
1S
1R
0P
1O
0N
0.
0D
0C
0;
08
07
1D
0<
1-
1'
0-
1)
#380000
b1010110 "
b11011101 $
b11010110 "
b10100111 #
b10011101 $
b11010111 "
b11001001 !
b11 %
b10010101 $
b11001101 !
b10100110 #
b10010111 "
b11100110 #
b11001100 !
b10110101 $
b10001100 !
b10000100 !
b10100100 !
b10110001 $
b10 %
0^
1]
0f
1d
0c
1a
0`
1_
0T
0Q
1N
0Z
0Y
1X
1W
0V
1L
0G
0F
1E
1.
0D
1C
0=
1;
05
06
1D
1<
1-
1&
0-
0)
#390000
b10000111 "
b10000011 "
b10110000 $
b11100100 #
b10100110 !
b10001011 "
b10101011 "
b101011 "
b100110 !
b10111000 $
b100010 !
b1101011 "
b10100100 #
b10011000 $
b1100010 !
b1101010 !
b1001010 !
b11 %
1^
1e
0d
1c
0a
1`
0_
0S
0N
0\
1Y
0W
0J
1I
0H
1G
1F
0E
0.
1A
1@
1?
1=
0<
19
17
15
1B
0>
1:
18
0+
1)
0,
1*
0(
0'
#400000
b1011010 !
b100100 #
b1101001 "
b110100 #
b11000 $
b11010 $
b1010 $
b1001010 $
b1101000 "
b1 %
b1011011 !
b1001110 $
b1111000 "
b110110 #
b1011001 !
b1110000 "
b1010000 "
b11010000 "
b1000110 $
b11001 !
b10001 !
b0 %
0^
0]
1[
1Z
0Y
0X
1V
0U
0L
0K
0I
1H
0G
1E
1S
1P
0M
1f
0e
0c
1b
0`
1.
0C
1<
0;
1>
16
0D
0<
0)
0*
0&
1-
1)
#410000
b10110 #
b11010100 "
b1000111 $
b10101 !
b10010100 "
b1010110 #
b1100111 $
b10010110 "
b1000110 #
b1100101 $
b1110101 $
b110101 $
b10010111 "
b10100 !
b10110 !
b10011111 "
b1010110 !
b1 %
1^
0f
1e
1d
1`
1\
0[
1X
1W
0V
1L
1K
1J
1I
0F
0P
0O
1N
0.
0A
0@
0?
0=
07
05
0B
0>
06
1+
1,
1*
1&
#420000
b1000111 #
b1000110 !
b10110101 $
b11 %
b10110001 $
b10001111 "
b1111 "
b10111001 $
b1001110 !
b1100111 #
b1011 "
b1001010 !
b1001011 "
b10011001 $
b1001001 "
b1110111 #
b10011011 $
b10001011 $
b1001000 "
b1001011 !
b10 %
0L
0K
0J
0H
1F
0E
0^
1]
1[
0Z
1Y
0X
0W
1U
1f
0d
1c
0b
1T
1P
1O
1.
08
09
1>
16
0:
1'
0*
0&
1(
#430000
b1101011 !
b11110111 #
b11110101 #
b1101001 !
b1000000 "
b101001 !
b11110100 #
b111001 !
b10001111 $
b1010000 "
b11010000 "
b110001 !
b11010100 #
b110101 !
b10101111 $
b11010010 "
b11000100 #
b10111111 $
b11 %
1^
1Z
1X
1W
1K
0I
1H
1E
0T
0S
0P
0O
1M
0e
1d
0c
1b
1a
0`
0.
1D
1C
1A
1@
1?
1=
1;
19
17
15
1:
1B
06
0D
0B
0@
0>
0:
18
0-
0+
0(
0,
1&
1-
1,
1+
1*
1(
0'
#440000
b11001100 #
b11110010 "
b10001100 #
b1 %
b10110111 $
b110100 !
b1100 #
b110110 !
b11111010 "
b1101 #
b100110 !
b10110011 $
b1111010 "
b1111000 "
b10100011 $
b0 %
0f
1e
0b
0Z
0Y
0X
0^
0]
0K
1I
1G
0E
1T
1Q
0N
0M
1.
0A
1@
1>
1<
1D
0?
09
1B
1:
16
0B
0@
0:
0+
0*
0)
0-
0,
0(
0&
1,
1+
1(
#450000
b1001 #
b1111100 "
b111100 "
b10100001 $
b110 !
b101100 "
b1110 !
b1010 !
b10000001 $
b1 #
b1100 "
b1000001 #
b1000 !
b100 "
b10000101 $
b110 "
b10010101 $
b1 %
1^
0e
0d
1c
0a
0[
1Z
1X
0W
1K
1J
0I
0H
0G
0F
0R
0Q
1N
0.
0D
0C
0<
0;
19
07
1D
1<
1:
1-
1)
0-
0)
0(
#460000
b10001000 !
b11010101 $
b1010101 $
b11001000 !
b1010001 #
b11 %
b11010001 #
b11011000 !
b10000110 "
b11010101 #
b10000010 "
b11011101 #
b10100010 "
b10011101 #
b11011010 !
b10101010 "
b1010001 $
b10101000 "
b10 %
0K
0J
1I
1G
1E
0^
1]
1R
1Q
1P
0N
1M
0Z
1V
0U
1e
1b
1`
1_
1.
0=
09
05
0D
0<
08
17
1B
0>
06
18
1-
1)
1'
0,
1*
1&
0'
#470000
b1010000 $
b11011011 !
b10011100 #
b11101000 "
b11111011 !
b11110011 !
b1000000 $
b0 $
b10110011 !
b10010100 #
b11001000 "
b10110001 !
b11000000 "
b11 %
1^
0I
0G
1F
0T
0Q
1f
0e
0c
1a
0`
0\
0X
0V
0.
1D
1C
1A
1@
1?
1=
1<
1;
19
15
1>
16
0-
0+
0)
0*
0&
#480000
b11000001 "
b10110100 #
b1000 $
b10110101 !
b101000 $
b110101 !
b10100100 #
b1 %
b100100 #
b100000 #
b11000101 "
b101100 $
b11000111 "
b100001 #
b10000111 "
b10101 !
b1010101 !
b0 %
0^
0]
1d
0a
1`
0_
1Z
1Y
1W
1T
0R
0P
1O
0M
1L
1K
1J
0F
1.
0C
0?
0;
07
0D
0@
0<
08
1-
1+
1)
1'
#490000
b100011 #
b1000101 !
b1100011 #
b101101 $
b1000100 !
b1001100 !
b111101 $
b1111101 $
b1001110 !
b10001111 "
b10001110 "
b1000011 #
b1110101 $
b1001010 !
b1010101 $
b11001010 !
b11000011 #
b10001010 "
b11000010 #
b11101010 !
b10101010 !
b1 %
1^
0L
0J
1I
1\
0Y
1X
0W
1V
0f
1e
0d
1c
0b
1a
0`
1_
0T
1S
0O
1N
1M
0.
1D
0A
1@
0=
1<
18
05
0B
0>
06
0-
0+
0)
0'
1,
1*
1&
#500000
b11 %
b11000110 #
b11001010 "
b11000100 #
b10000100 #
b1010100 $
b10101011 !
b10100011 !
b10100 $
b10100001 !
b10100100 #
b11100 $
b10100101 !
b100101 !
b100100 #
b11001110 "
b100101 #
b101 !
b10 %
1f
0e
1d
0c
0a
0_
0\
1Y
0V
1J
1F
1T
0S
1R
1O
0N
0M
0^
1]
1.
09
0D
1>
08
0@
1B
17
16
0<
1;
0:
18
1<
1-
0*
1'
1+
0,
0&
1)
1(
0'
0)
#510000
b11110 $
b11101110 "
b11010 $
b10101 !
b1010 $
b11101111 "
b1100101 #
b1011 $
b1001011 $
b10111 !
b1000011 $
b10011 !
b10010011 !
b11101011 "
b11 %
1^
1N
1e
0d
1b
1_
1L
0J
1G
1\
1[
0Z
0Y
0X
1V
0.
1C
1A
1@
1?
1=
19
08
15
0B
1:
0+
1'
1,
0(
#520000
b11111011 "
b11000011 $
b1111011 "
b1101101 #
b1111101 #
b1110011 "
b11100011 $
b1 %
b1111001 #
b110011 "
b10010010 !
b10011010 !
b10011 "
b11100111 $
b10010 "
b111001 #
b10100111 $
b10011110 !
b10110 "
b0 %
0f
1d
1c
0^
0]
0R
1Q
1P
0N
1Z
1W
0V
1U
0L
1J
0I
1H
0G
0F
0E
1.
0?
0=
1D
0A
0;
18
05
1B
0@
0>
0B
0<
06
0-
0'
0,
1+
1*
1,
1)
1&
#530000
b10100 "
b11011110 !
b11001 #
b11001110 !
b11001100 !
b100 "
b10000100 "
b10000111 $
b11101 #
b11001101 !
b11000101 !
b10000101 "
b11000111 $
b11000001 !
b10000001 "
b1 %
1^
0W
1V
1R
0O
1f
0e
0d
0c
0b
1`
1L
0K
0J
0H
1E
0.
0D
0C
1A
1@
1=
1<
08
07
1B
1>
18
1-
0+
0)
1'
0,
0*
0'
#540000
b10011101 #
b10011100 #
b11000101 $
b11000100 $
b11001100 $
b10010100 #
b10001001 "
b11 %
b11001000 $
b1001 "
b11101000 $
b1000 "
b11000101 !
b10 %
1d
0^
1]
0L
1I
0E
0\
0[
0Z
1Y
1W
0T
0Q
1M
1.
1C
0A
0@
0=
0<
09
08
17
0>
0:
1D
1>
1:
18
1+
1)
1'
1*
1(
0-
0*
0(
0'
#550000
b11111000 $
b1111000 $
b10000100 #
b1010 "
b10000101 !
b10000111 !
b10000000 #
b10000110 !
b10000001 #
b1110000 $
b10 "
b1110100 $
b10000010 "
b1010100 $
b10000011 "
b10000010 !
b11 %
1^
0f
1e
0d
0`
1L
1K
0I
1E
1T
0R
0P
1Z
0Y
1X
0W
0U
0.
1A
1@
1?
1=
1<
1;
19
08
15
0@
0<
16
0+
0)
1'
1+
1)
0&
#560000
b11000011 "
b11000001 #
b11100001 #
b10010010 !
b10011010 !
b10100 $
b11000111 "
b10110 $
b10111 $
b1 %
b111 $
b10000111 $
b11000101 "
b10011000 !
b11100101 #
b10011001 !
b11100100 #
b11001101 "
b10000011 $
b1001101 "
b10100011 $
b10011101 !
b0 %
0^
0]
1\
1[
0Z
0X
1W
0V
1U
1f
0e
1d
1c
1b
0T
1R
1O
1N
0K
1J
1I
1F
0E
1.
0C
1@
0?
0=
1<
0;
18
05
0D
0@
0>
0<
06
0+
0)
0'
1-
1+
1*
1)
1&
#570000
b11100110 #
b10111101 !
b111101 !
b1101101 "
b11101110 #
b11111110 #
b10101011 $
b1101100 "
b101100 "
b101101 !
b100101 !
b11101011 $
b101000 "
b11101001 $
b11111001 $
b100111 !
b11111010 #
b100110 !
b11111011 #
b10101000 "
b100010 !
b1 %
1^
0[
1Y
1X
1V
0L
0J
1G
0F
1E
0f
1e
0d
0c
0b
1a
0_
1T
1S
0R
1Q
1P
0.
1D
1@
1<
09
08
07
0:
18
0-
0+
0)
1'
1(
0'
#580000
b1111011 #
b11111000 $
b11 %
b1111000 $
b1011000 $
b1110011 #
b1010000 $
b110010 !
b111010 !
b10000 $
b1110111 #
b111110 !
b10 %
1d
1c
1b
0^
1]
0\
0Y
0W
0V
0U
1R
0Q
0M
1.
0D
0A
0@
0<
08
1>
16
0B
1-
1+
1)
1'
0*
0&
1,
