design/simulation/qsim/arch.msim.vcd
$comment
	File created using the following command:
		vcd file arch.msim.vcd -direction
$end
$date
	Tue Mar 18 18:51:00 2025
$end
$version
	ModelSim Version 10.1d
$end
$timescale
	1ps
$end
$scope module alucomb_vlg_vec_tst $end
$var reg 8 ! A [7:0] $end
$var reg 8 " B [7:0] $end
$var reg 1 # Ci $end
$var reg 2 $ Fn [1:0] $end
$var reg 2 % Op [1:0] $end
$var wire 1 & Co $end
$var wire 1 ' F [7] $end
$var wire 1 ( F [6] $end
$var wire 1 ) F [5] $end
$var wire 1 * F [4] $end
$var wire 1 + F [3] $end
$var wire 1 , F [2] $end
$var wire 1 - F [1] $end
$var wire 1 . F [0] $end
$var wire 1 / sampler $end
$scope module i1 $end
$var wire 1 0 gnd $end
$var wire 1 1 vcc $end
$var wire 1 2 unknown $end
$var tri1 1 3 devclrn $end
$var tri1 1 4 devpor $end
$var tri1 1 5 devoe $end
$var wire 1 6 add/sub|inst2|inst|inst|inst2~0_combout $end
$var wire 1 7 inst|inst4|inst[8]~1_combout $end
$var wire 1 8 Ci~combout $end
$var wire 1 9 add/sub|inst2|inst|inst1|inst2~0_combout $end
$var wire 1 : add/sub|inst2|inst|inst2|inst2~0_combout $end
$var wire 1 ; add/sub|inst2|inst|inst3|inst2~0_combout $end
$var wire 1 < add/sub|inst2|inst1|inst|inst2~0_combout $end
$var wire 1 = add/sub|inst2|inst1|inst1|inst2~0_combout $end
$var wire 1 > add/sub|inst2|inst1|inst2|inst2~0_combout $end
$var wire 1 ? add/sub|inst2|inst1|inst3|inst2~0_combout $end
$var wire 1 @ inst|inst4|inst[8]~0_combout $end
$var wire 1 A inst|inst4|inst[8]~2_combout $end
$var wire 1 B A~combout [7] $end
$var wire 1 C A~combout [6] $end
$var wire 1 D A~combout [5] $end
$var wire 1 E A~combout [4] $end
$var wire 1 F A~combout [3] $end
$var wire 1 G A~combout [2] $end
$var wire 1 H A~combout [1] $end
$var wire 1 I A~combout [0] $end
$var wire 1 J Op~combout [1] $end
$var wire 1 K Op~combout [0] $end
$var wire 1 L B~combout [7] $end
$var wire 1 M B~combout [6] $end
$var wire 1 N B~combout [5] $end
$var wire 1 O B~combout [4] $end
$var wire 1 P B~combout [3] $end
$var wire 1 Q B~combout [2] $end
$var wire 1 R B~combout [1] $end
$var wire 1 S B~combout [0] $end
$var wire 1 T Fn~combout [1] $end
$var wire 1 U Fn~combout [0] $end
$upscope $end
$upscope $end
$enddefinitions $end
#0
$dumpvars
b100101 !
b1110110 "
1#
b11 $
b1 %
1&
0.
0-
0,
0+
0*
0)
0(
0'
x/
00
11
x2
13
14
15
16
17
18
09
0:
0;
0<
0=
0>
0?
0@
1A
1I
0H
1G
0F
0E
1D
0C
0B
1K
0J
0S
1R
1Q
0P
1O
1N
1M
0L
1U
1T
$end
#10000
b10100101 !
b11100101 !
b11000101 !
b11000100 !
b110110 "
b100110 "
b101110 "
b101010 "
b101000 "
b101001 "
b11 %
b1 $
0T
1J
1S
0R
0Q
1P
0O
0M
0I
0D
1C
1B
0/
0A
06
19
1:
1>
1?
09
0&
#20000
b11000000 !
b11000010 !
b0 $
b11100010 !
b1101001 "
b1111001 "
b1111101 "
b1111111 "
b1111110 "
0S
1R
1Q
1O
1M
0U
1H
0G
1D
1/
19
0:
1=
1;
07
1:
0;
1<
1;
0<
1<
#30000
b11110010 !
b11111010 !
b11111110 "
b11011110 "
b10 %
b1111010 !
b111010 !
b11010110 "
b10 $
b111000 !
b11000 !
b10010110 "
b10000110 "
1T
0K
0P
0O
0N
0M
1L
0H
1F
1E
0D
0C
0B
0/
0=
0>
09
0?
0:
0;
0<
#40000
b11100 !
b11 $
b1100 !
b100 !
b110 "
b100110 "
b110 !
b100110 !
b110110 "
1O
1N
0L
1U
1H
1G
0F
0E
1D
1/
#50000
0#
b110010 "
b11 %
b10100110 !
b11100110 !
b1 $
b1110010 "
b11100010 !
b0 $
b11101010 !
b1010010 "
08
0U
0T
0G
1F
1C
1B
1K
0Q
0N
1M
0/
1>
19
1?
#60000
b11101011 !
b1010000 "
b1011000 "
b11111011 !
b11011000 "
b11111001 !
1#
b11111101 !
b11110101 !
0R
1P
1L
1I
0H
1G
0F
1E
18
1/
09
16
1:
1<
0:
1;
1=
0;
#70000
b11011001 "
b11001001 "
b10110101 !
b10 $
b10001001 "
b11 $
b10101001 "
b10101011 "
b10100011 "
b10110111 !
0#
b10110011 !
1U
1T
1H
0G
0C
1S
1R
0P
0O
1N
0M
08
0/
19
17
1:
1;
#80000
b10 %
b10100011 !
b10100010 "
b10110010 "
b1 $
b11110010 "
b0 $
b11110000 "
0U
0T
0S
0R
1O
1M
0E
0K
1/
0;
0:
07
06
0<
09
#90000
b10000011 !
b11 !
b1110000 "
b1011 !
b1010000 "
1#
b11011 !
b1000000 "
b0 "
b10 "
1R
0O
0N
0M
0L
1F
1E
0D
0B
18
0/
19
0=
0>
0?
16
#100000
b1011011 !
b1010 "
b1011111 !
b1 $
b1111111 !
b11111111 !
b10001010 "
0#
b11001010 "
b11001000 "
1U
0R
1P
1M
1L
1G
1D
1C
1B
08
1/
1=
1<
1:
17
1>
1;
1?
#110000
b0 %
b11111110 !
b11111100 !
b11110100 !
b11101000 "
b11100100 !
b11100000 !
b11000000 !
b1000000 !
b1101000 "
1#
b1101010 "
1R
1N
0L
0I
0H
0G
0F
0E
0D
0B
0J
18
0/
09
0=
07
06
0;
1@
0:
0>
1A
0<
0?
1&
0@
0A
0&
#120000
b1101110 "
b0 !
b1100110 "
b0 $
b1 !
b11 !
b10011 !
b10111 !
b110111 !
b11100110 "
b11100100 "
0U
1I
1H
1G
1E
1D
0C
0R
1Q
0P
1L
1/
1@
1=
1:
16
1A
1>
19
1?
1&
0@
0A
0&
#130000
b1 %
b11100101 "
b10 $
b10100101 "
b11 %
b10000101 "
b10000001 "
b11 $
b110110 !
b100110 !
b100010 !
b10 !
b1 "
b11 "
0I
0G
0E
0D
1U
1T
1S
1R
0Q
0N
0M
0L
1K
1J
0/
06
0=
1;
09
0>
1<
0:
0?
1=
0;
1>
0<
1?
0=
0>
0?
#140000
b1010 !
b10 %
b100011 "
b10 $
b1011 !
b1111 !
b10100011 "
b10100001 "
0U
0R
1N
1L
0K
1I
1G
1F
1/
17
16
19
1:
1;
#150000
b1001111 !
b1001101 !
b11100001 "
b1001100 !
b1001000 !
b11100011 "
1R
1M
0I
0H
0G
1C
0/
1>
07
0:
1?
0;
#160000
b11110011 "
0#
b11110010 "
b0 %
b1101000 !
b1100000 !
b1 %
b1110010 "
b100000 !
b100001 !
b1110000 "
08
1I
0F
1D
0C
1K
0J
0S
0R
1O
0L
1/
1@
06
17
1=
0>
09
0?
1A
1>
0@
1&
#170000
b1111000 "
b0 $
b110001 !
b1011000 "
b11000 "
b1000 "
b10001 !
b0 %
b10001000 "
b1010001 !
b1010000 !
0K
0I
1E
0D
1C
0T
1P
0O
0N
0M
1L
0/
0A
07
0=
1?
0>
1@
0&
0?
1A
0@
1&
0A
0&
#180000
b11010000 !
b10001100 "
b10001101 "
b11011000 !
b10000101 "
b10 $
b101 "
1T
1S
1Q
0P
0L
1F
1B
1/
#190000
b11 $
b11011100 !
b11001100 !
b100101 "
b1100101 "
b1110101 "
b1 %
b10001100 !
b10000100 !
b1 $
1K
1O
1N
1M
1G
0F
0E
0C
1U
0T
0/
1@
1?
17
1A
0@
1&
#200000
1#
b11 %
b1110111 "
b10100100 !
b100100 !
b11110111 "
b110100 !
b10110111 "
b10100111 "
b10 %
b1110100 !
b1111100 !
b11 $
18
1T
1F
1E
1D
1C
0B
1R
0O
0M
1L
0K
1J
1/
07
1;
1<
1>
0?
0A
1=
0&
#210000
b1111110 !
b10100011 "
b10101011 "
b1111010 !
b10001011 "
b1011 "
b1101010 !
b11 %
b101010 !
b100010 !
1K
0Q
1P
0N
0L
1H
0G
0F
0E
0C
0/
0;
1?
0<
#220000
b100011 !
0#
b10100011 !
b1001011 "
b1 $
b1001111 "
b1101111 "
b11101111 "
b10110011 !
b10 %
b10111011 !
08
0K
0T
1Q
1N
1M
1L
1I
1F
1E
1B
1/
16
17
0=
0>
1<
19
0?
1=
#230000
b11101110 "
b11101100 "
b10011011 !
b10011111 !
b10101100 "
b11 $
b10001100 "
b10001111 !
b10000111 !
1T
1G
0F
0E
0D
0S
0R
0N
0M
0/
1:
0<
1>
0=
1?
0>
0?
#240000
b0 %
b10011100 "
b10010100 "
1#
b111 !
b10010000 "
b10000 "
b10001 "
b110001 "
b1111 !
18
1F
0B
1S
0Q
0P
1O
1N
0L
0J
1/
06
1;
#250000
b1101 !
b1100 !
b1 %
b110011 "
b1 $
b11100 !
b11 %
b100011 "
b101011 "
0#
b101010 "
b10100 !
0T
0S
1R
1P
0O
1K
1J
0I
0H
0F
1E
08
0/
07
16
09
0;
1<
#260000
b0 $
b110100 !
b110000 !
b1101010 "
b1101110 "
b11101110 "
b110010 !
b11101100 "
b100010 !
b1 %
b11111100 "
b11110100 "
1#
b101010 !
0J
0R
1Q
0P
1O
1M
1L
1H
0G
1F
0E
1D
0U
18
1/
1@
19
0:
1;
0<
1=
06
1:
0;
1<
1>
09
1;
0<
1?
0:
1<
0@
0;
0<
#270000
b1101010 !
b11010100 "
b0 %
b10 $
b1101110 !
b1010100 "
b1101100 !
b10 %
0#
1T
0K
1J
0N
0L
0H
1G
1C
08
0/
0=
0?
1:
1;
1<
1=
#280000
b1101101 !
b1010000 "
b1111101 !
b1000000 "
b1110101 !
b110101 !
b1100000 "
0Q
0O
1N
1I
0F
1E
0C
1/
0:
17
0;
0<
#290000
b10110101 !
b11 $
b100000 "
b101000 "
b11 %
b1 $
b10110001 !
1#
b10100001 !
b111000 "
b10101001 !
b11000 "
1K
1P
1O
0N
0M
1U
0T
0G
1F
0E
1B
18
0/
1?
16
19
1:
1;
#300000
b11010 "
b10101000 !
b11110 "
b101000 !
b0 $
b10 %
b101100 !
0K
0U
0I
1G
0B
1R
1Q
1/
0?
0>
0=
1<
07
06
1=
09
#310000
b10011110 "
b101110 !
b1101110 !
b11011110 "
b11010110 "
0#
b1111110 !
b1110110 !
b11010100 "
b1 $
08
1U
1H
0F
1E
1C
0R
0P
1M
1L
0/
16
1>
0:
19
0;
1:
0<
1;
1<
#320000
b11010101 "
b11 $
b11000101 "
b11100101 "
b11100001 "
b1110010 !
b11101001 "
1#
b1100010 !
b1101010 !
b10 $
0G
1F
0E
0U
1T
1S
0Q
1P
0O
1N
18
1/
0:
0<
1?
#330000
b1001010 !
b1001011 !
b1011 !
b0 $
b11001001 "
b11001101 "
b11000101 "
b11011 !
b10011 !
1Q
0P
0N
0T
1I
0F
1E
0D
0C
0/
1:
0;
0=
1<
0<
0>
0?
#340000
b10000101 "
b10111 !
0#
b110111 !
b10100101 "
b10100001 "
b10101001 "
1G
1D
0Q
1P
1N
0M
08
1/
1=
1;
1<
#350000
b0 %
b1 $
b1110111 !
b10100001 "
0P
1C
1U
0J
0/
1>
1@
1A
1&
#360000
b1 %
b100001 "
b1110101 !
b1110100 !
b1110000 !
1#
b1 "
b101 "
b110000 !
b1101 "
0I
0H
0G
0C
1Q
1P
0N
0L
1K
18
1/
06
0:
0;
1?
0A
0@
09
1@
0&
#370000
b1100 "
b11100 "
b111000 !
b1011100 "
b0 $
b11011100 "
b111100 !
0#
b11111100 "
b1111100 !
b11110100 "
0U
1G
1F
1C
0S
0P
1O
1N
1M
1L
08
0/
1:
1;
#380000
b11111100 !
b10 $
b11101100 !
b11001100 !
b11001110 !
b11100100 "
b11000110 !
b10100100 "
b11 $
b11000010 !
b10000010 !
b10101100 "
1P
0O
0M
1U
1T
1H
0G
0F
0E
0D
0C
1B
1/
0;
0@
0=
0:
19
16
0<
0>
0?
1@
#390000
1#
b10 !
b1 $
b10010 !
b11101100 "
b0 $
b10110 !
b1010110 !
18
1M
0U
0T
1G
1E
1C
0B
0/
06
1>
1:
09
1?
1;
0@
1<
1=
#400000
b11101110 "
b11 %
b10 %
b11101010 "
b11101011 "
b1101011 "
b1001011 "
b1011011 "
b1011110 !
b1010011 "
0#
b10 $
b11110 !
08
1T
1F
0C
0K
1J
1S
1R
0Q
0P
1O
0N
0L
1/
19
0:
0=
0?
1:
0;
0>
1;
#410000
b1110 !
b10011 "
b11 $
b1010 !
b10001 "
b10101 "
b10010101 "
b10 !
b1 $
1U
0T
0R
1Q
0M
1L
0G
0F
0E
0/
1=
0<
0:
1>
0=
0;
0>
#420000
b11 !
b10000011 !
b0 %
1#
b11000011 !
b0 $
b10010001 "
b10001 "
b10 $
18
0Q
0L
0U
1T
0J
1I
1C
1B
1/
1@
16
09
17
1A
19
1&
#430000
b10000 "
b0 "
b1000 "
b11000010 !
b1000010 !
b0 $
0T
0I
0B
0S
1P
0O
0/
07
06
09
#440000
b1000000 !
b1 %
b101000 "
b1010000 !
b1101000 "
b1101010 "
b1011000 !
b11000 !
b1101011 "
b1100011 "
b11001 !
b10 $
1T
1S
1R
0P
1N
1M
1K
1I
0H
1F
1E
0C
1/
17
16
0A
1A
19
0&
1&
#450000
b111001 !
b11 %
0#
b11 $
b1110011 "
b10111001 !
b10111011 !
b10 %
b10101011 !
b110011 "
b10100011 !
b11100011 !
08
1O
0M
1U
0K
1J
1H
0F
0E
1D
1C
1B
0/
0@
1>
1?
1:
0A
1;
0&
#460000
b10110011 "
b10110001 "
b10110000 "
b11000011 !
b10 $
b1000011 !
b1000001 !
b1010001 !
b1011001 !
b11001 !
0U
0H
1F
1E
0D
0C
0B
0S
0R
1L
1/
0>
1<
0:
09
06
0?
1=
0;
#470000
b11101 !
b10010000 "
b10011000 "
1#
b10011001 "
b11 $
b10011101 !
b10011111 !
b10001111 !
18
1U
1S
1P
0N
1H
1G
0E
1B
0/
1>
0<
1:
19
1?
0=
1;
0>
0?
#480000
b10011101 "
b10001110 !
b10001101 "
b10001111 "
b10000110 !
b11000110 !
b10101111 "
b10100111 "
b1000110 !
b1010110 !
0I
0F
1E
1C
0B
1R
1Q
0P
0O
1N
1/
07
1<
1>
09
0:
0;
#490000
b1 $
b0 %
0#
b10100011 "
b1010111 !
b10110011 "
b1011111 !
b10010011 "
b11011111 !
b11001111 !
08
1I
1F
0E
1B
0Q
1O
0N
0J
0T
0/
1@
16
17
1;
0<
1?
1:
1=
1A
19
0=
0@
0A
1&
0&
#500000
b1 %
b11010011 "
b1010011 "
b11101111 !
b1010010 "
b0 $
b1010000 "
b10101111 !
b11 %
b1000000 "
b10100111 !
b1100000 "
b100111 !
0U
0F
1D
0C
0B
0S
0R
0O
1N
1M
0L
1K
1J
1/
0?
0>
1=
0;
07
06
1>
09
0:
#510000
b100011 !
b100001 !
b10 $
1#
b1100100 "
b100000 !
b110000 !
b100100 "
b10000 !
b100110 "
b1 %
b110110 "
b11000 !
b10110 "
b10011000 !
18
0J
1R
1Q
1O
0N
0M
1T
0I
0H
0G
1F
1E
0D
1B
0/
1@
1<
0=
0>
1?
0?
0@
1@
#520000
b11 $
b10011100 !
b10011110 !
b1 $
b10010 "
b10001110 !
b1010010 "
b10101110 !
b1010000 "
b11 %
b1110000 "
b101110 !
1J
0R
0Q
1N
1M
1H
1G
0E
1D
0B
1U
0T
1/
0@
19
1:
1=
0<
1;
0=
#530000
b1110001 "
b1101110 !
0#
b1101111 !
b1101101 !
b110001 "
b10001 "
b11101101 !
1I
0H
1C
1B
1S
0N
0M
08
0/
17
16
09
1>
1?
1=
19
#540000
b10 %
b10010001 "
b10000001 "
b11100101 !
b10000101 "
b11110101 !
b10000111 "
b10000110 "
b10110101 !
b10110111 !
1H
0F
1E
0C
0S
1R
1Q
0O
1L
0K
1/
1<
#550000
b0 $
b10 $
b10010111 !
b0 %
1#
b11000110 "
b11100110 "
b10111 !
b1 %
b1100110 "
b1110110 "
b11111 !
b1110010 "
b1110000 "
b11101 !
18
0R
0Q
1O
1N
1M
0L
1K
0J
0H
1F
0D
0B
0U
1T
0/
09
0?
1A
0:
1@
1&
0;
#560000
b11001 !
b11000 !
b1000 !
b1110001 "
b1001000 !
b11 $
b1101000 !
b11 %
b110001 "
b10001 "
b10 %
b10010001 "
b1100000 !
b10010011 "
0K
1J
1U
1S
1R
0N
0M
1L
0I
0G
0F
0E
1D
1C
1/
0@
0<
07
06
0A
0&
#570000
0#
b11100000 !
b10010111 "
b11110000 !
b10110000 !
b10110111 "
b11 %
08
1K
1Q
1N
1E
0C
1B
0/
0=
1?
0>
0?
#580000
b10100111 "
b10110100 !
b10110101 !
b10 $
b11100111 "
b1100111 "
b10111101 !
1#
b111101 !
b101101 !
0U
1I
1G
1F
0E
0B
0O
1M
0L
18
1/
1=
1:
17
16
1>
1;
19
#590000
b101111 !
b1100110 "
b1100010 "
b1000010 "
b10 "
b10000010 "
0#
b10101111 !
0S
0Q
0N
0M
1L
1H
1B
08
0/
06
0=
0>
1?
#600000
b10000000 "
b10 %
b10010000 "
b10111111 !
b10010001 "
b10110001 "
1#
b111111 !
1E
0B
0K
1S
0R
1O
1N
18
1/
1<
0?
16
09
1=
19
0:
1:
0;
1;
#610000
b10111001 "
b0 $
b11111 !
b0 %
b11011 !
b11010 !
b11111001 "
b11111011 "
b11101011 "
b1010 !
b11101010 "
b10001010 !
0J
0I
0G
0E
0D
1B
0T
0S
1R
1P
0O
1M
0/
1@
07
06
0:
0<
1?
1>
1A
0=
0@
0>
0A
1&
0&
#620000
b11001010 !
b11001000 !
b1 %
b11001010 "
0#
b11000010 "
b11101000 !
b11 %
b11101100 !
b10000010 "
b10010010 "
b11111100 !
b10010011 "
1S
0P
1O
0N
0M
1K
1J
0H
1G
1E
1D
1C
08
1/
0;
1<
09
1:
1=
0:
1;
1>
0;
#630000
b1 $
b10010111 "
b10111100 !
1#
b10011111 "
b10011100 !
b1 %
b10011000 !
b11011111 "
b11001111 "
b11001110 "
18
0J
0G
0D
0C
0S
1Q
1P
0O
1M
1U
0/
1@
0>
17
1A
0?
0@
1&
#640000
b11 $
b10011001 !
b11001100 "
b11001000 "
b11011001 !
b11111001 !
b11 %
b10001000 "
b10011000 "
1J
0R
0Q
1O
0M
1I
1D
1C
1T
1/
0A
0<
1>
16
1?
19
0&
1:
1;
1<
#650000
b11110001 !
b11000 "
0#
b10000 "
b1 $
b1 %
b0 "
08
0J
0T
0P
0O
0L
0F
0/
1A
1&
#660000
b1110001 !
b100000 "
b0 $
b100001 "
b1110000 !
b100101 "
b1100101 "
b11100101 "
b11101101 "
b10 $
b11 %
1J
0U
1T
1S
1Q
1P
1N
1M
1L
0I
0B
1/
0A
09
07
06
0:
0&
0;
0<
#670000
b1110010 !
b1100010 !
b1100110 !
b1101110 !
1#
b11001101 "
b11001100 "
b1101111 !
b10001100 "
b1100 "
b0 $
b1 %
18
0J
0T
0S
0N
0M
0L
1I
1H
1G
1F
0E
0/
16
0=
0?
1:
1;
19
0>
1@
#680000
b11100 "
b10100 "
b1101101 !
b10101 "
b1101100 !
b10010101 "
0I
0H
1S
0P
1O
1L
1/
09
1<
1=
1>
1?
0@
#690000
b0 %
b10010111 "
b101100 !
b1100 !
0#
b10 $
b10000111 "
b1110 !
b111 "
08
1T
1H
0D
0C
1R
0O
0L
0K
0/
1@
06
19
0=
0>
0<
0?
1A
0@
0A
1&
0&
#700000
b11 $
b11110 !
b100111 "
b101111 "
b101110 "
b1 %
b111110 !
1#
b10101110 "
1K
0S
1P
1N
1L
1E
1D
1U
18
1/
1<
09
1=
0:
1>
0;
#710000
b111010 !
b11101110 "
b11 %
b111011 !
b1111011 !
b1 $
b11111110 "
b1101011 !
b11011110 "
b1001011 !
0T
1J
1O
0N
1M
1I
0G
0E
0D
1C
0/
0<
16
0=
19
0>
#720000
b11001011 !
b11011010 "
b11000011 !
b11011000 "
b11000001 !
b11011001 "
0#
b1011001 "
b11000000 !
b10000000 !
b10010000 !
b1111001 "
b10110000 !
1S
0R
0Q
1N
0L
0I
0H
0F
1E
1D
0C
1B
08
1/
06
1:
1?
17
09
0:
#730000
b0 $
b10 %
b10110100 !
b0 %
b10 $
b110100 !
b1111101 "
b110101 !
b100101 !
b1011101 "
1Q
0N
1I
1G
0E
0B
0K
0J
0U
1T
0/
1:
16
0?
1@
1;
0@
1A
1<
0A
1&
1=
0&
1>
#740000
b1010101 "
b1000101 "
b100111 !
b1000100 "
1#
b1100111 !
b1 %
b1100011 !
b1000000 "
b1100010 !
18
1K
0I
1H
0G
1C
0S
0Q
0P
0O
1/
1@
06
1A
07
19
0:
0;
0<
0A
09
0=
1&
0&
#750000
b0 "
b10000000 "
b11 %
b0 $
b11100010 !
b10100000 "
b10110000 "
0#
b10100010 !
b10 %
b10100110 !
b10110100 "
b10100111 !
1I
1G
0C
1B
0T
0K
1J
1Q
1O
1N
0M
1L
08
0/
1:
0>
1?
1A
0@
1=
0A
1&
0&
#760000
b1 $
b10100101 !
b10110101 "
b110101 "
b11 $
b100101 !
b100101 "
1#
b1100101 !
b11 %
b1100001 !
b1100000 !
18
1K
1S
0O
0L
0I
0H
0G
1C
0B
1U
1T
1/
0?
0:
1>
0=
1;
0;
1?
1<
0<
1=
0=
#770000
b100111 "
b1000000 !
b1010000 !
b1 %
b100011 "
b10 $
b1010010 !
b100010 "
b10100010 "
b0 $
b11010010 !
b0 %
b11010011 !
0U
0T
0K
0J
1I
1H
1E
0D
1B
0S
1R
0Q
1L
0/
0>
19
16
#780000
b11011011 !
b10101010 "
b10111010 "
0#
b10011011 !
b10111000 "
b10111011 !
b10 %
b1 $
b10111001 "
b11 %
08
1U
1K
1J
1S
0R
1P
1O
1F
1D
0C
1/
0?
1:
17
1;
1<
1=
1>
1?
#790000
b11111001 "
b11011001 "
b10101011 !
b11011101 "
b1011101 "
b10101010 !
b10100010 !
b1001101 "
b0 $
b10 %
0K
0U
0I
0F
0E
1Q
0O
0N
1M
0L
0/
0<
07
06
0=
09
0>
0:
0?
0;
#800000
b100010 !
b1000101 "
b10 !
b101 "
b100101 "
b10010 !
b11010 !
b110101 "
b11 %
1K
0P
1O
1N
0M
1F
1E
0D
0B
1/
1<
1=
#810000
b11110 !
1#
b110111 "
b110110 "
b110010 "
b10110010 "
b11111 !
b1 $
b10011111 !
b10111010 "
b10111111 !
b11111010 "
b11011010 "
b11001010 "
18
1U
0S
1R
0Q
1P
0O
0N
1M
1L
1I
1G
1D
1B
0/
16
1:
17
19
1;
#820000
b10111101 !
b11111101 !
b11001000 "
b11001100 "
b1001100 "
b11111100 !
b0 $
b1000100 "
b100 "
0U
0R
1Q
0P
0M
0L
0I
0H
1C
1/
1>
09
07
06
1?
#830000
b11110100 !
b10 %
b11110000 !
b1110000 !
b1010000 !
b100100 "
b1010010 !
b10010 !
b100110 "
b10100110 "
b11100110 "
1R
1N
1M
1L
0K
1H
0G
0F
0D
0C
0B
0/
19
0:
0;
1:
0<
0=
0>
0?
#840000
b10 $
0#
b11100111 "
b11110111 "
b11110011 "
b10011 !
b11 $
b10010011 !
b11010011 "
b10010001 !
b11010001 !
b1010011 "
08
1I
0H
1C
1B
1S
0Q
1O
0N
0L
1U
1T
1/
16
17
09
1?
1;
0:
1<
0;
1=
0<
1>
0=
0>
#850000
b11000001 !
b1010001 "
1#
b11000000 !
b1110001 "
b11000010 !
b11110001 "
0R
1N
1L
0I
1H
0E
18
0/
19
0?
07
06
1:
1;
#860000
b0 %
b11111001 "
b1 %
b11100010 !
b10111001 "
b10 $
b10100010 !
b10110010 !
b10111011 "
b10110011 !
b10110001 !
0U
1I
0H
1E
1D
0C
1R
1P
0M
1K
0J
1/
1@
1?
1=
1<
0:
09
17
16
1A
0@
0;
19
1&
#870000
b10111010 "
0#
b10011010 "
b11010 "
b11 %
b10010 "
b11 $
b10100001 !
08
0E
1U
1J
0S
0P
0N
0L
0/
0<
1>
1:
09
0A
1;
0:
0&
0;
#880000
b10100101 !
b10 "
b100101 !
b10 %
b101 !
b1000101 !
b0 "
b1000100 !
b1000110 !
1#
b100000 "
b0 %
0K
0J
0R
0O
1N
0I
1H
1G
0D
1C
0B
18
1/
1@
19
0=
07
06
1:
1A
1;
1<
1&
#890000
b1001110 !
b100100 "
b1100100 "
b1101100 "
b10 $
b1011110 !
b1011010 !
b11011010 !
b1 %
b10011010 !
b10011000 !
0#
1K
0U
1Q
1P
1M
0H
0G
1F
1E
0C
1B
08
0/
0A
0>
1=
09
0?
1>
0:
0&
0@
1?
1@
#900000
b11101100 "
b11111100 "
b10011001 !
b11 %
b11111000 "
b10001001 !
b10001101 !
b10 %
b11001101 !
b11001111 !
1#
0K
1J
1I
1H
1G
0E
1C
0Q
1O
1L
18
1/
1A
0@
17
16
0A
19
1&
1:
0&
#910000
b0 $
b11111001 "
b11111011 "
b11011011 "
b11000111 !
b1000111 !
b1000011 !
b11 !
0#
0G
0F
0C
0B
1S
1R
0N
0T
08
0/
0:
07
0=
0;
0>
0<
0?
#920000
b1 $
b10 !
b10010 !
b11 $
b11011010 "
b11011000 "
b10110 !
b1010110 !
0S
0R
0I
1G
1E
1C
1U
1T
1/
1:
#930000
b10011000 "
b11000 "
b11100 "
b1011110 !
b1011111 !
b1001111 !
b1 $
b11101 "
b1001011 !
0T
1I
0G
1F
0E
1S
1Q
0M
0L
0/
0:
1;
1>
0;
1?
#940000
b1101011 !
b10101 "
b101 "
b11 %
b1101001 !
b0 $
b111 "
b1101000 !
b10 $
b110 "
b1101100 !
0U
1T
1K
0S
1R
0P
0O
0I
0H
1G
1D
1/
0?
0>
1:
06
1;
09
#950000
b1 %
1#
b10000110 "
b10000010 "
b10010010 "
b1101110 !
b11 $
b1 $
b1101010 !
18
1U
0T
1H
0G
0Q
1O
1L
0J
0/
1>
1=
0:
#960000
b11101010 !
b11111010 !
b0 %
b11111011 !
b10 %
b10010 "
b10 "
b11111001 !
b0 $
0U
0O
0L
0K
1J
1I
0H
1E
1B
1/
1?
0=
1<
0;
16
0>
1=
0<
19
0?
1>
0=
1?
0>
0?
#970000
b11110001 !
b11 "
b10 $
b11110101 !
b11100101 !
b11 %
b11100111 !
1K
1T
1S
1H
1G
0F
0E
0/
17
1:
#980000
b11000111 !
b1 "
0#
b1000111 !
b1000110 !
b1 %
b10000001 "
b10010001 "
b0 %
08
0K
0J
0R
1O
1L
0I
0D
0B
1/
06
07
09
0:
#990000
b10110001 "
b11 $
b1 $
b1010110 !
b1110110 !
b11110110 !
b110001 "
1E
1D
1B
1U
0T
1N
0L
0/
1?
17
1@
1>
1:
19
0@
1A
1;
0A
1<
1&
1=
0&
