design/simulation/qsim/arch.msim.vcd
$comment
	File created using the following command:
		vcd file arch.msim.vcd -direction
$end
$date
	Tue Mar 18 10:32:50 2025
$end
$version
	ModelSim Version 10.1d
$end
$timescale
	1ps
$end
$scope module addsub8_vlg_vec_tst $end
$var reg 8 ! A [7:0] $end
$var reg 8 " B [7:0] $end
$var reg 1 # Ci $end
$var reg 1 $ M $end
$var wire 1 % Co $end
$var wire 1 & S [7] $end
$var wire 1 ' S [6] $end
$var wire 1 ( S [5] $end
$var wire 1 ) S [4] $end
$var wire 1 * S [3] $end
$var wire 1 + S [2] $end
$var wire 1 , S [1] $end
$var wire 1 - S [0] $end
$var wire 1 . sampler $end
$scope module i1 $end
$var wire 1 / gnd $end
$var wire 1 0 vcc $end
$var wire 1 1 unknown $end
$var tri1 1 2 devclrn $end
$var tri1 1 3 devpor $end
$var tri1 1 4 devoe $end
$var wire 1 5 M~combout $end
$var wire 1 6 Ci~combout $end
$var wire 1 7 inst2|inst|inst|inst2~0_combout $end
$var wire 1 8 inst2|inst|inst1|inst2~0_combout $end
$var wire 1 9 inst2|inst|inst2|inst2~0_combout $end
$var wire 1 : inst2|inst|inst3|inst2~0_combout $end
$var wire 1 ; inst2|inst1|inst|inst2~0_combout $end
$var wire 1 < inst2|inst1|inst1|inst2~0_combout $end
$var wire 1 = inst2|inst1|inst2|inst2~0_combout $end
$var wire 1 > inst2|inst1|inst3|inst2~0_combout $end
$var wire 1 ? inst3~0_combout $end
$var wire 1 @ inst2|inst1|inst3|inst1|inst2~0_combout $end
$var wire 1 A inst2|inst1|inst2|inst1|inst2~0_combout $end
$var wire 1 B inst2|inst1|inst1|inst1|inst2~0_combout $end
$var wire 1 C inst2|inst1|inst|inst1|inst2~0_combout $end
$var wire 1 D inst2|inst|inst3|inst1|inst2~0_combout $end
$var wire 1 E inst2|inst|inst2|inst1|inst2~0_combout $end
$var wire 1 F inst2|inst|inst1|inst1|inst2~0_combout $end
$var wire 1 G inst2|inst|inst|inst1|inst2~0_combout $end
$var wire 1 H B~combout [7] $end
$var wire 1 I B~combout [6] $end
$var wire 1 J B~combout [5] $end
$var wire 1 K B~combout [4] $end
$var wire 1 L B~combout [3] $end
$var wire 1 M B~combout [2] $end
$var wire 1 N B~combout [1] $end
$var wire 1 O B~combout [0] $end
$var wire 1 P A~combout [7] $end
$var wire 1 Q A~combout [6] $end
$var wire 1 R A~combout [5] $end
$var wire 1 S A~combout [4] $end
$var wire 1 T A~combout [3] $end
$var wire 1 U A~combout [2] $end
$var wire 1 V A~combout [1] $end
$var wire 1 W A~combout [0] $end
$upscope $end
$upscope $end
$enddefinitions $end
#0
$dumpvars
b110100 !
b1100010 "
0#
1$
1%
0-
1,
0+
0*
1)
0(
1'
1&
x.
0/
10
x1
12
13
14
15
06
17
08
19
1:
1;
1<
0=
0>
1?
1@
1A
0B
1C
0D
0E
1F
0G
0O
1N
0M
0L
0K
1J
1I
0H
0W
0V
1U
0T
1S
1R
0Q
0P
$end
#10000
b10110100 !
b11110100 !
b11010100 !
b11000100 !
b11001100 !
b11100010 "
b10100010 "
b10101010 "
b10101110 "
b10101100 "
b10101101 "
1O
0N
1M
1L
0I
1H
1T
0S
0R
1Q
1P
0.
1G
07
0F
18
1E
09
1=
0C
1B
0<
1F
08
0E
19
1D
0:
0@
1>
0A
1-
0,
1+
0)
1(
1E
09
0D
1:
1C
0;
0?
1,
0+
1*
0&
0'
1D
0:
0C
1;
0B
1+
0*
1)
0%
1C
0;
1B
1*
0)
0(
0B
1)
1(
0(
#20000
0$
b1001100 !
b101101 "
b100101 "
05
0L
0H
0P
1.
0F
0E
0C
1B
1A
1@
1?
0>
0=
19
0?
0@
0D
1:
0,
0+
0)
1(
1'
1&
1%
1C
0%
0&
0*
1)
#30000
b1001000 !
b1001001 !
b101 "
b10101 "
b1001 !
b1010101 "
b1010111 "
b1010110 "
1$
b10001001 !
b11010110 "
0O
1N
1K
0J
1I
1H
1W
0U
0Q
1P
15
0.
17
0A
1@
09
1D
1?
1F
0D
0'
1&
1*
1%
1,
0*
#40000
b10001011 !
b10011011 !
b10010011 !
b10010111 !
b11010111 !
b10010110 "
b10010100 "
b10010101 "
0$
1O
0N
0I
1V
1U
0T
1S
1Q
05
1.
0G
0F
18
1A
19
0:
1;
0B
0@
0?
1>
1E
1D
0C
1B
1?
0-
0,
1'
0(
0&
0%
1+
1*
0)
1(
1%
#50000
b11110111 !
b11110110 !
b10110101 "
b11111110 !
b11111010 !
b10111010 !
b10110111 "
b10110110 "
1$
0O
1N
1J
0W
0U
1T
1R
0Q
15
0.
0B
1<
09
1:
1C
1@
0?
0>
0;
0A
1=
0D
0C
1;
1?
1B
0<
0(
1)
1&
0%
0@
1>
0B
1<
1A
0=
0'
0*
0)
1%
1(
0?
0A
1=
1@
0>
0&
0(
1'
0@
1>
1?
0%
0'
1&
0?
0&
1%
0%
#60000
b10110010 "
b10111010 "
b10101010 "
b111010 !
b101010 "
b101010 !
b101011 !
b1010 "
b101111 !
b1101111 !
b1000 "
1W
1U
0S
1Q
0P
0N
0M
1L
0K
0J
0H
1.
1G
19
1A
1F
1D
0:
1B
0D
1:
1C
0;
1-
1'
1,
1*
1(
0C
1;
0B
0*
1)
1B
0)
0(
1(
#70000
b1001000 "
b1001111 !
0$
b1001100 "
b1000100 "
b11001111 !
b11000100 "
b11011111 !
b11011110 !
b11100100 "
b10011110 !
0W
1S
0R
0Q
1P
1M
0L
1J
1I
1H
05
0.
0G
07
0B
0A
1@
0F
1?
1F
08
0-
0(
0'
1&
0,
1%
0E
1,
0+
#80000
b10011100 !
b11100101 "
b11110101 "
b11110111 "
1$
b11100 !
b1100 !
b1101 !
b1001101 !
1O
1N
1K
1W
0V
0S
1Q
0P
15
1.
17
0F
1C
0;
0>
1E
1D
1B
0?
0<
09
1F
0B
1?
1A
0=
0D
0,
1)
1+
1*
1(
0%
0@
1,
0(
1%
1'
0*
0&
#90000
b1000101 !
b1000001 !
b11111111 "
b1000011 !
b11111101 "
b11000011 !
b11010011 !
b10010011 !
0N
1L
1V
0U
0T
1S
0Q
1P
0.
18
0:
0E
0C
1;
0A
1@
1E
1C
0;
1B
0+
0)
0'
1&
0B
1+
1)
1(
0(
#100000
b10111101 "
b10011101 "
b10010010 !
b10011010 !
b10010101 "
b10011000 !
b10010111 "
b11000 !
b1000 !
b1001000 !
0W
0V
1T
0S
1Q
0P
1N
0L
0J
0I
1.
1G
07
08
1:
0C
1=
0@
1B
0F
0E
1C
1@
1-
0)
0&
1(
0,
0+
1)
1&
#110000
b10000111 "
b1001100 !
b11000111 "
b1001101 !
b1000101 !
b11000101 !
b11010101 !
b10010101 !
1W
1U
0T
1S
0Q
1P
0K
1I
0.
0G
17
1E
1D
0:
1;
0=
0@
1>
1F
0C
0B
1<
1@
0>
0?
0-
1+
1*
0&
1A
1?
1,
0)
0(
1&
0%
1'
1%
#120000
b10110101 !
b1000111 "
b1000110 "
b1001110 "
b10110111 !
b1011110 "
b10110011 !
b110011 !
b100011 !
0O
1L
1K
0H
1V
0U
0S
1R
0P
1.
1G
0D
0;
0F
18
0E
1B
0B
1E
1-
0*
0,
0+
1(
0(
1+
#130000
0$
b1111110 "
b111110 "
b101011 !
b10111110 "
b10110110 "
b101001 !
b10100110 "
b101101 !
b10101101 !
05
0V
1U
1T
1P
0L
0K
1J
0I
1H
0.
1D
0@
0?
1>
19
07
1?
0D
1:
1F
08
1*
0&
0%
1C
0E
1%
0*
1,
1)
0+
#140000
b10100010 "
b10100000 "
b10101100 !
b10001100 !
b10011100 !
b11100000 "
b10010100 !
b10010110 !
0W
1V
0T
1S
0R
0N
0M
1I
1.
0G
1D
0:
0C
1;
1B
0<
1E
09
0A
1=
1C
0;
0B
1<
1A
0=
0D
1@
0-
1*
0)
1(
1+
0'
1B
0<
0A
1=
0@
1)
0(
1'
0*
1&
1A
0=
1@
1(
0'
0&
0@
1'
1&
0&
#150000
b11010110 !
b11100001 "
b11000001 "
b11010010 !
b1010010 !
b11000101 "
b1110010 !
b1100010 !
b10000101 "
b1101010 !
1O
1M
0J
0I
0U
1T
0S
1R
1Q
0P
0.
1G
1D
0C
1@
0>
0?
1-
1*
0)
1&
0%
#160000
b10001101 "
b10011101 "
b1101000 !
b10011100 "
b10111100 "
b1101100 !
b1001100 !
0V
1U
0R
0O
1L
1K
1J
1.
0F
0E
19
0G
0D
1:
1C
1D
0C
1;
0,
0+
0-
0*
1)
0B
1<
1*
0)
0A
1=
0(
0@
1>
0'
1?
0&
1%
#170000
1$
b1100 !
b11100 !
b11111100 "
b10100 !
b11110100 "
b11110101 "
b11010101 "
b10000 !
15
1O
0L
0J
1I
0U
0T
1S
0Q
0.
1F
0D
1A
1@
0?
0>
0=
09
1G
1?
0@
1D
0:
1,
0*
1'
1&
0%
1-
1C
0;
1%
0&
1*
1B
0<
1)
0A
1(
0'
#180000
b11010111 "
b10010000 !
b11010011 "
b10110000 !
b11010010 "
b10110100 !
1U
1R
1P
0O
1N
0M
1.
19
0B
1<
1@
0G
17
0F
0D
1:
1A
1F
0(
1&
0-
0,
0C
1;
0*
1'
1,
1B
0)
1(
#190000
b1010010 "
b1000010 "
b10110110 !
0$
b11110110 !
b11100110 !
b10 "
b1010 "
b101010 "
b1100110 !
b1100010 !
1V
0U
0S
1Q
0P
1L
0K
1J
0I
0H
05
0.
18
09
1C
0;
0A
1=
0@
0?
07
1E
1D
0:
0B
1@
0F
1)
0'
0&
0%
0C
1+
1*
0(
1&
0,
0)
#200000
b1101010 !
b101000 "
b101001 "
1$
b101010 !
b100001 "
b1 "
b10101010 !
1O
0N
0L
0J
1T
0Q
1P
15
1.
1G
0D
1:
1>
0E
1C
1?
19
0C
1;
0?
1D
1-
0*
0+
1)
1%
1B
0)
0%
1*
1(
#210000
b10101011 !
b10001011 !
b10001 "
b10001001 !
b10011001 !
b1010001 "
b10011101 !
b10010101 !
b1010000 "
0$
b11010101 !
b1010101 !
0O
1K
1I
1W
0V
1U
0T
1S
0R
1Q
0P
05
0.
1C
1A
08
0:
0<
0>
1?
1E
09
0C
0A
0?
1)
1'
1%
0D
1+
0)
0'
0%
0*
#220000
b11010000 "
b11010010 "
b11011010 "
b1010100 !
b1010110 !
b1000110 !
b10011010 "
b1000010 !
b1001010 !
1$
b1010 !
0W
1V
0U
1T
0S
0Q
1N
1L
0I
1H
15
1.
0G
17
1F
1D
0;
1A
0=
0B
1?
1<
0F
18
1B
0<
0@
0A
1=
0-
1,
1*
1'
0(
1%
0E
19
1A
0=
1@
0,
1(
0&
0'
0D
1:
0@
0+
1'
1&
1C
0*
0&
1)
#230000
b101010 !
b10001010 "
b1010 "
b101110 !
b100110 !
0K
0H
1U
0T
1R
0.
0C
1;
1@
1E
1D
0:
0B
1<
1B
1C
0;
0A
1=
0)
1&
1+
1*
0(
0B
0@
1>
1(
1)
0'
0?
0(
0&
0%
#240000
b100100 !
b110100 !
b1001010 "
b1011010 "
b11011010 "
b111100 !
1K
1I
1H
0V
1T
1S
1.
1A
0=
1@
0>
1F
08
0D
1:
0@
1?
0E
0C
1;
1'
1&
1,
0*
1B
0&
1%
0+
0)
1(
#250000
b11011110 "
b10111100 !
b11010110 "
b10111101 !
0$
b10011101 !
b10011001 !
b10011011 !
b10001011 !
b10000011 !
1W
1V
0U
0T
0S
0R
1P
1M
0L
05
0.
1G
07
18
1E
09
1D
0:
0<
1>
0A
0?
1=
0F
0E
19
0D
1C
0;
1A
0=
1?
1@
1-
1+
1*
0'
0%
1D
0B
0@
0,
0+
0*
1)
1'
1%
1&
1*
0(
0&
#260000
b11110110 "
b11110111 "
b11110101 "
b11110001 "
b11111001 "
1$
b10001011 !
15
1T
1O
0N
0M
1L
1J
1.
0D
0C
0A
1@
0?
0>
1:
17
0G
1?
1C
1F
0*
0)
0'
1&
0%
0-
1%
1)
1,
#270000
b1011 !
b1111 !
b1101 !
b11111011 "
b11110011 "
0$
b101 !
1N
0L
0V
1U
0T
0P
05
0.
0F
1D
0:
0C
1B
1A
0?
1;
1C
0;
0B
1<
0,
1*
0)
1(
1'
0%
1B
0<
0A
1=
1)
0(
1A
0=
0@
1>
1(
0'
1@
0>
1?
1'
0&
0?
1&
1%
0%
#280000
b10110011 "
b10100011 "
b100101 !
b110101 !
b110001 !
b110011 !
b10101011 "
b111011 !
1V
0U
1T
1S
1R
1L
0K
0I
1.
1F
1E
09
1:
0B
1<
0A
0D
0C
1;
1A
1,
1+
0(
0'
1B
0*
0)
1'
1(
#290000
b1111011 !
b101011 "
b1111010 !
b101010 "
b101110 "
1$
b111110 "
b1011010 !
b1001010 !
b1001110 !
b1001100 !
b1000100 !
0O
1M
1K
0H
0W
0V
1U
0T
0S
0R
1Q
15
0.
0E
19
1C
0;
08
0:
0<
1=
1?
1D
0B
1E
09
0C
0A
0@
1>
0+
1)
1%
0D
0?
1*
0(
1+
0)
0'
0&
0*
0%
#300000
b11110 "
b10110 "
b10010110 "
b10010111 "
0$
b10000111 "
b1100100 !
b1110100 !
b1111100 !
05
1T
1S
1R
1O
0L
0K
0J
1H
1.
0F
0E
1D
1C
1B
1A
1?
0=
19
18
07
1G
1@
0>
0D
1:
1E
1F
08
0,
0+
1*
1)
1(
1'
1%
1-
0?
0C
1;
0E
1&
0*
1+
1,
0B
1<
0%
0)
0+
0A
1=
0(
0@
1>
0'
1?
0&
1%
#310000
b10000101 "
b11000101 "
b1000101 "
b1000100 "
b1011100 !
b1010100 !
0T
0R
0O
0N
1I
0H
0.
1D
0:
1B
0<
0G
0F
1A
1@
0>
1C
0;
0A
0?
1*
1(
0-
0,
1'
1&
0B
1)
0'
0%
0(
#320000
b11010100 !
b10010100 !
b1000000 "
b10010110 !
b1001000 "
1$
b1011000 "
b11011000 "
b10110110 !
b10111110 !
0M
1L
1K
1H
1V
1T
1R
0Q
1P
15
1.
0D
1:
0@
1>
18
1<
0=
1?
17
0C
1;
0?
1E
1A
1@
0>
1F
0*
0&
1%
1B
1?
0)
0%
1+
1'
1&
1,
1(
1%
#330000
b10111111 !
b10111011 !
b10101011 !
b10011000 "
b10011001 "
b11101011 !
b10011101 "
b11101001 !
b10001101 "
b1101 "
1O
1M
0K
0I
0H
1W
0V
0U
0S
1Q
0.
09
1=
0@
1>
0F
1D
0:
1@
0?
0&
0,
1C
0;
1*
1&
0%
0B
1)
0(
#340000
b1101001 !
0$
b1001001 !
b1001000 !
b1001101 "
b1001001 "
b1011001 "
05
0M
1K
1I
0W
0R
0P
1.
1F
0D
1?
0>
0<
1:
08
07
1G
0?
0A
0C
1;
0E
0F
1,
0*
1%
1-
1B
0%
0'
0)
0+
0,
1(
#350000
b1011011 "
b1010011 "
b1010010 "
b1001010 !
b11010010 "
b11001010 !
1$
b11101010 !
b10010010 "
b10000010 "
1V
1R
1P
0O
1N
0L
0K
0I
1H
15
0.
1F
1<
0@
1>
0G
17
1E
1?
1A
0?
0F
18
1,
0&
0-
1+
1%
0E
19
1'
0%
0,
1D
0+
1*
#360000
b10100010 "
b11100010 !
b10101010 "
b101010 "
b1100010 !
0$
b1000010 !
b111010 "
0T
0R
0P
1L
1K
1J
0H
05
1.
0D
0B
1@
0>
1F
1E
0A
1?
09
07
0?
1D
0:
0F
0*
0(
1&
1,
1+
0'
1%
1C
0;
0%
1*
0,
1B
0<
1)
1A
0=
1(
0@
1'
0&
#370000
b1000110 !
b110 !
b111 !
b111011 "
b1111011 "
b1011011 "
b1010011 "
b11010011 "
b10000111 !
b10100111 !
b11000011 "
1O
0L
0K
0J
1I
1H
1W
1U
1R
0Q
1P
0.
17
0D
0C
1>
0E
19
1F
1?
1D
0*
0)
0+
1,
1%
1*
#380000
b10110111 !
b11000111 "
b10110101 !
1$
b10110001 !
b11110001 !
b11000110 "
b10000110 "
b10001110 "
b1110 "
b11010001 !
0O
1M
1L
0I
0H
0V
0U
1S
0R
1Q
15
1.
1G
1E
09
0A
1=
08
1;
0?
0D
1@
0E
0B
1<
1-
1+
0'
0%
1A
0*
1&
0+
0(
1'
#390000
b1100 "
b1010001 !
b11100 "
b11000 "
b1110001 !
1R
0P
0N
0M
1K
0.
1B
0@
0F
18
1E
1C
0;
0E
19
0B
1(
0&
0,
1+
1)
1D
0+
0(
1*
#400000
b1111001 !
b1111101 !
b111101 !
b1011000 "
b11011000 "
b11011010 "
b11011110 "
b11101 !
1N
1M
1I
1H
1U
1T
0R
0Q
1.
1F
08
0=
1@
0>
0D
1:
1B
0<
1E
09
0@
1?
0C
1;
0A
1,
1&
0*
1(
1D
0:
0B
1<
1+
0&
1%
0)
0'
1C
0;
1A
1*
0(
1B
0<
1)
1'
0A
1(
0'
#410000
b11111110 "
b1101 !
b1111 !
0$
b11111111 "
b10001111 !
b11101111 "
b10001011 !
b10101111 "
b10101101 "
b10101001 "
1V
0U
0S
1P
1O
0N
0M
0K
1J
0I
05
0.
0F
18
0E
0C
1>
0G
0D
0?
1:
1E
1?
1C
0,
0+
0)
0-
0*
0%
1+
1%
1)
#420000
b10100001 "
b11001011 !
b100001 "
b1 "
b11011011 !
1$
b1000001 "
b1000011 "
b1000111 "
1S
1Q
1N
1M
0L
0J
1I
0H
15
1.
1;
1A
0?
0B
1<
1'
0%
0A
1=
0(
1@
0'
1&
#430000
b11010011 !
b1000110 "
b1010110 "
b11010111 !
b1011110 "
b11011110 "
b11000111 !
0$
b10011110 "
0O
1L
1K
0I
1H
1U
0T
0S
05
0.
1G
07
1D
0:
0C
19
1F
1B
1?
0<
0F
1C
0;
0D
1:
1A
0=
1-
1*
0)
1,
1(
1%
0B
0C
1;
0@
0,
1)
0*
1'
1B
0(
0)
0&
1(
#440000
b11000110 !
b11000100 !
b1000100 !
b100 !
b10011100 "
b1100 !
b10001100 "
b1000 !
b11001100 "
0N
0K
1I
0W
0V
0U
1T
0Q
0P
1.
08
1C
0;
0G
0E
1D
1@
0>
1E
09
0B
0?
1)
0-
0+
1*
1&
0D
1+
0(
0%
0*
#450000
b11000 !
b11001 !
b11011 !
b11001110 "
b10001110 "
1N
0I
1W
1V
1S
0.
18
0A
1G
0C
1;
0E
19
1B
0'
1-
0)
1D
0+
1(
1*
#460000
b10001111 "
b10000111 "
b111 "
b1011011 !
b1011111 !
b1001111 !
b1001101 !
b1000111 "
0V
1U
0S
1Q
1O
0L
1I
0H
1.
1F
08
1E
1C
0;
1=
0G
17
0D
0@
0E
0B
1@
0F
18
1,
1+
1)
0-
0*
0&
1E
0+
0(
1&
0,
1+
#470000
b1101101 !
b1000011 "
1$
b1100101 !
b1100100 !
b1000010 "
b1001010 "
b11001010 "
b1100000 !
0O
0M
1L
1H
0W
0U
0T
1R
15
0.
0E
1D
0:
1<
1F
0C
1A
1?
0=
1;
08
1C
0;
0A
1=
0@
1B
1E
09
0+
1*
1,
0)
1'
1%
0B
1@
0D
1)
0'
0&
1(
1+
0(
1&
0*
#480000
b11011010 "
b1110000 !
b1110010 !
b1010010 !
b11011110 "
0$
b1010011 !
b1010111 !
1W
1V
1U
1S
0R
1M
1K
05
1.
1G
07
18
0E
19
0C
1;
0<
1D
1A
0@
0?
1>
0F
1E
0D
1:
1B
0A
1?
1-
0+
0)
1*
1'
0&
0%
1C
0,
1+
0*
1(
0'
1%
1)
#490000
b11111110 "
b11111100 "
b1011111 !
b11111101 "
b1011101 !
b11111001 "
0V
1T
1O
0N
0M
1J
0.
08
1D
0G
17
0E
0B
1<
1E
09
1F
1A
1*
0-
0+
0(
0D
1+
1,
1'
0*
#500000
b11011101 !
b10011101 !
b1111001 "
b1101001 "
b10001101 !
b10101101 !
b1101011 "
b10100101 !
b10100111 !
b1101111 "
1N
1M
0K
0H
1V
0T
0S
1R
0Q
1P
1.
18
0E
19
0;
1D
0:
1B
0A
1E
0D
1:
0B
0C
0+
1*
1(
0'
1C
1+
0*
0(
0)
1)
#510000
b101111 "
1$
b10100110 !
b10100010 !
b101110 "
b10101110 "
b10110010 !
b10111010 !
b10111000 !
b10101010 "
15
0W
0V
0U
1T
1S
0O
0M
0I
1H
0.
0E
1B
0?
0<
1;
08
1A
0=
0B
1<
1E
09
0+
1(
0%
1@
0>
0A
1=
1D
0:
1'
0(
1+
1?
0@
1>
0C
1&
0'
1*
0?
1%
0&
0)
0%
#520000
b10001010 "
b111000 !
b111001 !
b111101 !
b1010 "
b101101 !
b1110 "
1W
1U
0S
0P
1M
0J
0H
1.
1G
1C
0;
1B
0B
1-
1)
1(
0(
#530000
b1101101 !
b11110 "
b1001101 !
b11100 "
b1011100 "
0$
b1000101 !
b1000111 !
b11000111 !
b11011100 "
0N
1K
1I
1H
1V
0T
0R
1Q
1P
05
0.
0F
18
1A
1@
0<
0E
1?
19
07
1E
0A
0D
1:
1F
08
0,
1'
1&
0+
1%
0C
1;
0E
1+
0'
0*
1,
1B
0)
0+
1(
#540000
b11111100 "
b11000011 !
b11010011 !
b11111000 "
b11101000 "
b11110011 !
b11101010 "
1$
b11111011 !
b11111001 !
b1111001 !
0V
0U
1T
1S
1R
0P
1N
0M
0K
1J
15
1.
0F
1E
09
1C
0B
1<
0>
1A
0?
0=
17
1D
0:
0A
1=
1?
0@
1F
0,
1+
1)
0(
1'
0%
0C
1@
1*
0'
1%
0&
1,
0)
1&
#550000
b11101011 "
b10101011 "
b101011 "
b1101001 !
b101111 "
b11101001 !
0S
1P
1O
1M
0I
0H
0.
1C
0;
1>
0G
0E
1A
1B
0<
0?
1)
0-
0+
1'
0A
1(
0%
0'
#560000
b100111 "
b11101000 !
b11001000 !
b100101 "
b11001010 !
b100100 "
b10100100 "
b10100000 "
b1001010 !
0W
1V
0R
0P
0O
0N
0M
0L
1H
1.
18
0B
0>
1E
0D
1:
0E
19
1?
0C
1;
0(
1+
0*
1D
1B
0+
1%
0)
1*
1(
#570000
b1010 !
b1110 !
b10110000 "
0$
b11110000 "
b1111 !
b101111 !
b1110000 "
b10101111 !
1K
1I
0H
1W
1U
1R
0Q
1P
05
0.
1A
0=
0@
1>
1G
07
1<
0F
0D
0?
1@
0>
1?
1F
08
0A
1=
1'
0&
1-
0,
0*
0%
0?
1E
09
0@
1>
1&
1%
1,
0'
1D
0:
1?
0%
1+
0&
1C
0;
1*
1%
0B
1)
0(
#580000
b1010000 "
b1011000 "
b1011100 "
b10101011 !
1$
b10101010 !
b10001010 !
0W
0U
0R
1M
1L
0J
15
1.
0G
17
0E
1B
0<
0F
0C
1A
1@
0?
0=
18
1F
0A
0@
1E
0-
0+
1(
0,
0)
1'
1&
0%
1,
0'
0&
1+
#590000
b10011010 !
b1011110 "
b10011000 !
b1011111 "
b11011000 !
b11111 "
b1011000 !
b111111 "
b110111 "
0$
b1111000 !
1O
1N
0L
1J
0I
0V
1S
1R
1Q
0P
05
0.
1G
07
0F
0B
1<
1A
1;
0>
0E
1?
19
1F
08
0A
1=
1B
0?
0D
1:
1-
0,
0(
1'
0+
1%
1E
09
1@
1C
1,
0'
1(
0%
0*
1D
0:
1+
1&
1)
0C
1*
0)
#600000
b1111100 !
b110101 "
b1111110 !
b110100 "
b11111110 !
b111100 "
b11011110 !
0O
0N
1L
1V
1U
0R
1P
1.
0G
0D
1:
0E
19
0B
0@
1>
1C
1D
1?
0-
0*
0+
0(
0&
1)
1*
1%
#610000
b10111100 "
b11011111 !
b11001111 !
b11111100 "
b1001111 !
b11110100 "
b1101111 !
1W
0S
1R
0P
0L
1I
1H
0.
1G
0C
1B
0D
1A
1-
0)
1(
0*
1'
#620000
b11100100 "
b101111 !
1$
b101011 !
b11100101 "
b1100101 "
b101010 !
b111010 !
b1101101 "
0W
0U
1S
0Q
1O
1L
0K
0H
15
1.
09
1C
0=
0F
0B
0?
18
1D
0:
1@
0>
1E
1)
0,
0(
0%
0C
1?
1*
1&
1+
0)
1%
#630000
b110010 !
b1101001 "
b1001001 "
b110000 !
b1001 "
b10110000 !
b10010000 !
b11001 "
0$
b10010100 !
b11000 "
b10000 "
0O
0M
0L
1K
0J
0I
0V
1U
0T
0R
1P
05
0.
0G
0E
19
0D
1B
0<
08
0?
1D
0A
1E
09
0-
0+
0*
1(
0%
0D
1*
0'
1+
0*
#640000
b11010100 !
b11010101 !
b11011101 !
b10100 "
b11011111 !
b11111111 !
b100 "
1$
b11111011 !
b101 "
1O
1M
0K
1W
1V
0U
1T
1R
1Q
15
1.
17
0E
18
1:
1<
1=
0@
1?
1>
1F
1E
1C
1A
1@
0?
0+
0&
1%
1,
1+
1)
1'
1&
0%
#650000
b100101 "
b1111011 !
b101101 "
b1111010 !
b1110010 !
b1110000 !
b1010000 !
b111101 "
0$
b111100 "
0W
0V
0T
0R
0P
0O
1L
1K
1J
05
0.
07
08
1D
0:
0B
0>
0E
0A
1?
19
0F
1E
09
0C
0?
0D
1:
1*
0(
0+
0'
1%
1D
0:
1C
0,
1+
0)
0%
0*
0C
1*
1)
0)
#660000
b111110 "
b1000000 !
b1111110 "
b11000000 !
b11000001 !
b11001001 !
b11001011 !
b1111111 "
1W
1V
1T
0S
1P
1O
1N
1I
1.
17
18
0D
1:
1C
0;
0@
1>
1A
1F
0E
19
0C
1;
1B
0<
1?
0*
1)
0&
1'
1D
0B
1<
0A
1,
0+
0)
1(
1%
1A
1*
0(
0'
1'
#670000
b11111111 "
b10001011 !
b11110111 "
b10101011 !
b11100111 "
1$
b11100101 "
b10111011 !
b10100101 "
1S
1R
0Q
0N
0L
0K
0I
1H
15
0.
1C
0A
1E
0?
09
0D
1)
0'
1+
0%
0*
#680000
b10000101 "
b10111010 !
b10110010 !
b10110000 !
b10000100 "
b100 "
b1100 "
b1110 "
b10100000 !
b1001110 "
0W
0V
0T
0S
0O
1N
1L
0J
1I
0H
1.
08
0:
0C
1B
1A
0=
1@
0E
1C
0;
0@
0)
1(
1'
1&
0B
0+
1)
0&
0(
#690000
b100000 !
b1100000 !
0$
b1101110 "
b1100001 !
b1101111 "
b1100111 "
b100111 "
05
1O
0L
1J
0I
1W
1Q
0P
0.
0F
1E
0C
0A
1?
0>
1=
18
0?
1@
0E
19
0,
1+
0)
0'
1%
1D
0%
1&
0+
1*
#700000
b1000001 !
b110111 "
b10110111 "
b10110101 "
b1010001 !
b11010001 !
b10010001 !
1$
b10110100 "
b10111100 "
0O
0N
1L
1K
1H
1S
0R
0Q
1P
15
1.
1G
1C
0@
1>
0<
1E
1?
09
0?
1A
0=
0D
1-
1)
0&
1+
1%
1@
0>
0%
1'
0*
1?
1&
1%
#710000
b10111000 "
b10011001 !
b10011000 "
b10011000 !
b11011000 "
b10111000 !
b11001000 "
b1001000 "
b1001010 "
b10101000 !
0$
b1001011 "
b1000011 "
0W
1T
0S
1R
1O
1N
0M
0L
0K
0J
1I
0H
05
0.
07
1D
0C
1B
0?
1F
08
1*
0)
1(
0%
0E
1,
0+
#720000
b10101100 !
b10001100 !
b11000011 "
1$
1H
1U
0R
15
1.
19
0F
0D
1C
0A
1?
1:
1D
0C
1;
0,
0*
1)
0'
1%
0B
1<
1*
0)
1A
0(
1'
#730000
b1100 !
b1101 !
b10000011 "
b10000001 "
b101101 !
b1 "
0$
0N
0I
0H
1W
1R
0P
05
0.
0@
0G
17
1E
0D
1C
0?
0;
09
1F
1B
0<
1D
0:
0&
0-
1+
0*
1)
0%
0A
0C
1,
1(
1*
0'
0)
#740000
b1101101 !
b1100101 !
b100001 "
b1110101 !
b101001 "
b1110100 !
1$
1L
1J
0W
0T
1S
1Q
15
1.
0D
1G
07
1;
1=
0F
0E
1@
1?
19
18
1F
08
0B
1<
0@
1>
1D
1E
0*
1-
0,
0+
1&
1%
0E
1A
0?
1,
0(
0&
1*
1+
0+
1'
0%
#750000
b1110110 !
b101101 "
b101111 "
b10101111 "
b10001111 "
b1100110 !
b10000111 "
1N
1M
0L
0J
1H
1V
0S
0.
1E
09
0D
1:
1B
1@
0>
1C
0;
1D
0:
0C
1;
1?
0B
1+
0*
1(
1&
1)
1C
0;
1B
1*
0)
1%
0(
0B
1)
1(
0(
#760000
b10010111 "
b11010111 "
b1000110 !
b1000111 !
b11010101 "
b1010101 "
b1011101 "
1W
0R
0N
1L
1K
1I
0H
1.
0G
17
1B
0<
0F
18
0D
0C
0A
0@
1>
1F
1A
0=
0E
19
0?
0-
1(
0,
0*
0)
0'
0&
1@
0>
1D
1,
1'
0+
0%
1?
1&
1*
1%
#770000
b1011100 "
b1000011 !
b11000011 !
b11000001 !
b1011000 "
b1111000 "
b11010001 !
b1101000 "
b1101010 "
b11101010 "
b11100010 "
0V
0U
1S
1P
0O
1N
0M
0L
0K
1J
1H
0.
08
1;
1G
0D
1:
0B
1E
09
1B
1C
1-
0*
0(
1D
0:
1+
1(
1)
0C
1*
0)
#780000
b11011001 !
b10100010 "
b11011000 !
b10100011 "
b11011100 !
b1011100 !
b1011110 !
b1001110 !
b10110011 "
b10110001 "
b110001 "
b111001 "
1O
0N
1L
1K
0I
0H
0W
1V
1U
1T
0S
0P
1.
07
18
0;
0A
1=
0E
19
0F
1E
0B
0@
1>
0D
1:
0'
0+
0?
1C
0,
1+
0(
0&
0*
0%
1)
#790000
0$
b1101110 !
b11001 "
b1100110 !
b1100111 !
b1100011 !
b1100001 !
b1110001 !
b1001 "
b1 "
05
0L
0K
0J
1W
0V
0U
0T
1S
1R
0.
1D
0C
1B
1A
1@
1?
0>
0=
1;
0:
09
08
17
0G
0?
0@
0B
1<
1C
0;
0D
0E
1F
1*
0)
1(
1'
1&
1%
0-
0A
1=
1B
0<
0%
0&
0(
1)
0*
0+
1,
1@
1A
0=
0'
1(
0@
1&
1'
0&
