design/simulation/qsim/arch.msim.vcd
$comment
	File created using the following command:
		vcd file arch.msim.vcd -direction
$end
$date
	Tue Mar 11 17:21:02 2025
$end
$version
	ModelSim Version 10.1d
$end
$timescale
	1ps
$end
$scope module dec2_4_vlg_vec_tst $end
$var reg 2 ! D [1:0] $end
$var reg 1 " en $end
$var wire 1 # Q [3] $end
$var wire 1 $ Q [2] $end
$var wire 1 % Q [1] $end
$var wire 1 & Q [0] $end
$var wire 1 ' sampler $end
$scope module i1 $end
$var wire 1 ( gnd $end
$var wire 1 ) vcc $end
$var wire 1 * unknown $end
$var tri1 1 + devclrn $end
$var tri1 1 , devpor $end
$var tri1 1 - devoe $end
$var wire 1 . en~combout $end
$var wire 1 / inst8~combout $end
$var wire 1 0 inst7~combout $end
$var wire 1 1 inst6~combout $end
$var wire 1 2 inst~combout $end
$var wire 1 3 D~combout [1] $end
$var wire 1 4 D~combout [0] $end
$upscope $end
$upscope $end
$enddefinitions $end
#0
$dumpvars
b11 !
1"
0&
0%
0$
1#
x'
0(
1)
x*
1+
1,
1-
1.
1/
00
01
02
14
13
$end
#10000
b10 !
04
0'
10
0/
1$
0#
#20000
b0 !
b1 !
14
03
1'
11
00
1%
0$
#30000
b0 !
04
0'
12
01
1&
0%
#40000
b10 !
b11 !
14
13
1'
02
1/
0&
1#
#50000
b10 !
04
0'
10
0/
1$
0#
#60000
b11 !
14
1'
00
1/
0$
1#
#80000
b10 !
04
0'
10
0/
1$
0#
#90000
b11 !
14
1'
00
1/
0$
1#
#100000
b1 !
b0 !
04
03
0'
12
0/
1&
0#
#110000
b10 !
b11 !
14
13
1'
02
1/
0&
1#
#120000
b10 !
04
0'
10
0/
1$
0#
#140000
b0 !
03
1'
12
00
1&
0$
#150000
b1 !
b11 !
14
13
0'
02
1/
0&
1#
#160000
b1 !
03
1'
11
0/
1%
0#
#170000
b11 !
13
0'
01
1/
0%
1#
#180000
b10 !
04
1'
10
0/
1$
0#
#190000
b11 !
14
0'
00
1/
0$
1#
#200000
b10 !
04
1'
10
0/
1$
0#
#220000
b0 !
03
0'
12
00
1&
0$
#250000
b10 !
13
1'
02
10
0&
1$
#270000
b11 !
b1 !
14
03
0'
11
00
1%
0$
#280000
b0 !
b10 !
04
13
1'
01
10
0%
1$
#290000
b11 !
b1 !
14
03
0'
11
00
1%
0$
#310000
b0 !
b10 !
04
13
1'
01
10
0%
1$
#340000
b0 !
03
0'
12
00
1&
0$
#350000
b1 !
b11 !
14
13
1'
02
1/
0&
1#
#380000
b10 !
04
0'
10
0/
1$
0#
#390000
b11 !
14
1'
00
1/
0$
1#
#410000
b1 !
03
0'
11
0/
1%
0#
#420000
b0 !
b10 !
04
13
1'
01
10
0%
1$
#430000
b11 !
14
0'
00
1/
0$
1#
#440000
b1 !
03
1'
11
0/
1%
0#
#450000
b0 !
04
0'
12
01
1&
0%
#460000
b10 !
13
1'
02
10
0&
1$
#470000
b11 !
14
0'
00
1/
0$
1#
#480000
b1 !
03
1'
11
0/
1%
0#
#490000
b0 !
04
0'
12
01
1&
0%
#500000
b10 !
b11 !
14
13
1'
02
1/
0&
1#
#510000
b1 !
b0 !
04
03
0'
12
0/
1&
0#
#520000
b1 !
14
1'
02
11
0&
1%
#530000
b0 !
04
0'
12
01
1&
0%
#540000
b1 !
14
1'
02
11
0&
1%
#550000
b11 !
b10 !
04
13
0'
01
10
0%
1$
#570000
b0 !
b1 !
14
03
1'
11
00
1%
0$
#580000
b11 !
b10 !
04
13
0'
01
10
0%
1$
#590000
b0 !
03
1'
12
00
1&
0$
#610000
b1 !
b11 !
14
13
0'
02
1/
0&
1#
#620000
b10 !
b0 !
04
03
1'
12
0/
1&
0#
#630000
b10 !
13
0'
02
10
0&
1$
#640000
b11 !
b1 !
14
03
1'
11
00
1%
0$
#650000
b0 !
b10 !
04
13
0'
01
10
0%
1$
#660000
b0 !
03
1'
12
00
1&
0$
#670000
b1 !
b11 !
14
13
0'
02
1/
0&
1#
#690000
b1 !
03
1'
11
0/
1%
0#
#700000
b0 !
b10 !
04
13
0'
01
10
0%
1$
#710000
b11 !
b1 !
14
03
1'
11
00
1%
0$
#720000
b11 !
13
0'
01
1/
0%
1#
#730000
b10 !
04
1'
10
0/
1$
0#
#740000
b11 !
14
0'
00
1/
0$
1#
#780000
b10 !
04
1'
10
0/
1$
0#
#800000
b0 !
03
0'
12
00
1&
0$
#830000
b1 !
14
1'
02
11
0&
1%
#860000
b0 !
04
0'
12
01
1&
0%
#880000
b1 !
14
1'
02
11
0&
1%
#890000
b0 !
04
0'
12
01
1&
0%
#900000
b1 !
14
1'
02
11
0&
1%
#920000
b11 !
b10 !
04
13
0'
01
10
0%
1$
#930000
b0 !
b1 !
14
03
1'
11
00
1%
0$
#940000
b11 !
13
0'
01
1/
0%
1#
#950000
b10 !
04
1'
10
0/
1$
0#
#960000
b0 !
b1 !
14
03
0'
11
00
1%
0$
#990000
b0 !
04
1'
12
01
1&
0%
