design/simulation/qsim/arch.msim.vcd
$comment
	File created using the following command:
		vcd file arch.msim.vcd -direction
$end
$date
	Tue Mar 18 17:08:37 2025
$end
$version
	ModelSim Version 10.1d
$end
$timescale
	1ps
$end
$scope module alusys_vlg_vec_tst $end
$var reg 2 ! An [1:0] $end
$var reg 1 " BIMM $end
$var reg 2 # Bn [1:0] $end
$var reg 1 $ CLK $end
$var reg 1 % CLRN $end
$var reg 2 & Fn [1:0] $end
$var reg 8 ' IMM [7:0] $end
$var reg 2 ( Op [1:0] $end
$var reg 2 ) Wn [1:0] $end
$var reg 1 * WREG $end
$var wire 1 + R0 [7] $end
$var wire 1 , R0 [6] $end
$var wire 1 - R0 [5] $end
$var wire 1 . R0 [4] $end
$var wire 1 / R0 [3] $end
$var wire 1 0 R0 [2] $end
$var wire 1 1 R0 [1] $end
$var wire 1 2 R0 [0] $end
$var wire 1 3 R1 [7] $end
$var wire 1 4 R1 [6] $end
$var wire 1 5 R1 [5] $end
$var wire 1 6 R1 [4] $end
$var wire 1 7 R1 [3] $end
$var wire 1 8 R1 [2] $end
$var wire 1 9 R1 [1] $end
$var wire 1 : R1 [0] $end
$var wire 1 ; R2 [7] $end
$var wire 1 < R2 [6] $end
$var wire 1 = R2 [5] $end
$var wire 1 > R2 [4] $end
$var wire 1 ? R2 [3] $end
$var wire 1 @ R2 [2] $end
$var wire 1 A R2 [1] $end
$var wire 1 B R2 [0] $end
$var wire 1 C R3 [7] $end
$var wire 1 D R3 [6] $end
$var wire 1 E R3 [5] $end
$var wire 1 F R3 [4] $end
$var wire 1 G R3 [3] $end
$var wire 1 H R3 [2] $end
$var wire 1 I R3 [1] $end
$var wire 1 J R3 [0] $end
$var wire 1 K sampler $end
$scope module i1 $end
$var wire 1 L gnd $end
$var wire 1 M vcc $end
$var wire 1 N unknown $end
$var tri1 1 O devclrn $end
$var tri1 1 P devpor $end
$var tri1 1 Q devoe $end
$upscope $end
$upscope $end
$enddefinitions $end
#0
$dumpvars
b10 !
1"
b1 #
0$
0%
b11 &
b10111100 '
b11 (
b1 )
1*
02
01
00
0/
0.
0-
0,
0+
0:
09
08
07
06
05
04
03
0B
0A
0@
0?
0>
0=
0<
0;
0J
0I
0H
0G
0F
0E
0D
0C
xK
0L
1M
xN
1O
1P
1Q
$end
#5000
1$
0K
#10000
1%
b11 #
b111100 '
b1111100 '
b1011100 '
b1011000 '
b1011001 '
b1 (
b1 &
b0 &
b11 )
b10 )
0$
1K
#15000
1$
0K
#20000
b11 !
b1001001 '
b1000001 '
b1000011 '
b0 (
b1 #
b11000011 '
b10000011 '
b10000010 '
b1 &
b11 )
0$
1K
#25000
1$
0K
#30000
b1 !
b10000110 '
b1 )
b11000110 '
b11000111 '
b0 &
0$
1K
#35000
1$
0K
#40000
b0 #
b11100111 '
b10 (
b10 &
b0 !
b11110111 '
b11110101 '
b11 (
b10 #
b1110101 '
b0 )
b1110001 '
b10 )
b110001 '
b11 &
0$
1K
#45000
1$
0K
#50000
b111001 '
b10 !
b11 #
b11001 '
b1 (
b1001 '
b1 #
b10001001 '
b10001101 '
b11001101 '
b10 &
0$
1K
#55000
1$
0K
#60000
b11001100 '
b11001110 '
b11000110 '
b0 !
b0 #
b11 (
b10 #
b11000010 '
b10000010 '
b11 &
0$
1K
#65000
1$
0K
#70000
b1 !
b10 (
b11 )
b1 )
b10010010 '
b10010 '
b11 !
b11 #
b10110 '
0$
1K
#75000
1$
0K
#80000
b1 &
b11110 '
b1011110 '
b0 &
b10 !
b11 (
b0 )
b10 )
b1001110 '
b0 !
b1001010 '
0$
1K
#85000
1$
0K
#90000
b1 (
b1 #
b11001010 '
b0 #
b10 &
b11000010 '
b10000010 '
b1 !
b0 )
b10000110 '
0$
1K
#95000
1$
0K
#100000
b10100110 '
b10100111 '
b0 (
b1 )
b11 !
b10 (
b10 #
b100111 '
b0 &
b1100111 '
b11 )
0$
1K
#105000
1$
0K
#110000
b1100101 '
b1 &
b1110101 '
b10 !
b1110100 '
b11 (
b10 )
b0 !
b1 (
b0 #
b0 )
0$
1K
#115000
1$
0K
#120000
b1110000 '
b1010000 '
b1010010 '
b0 &
b1000010 '
b1 !
b1000011 '
b11 !
b10 )
0$
1K
#125000
1$
0K
#130000
b11 '
b100011 '
b100001 '
b110001 '
b10 !
b0 !
b0 )
0$
1K
#135000
1$
0K
#140000
b1 #
b10110001 '
b11 (
b11 #
b10110101 '
b10110100 '
b11110100 '
b11010100 '
b11010110 '
b1 !
b10 )
0$
1K
#145000
1$
0K
#150000
b11 )
b1 &
b1 (
b11010100 '
b1 )
0$
1K
#155000
1$
0K
#160000
b11011100 '
b11 &
b11 !
b10 #
b1011100 '
b1011101 '
b10 !
b0 )
b11 (
b1011111 '
0$
1K
#165000
1$
0K
#170000
b0 #
b1111111 '
b1110111 '
b1 #
b11110111 '
b1 )
b1 (
0$
1K
#175000
1$
0K
#180000
b0 (
b11100111 '
b10100111 '
b10 &
b11 )
b0 &
b0 !
b10100110 '
b1 !
b10000110 '
b10001110 '
b10 )
0$
1K
#185000
1$
0K
#190000
b10001010 '
b0 #
b1010 '
b1001010 '
b10 &
b11 !
b1001011 '
b1101011 '
0$
1K
#195000
1$
0K
#200000
b10 (
b11 (
b1111011 '
b11 &
b0 )
b11111011 '
b10111011 '
b10111010 '
0$
1K
#205000
1$
0K
#210000
b10111000 '
b10 #
b10 !
b1 )
b1 &
b10101000 '
b0 &
b11 )
b11101000 '
0$
1K
#215000
1$
0K
#220000
b11101100 '
b11 #
b0 !
b1 (
b1101100 '
b1101101 '
b10 )
b1 &
b101101 '
0$
1K
#225000
1$
0K
#230000
b0 (
b1 !
b0 )
b101001 '
b10 #
b11 !
b101000 '
b1 )
b1101000 '
0$
1K
#235000
1$
0K
#240000
b1100000 '
b11 &
b10 &
b10 !
b0 !
b1100001 '
0$
1K
#245000
1$
0K
#250000
b1100011 '
b0 #
b10 (
b11100011 '
b11 )
b11100111 '
b0 &
b1 &
b10 !
b11100110 '
0$
1K
#255000
1$
0K
#260000
b11000110 '
b11010110 '
b11 (
b11 !
b11010100 '
b11 &
b10 &
b11010101 '
0$
1K
#265000
1$
0K
#270000
b1 #
b11011101 '
b1 !
b11111101 '
b11101101 '
b10 (
b0 &
b1 &
0$
1K
#275000
1$
0K
#280000
b10101101 '
b0 (
b10101001 '
b10101011 '
b10101010 '
b0 #
b10111010 '
b11 &
0$
1K
#285000
1$
0K
#290000
b10 )
b111010 '
b11010 '
b1 (
b10 &
b1011010 '
b11 (
b1001010 '
b0 &
0$
1K
#295000
1$
0K
#300000
b0 )
b11 !
b1001110 '
b11001110 '
b11101110 '
b10101110 '
b10111110 '
b10 &
0$
1K
#305000
1$
0K
#310000
b10 #
b10 !
b10110110 '
b10110100 '
b10110101 '
b11 &
b10 )
b10010101 '
b1 &
0$
1K
#315000
1$
0K
#320000
b11 #
b11 )
b1 (
b10010001 '
b11010001 '
b11000001 '
b1 #
b11001001 '
b11001011 '
b11001010 '
b0 &
b10 &
0$
1K
#325000
1$
0K
#330000
b0 !
b1001010 '
b1 !
b1 )
b1101010 '
b0 #
b11 (
b1101011 '
b11 &
0$
1K
#335000
1$
0K
#340000
b10 (
b0 )
b1111011 '
b10 #
b1111001 '
b0 !
b1111000 '
0$
1K
#345000
1$
0K
#350000
b111000 '
b110000 '
b1 &
b10110000 '
b10 )
b11 #
b0 (
b0 &
b10110001 '
0$
1K
#355000
1$
0K
#360000
b10100001 '
b1 #
b10100011 '
b1 !
b10101011 '
b10 &
b0 )
b10 (
b11 &
b10101010 '
0$
1K
#365000
1$
0K
#370000
b11 !
b11 (
b11 #
b10101000 '
b1 &
b10 )
b0 &
b10101001 '
0$
1K
#375000
1$
0K
#380000
b11 )
b10 #
b10 !
b1 (
b0 (
b10101011 '
b10 &
b1 )
0$
1K
#385000
1$
0K
#390000
b10101111 '
b10001111 '
b0 #
b11 &
b0 )
b1 #
b10 (
b10001101 '
b10 )
0$
1K
#395000
1$
0K
#400000
b11001101 '
b11011101 '
b11010101 '
b11 (
b1 &
b11 #
b0 &
b11 )
b10 #
b1 )
0$
1K
#405000
1$
0K
#410000
b0 !
b0 #
b0 )
b1 #
b10 )
0$
1K
#415000
1$
0K
#420000
b1010101 '
b1010100 '
b1 (
b10100 '
b0 (
b1 &
b0 )
0$
1K
#425000
1$
0K
#430000
b11 &
b10 !
b11 #
b10 #
b10101 '
b10 (
b1010101 '
b11 (
b10 )
0$
1K
#435000
1$
0K
#440000
b11 !
b1010001 '
b1110001 '
b1100001 '
b1101001 '
b11 )
b1 &
b1 !
b1 (
b101001 '
b0 (
0$
1K
#445000
1$
0K
#450000
b101011 '
b0 &
b1 )
b101111 '
b1111 '
b1001111 '
b1 (
0$
1K
#455000
1$
0K
#460000
b11001111 '
b11001110 '
b0 !
b0 )
b10 !
b11 (
b11101110 '
b10 (
0$
1K
#465000
1$
0K
#470000
b0 #
b1 #
b10 &
b11101100 '
b10 )
b11101000 '
b10101000 '
b101000 '
b11 !
b11 )
b1 !
b0 (
0$
1K
#475000
1$
0K
#480000
b100000 '
b11 &
b100001 '
b11 #
b1 &
b100101 '
b10100101 '
b0 !
b10 )
b10 !
b10 (
0$
1K
#485000
1$
0K
#490000
b10110101 '
b11 (
b0 )
b11110101 '
b11111101 '
b0 &
b11111001 '
b1 )
0$
1K
#495000
1$
0K
#500000
b11011001 '
b10 #
b11011000 '
b0 #
b11 !
b11 )
b11010000 '
b10 )
0$
1K
#505000
1$
0K
#510000
b11010010 '
b1010010 '
b1 !
b1 (
b0 (
b10010 '
b110010 '
b1 #
b110011 '
b11 #
b0 )
b1 )
0$
1K
#515000
1$
0K
#520000
b10 &
b11 &
b111011 '
b111001 '
b10111001 '
b10 #
b0 #
b11 )
0$
1K
#525000
1$
0K
#530000
b10101001 '
b10101101 '
b0 !
b1 (
b11101101 '
b11101100 '
b1 &
b0 &
b11100100 '
0$
1K
#535000
1$
0K
#540000
b10 !
b11 (
b11100110 '
b1100110 '
b1 #
b11 #
b1110110 '
b110110 '
b110111 '
b1 &
b111111 '
0$
1K
#545000
1$
0K
#550000
b10 )
b0 )
b111011 '
b11 !
b10 (
b11 &
b1 !
b0 (
b111001 '
b1 #
b1111001 '
b1111000 '
b1110000 '
0$
1K
#555000
1$
0K
#560000
b10 )
b0 !
b1 (
b1 &
b10 !
b11 (
b11 #
b1110001 '
b1111001 '
0$
1K
#565000
1$
0K
#570000
b1011001 '
b11 )
b11001 '
b1 )
b10 (
b0 (
b1 #
b11000 '
0$
1K
#575000
1$
0K
#580000
b0 #
b0 &
b11010 '
b1011010 '
b1 (
b10 #
b1011011 '
0$
1K
#585000
1$
0K
#590000
b11011011 '
b0 !
b0 )
0$
1K
#595000
1$
0K
#600000
b11001011 '
b10 &
b11000011 '
b11100011 '
b10 )
b11 #
b11 &
b10100011 '
b10100010 '
b100010 '
b10 !
b11 )
0$
1K
#605000
1$
0K
#610000
b1 #
b1 &
b10 '
b1 )
b0 &
b11 '
b10000011 '
b0 !
0$
1K
#615000
1$
0K
#620000
b11 (
b10000001 '
b10 (
b10001001 '
b11001001 '
b11 #
b10 &
b10 !
0$
1K
#625000
1$
0K
#630000
b11 !
b0 )
b11101001 '
b10 )
b11101000 '
b11101010 '
b1 #
b1 !
0$
1K
#635000
1$
0K
#640000
b11101110 '
b11111110 '
b0 #
b11110110 '
b10110110 '
b0 &
b11 )
b1 )
b10110100 '
b10 #
0$
1K
#645000
1$
0K
#650000
b1 &
b0 (
b10100100 '
b11 #
b11 )
b1 #
0$
1K
#655000
1$
0K
#660000
b100100 '
b0 !
b10 !
b101100 '
b11 &
b10 )
b101110 '
b10 (
b0 #
b10 #
0$
1K
#665000
1$
0K
#670000
b1110 '
b1111 '
b1011 '
b10 &
b11 !
b11 '
b0 &
b11 )
b0 #
0$
1K
#675000
1$
0K
#680000
b1000011 '
b1 !
b1000111 '
b1 &
b10 )
0$
1K
#685000
1$
0K
#690000
b0 )
b1000101 '
b0 (
b1 #
b1100101 '
b1100100 '
b1101100 '
b0 &
b1 )
0$
1K
#695000
1$
0K
#700000
b1111100 '
b11111100 '
b10 &
b11 #
b11111000 '
b11 )
b10 (
b11110000 '
b11 &
0$
1K
#705000
1$
0K
#710000
b11 (
b0 !
b10110000 '
b10 !
b10110010 '
b10 #
b10110011 '
b10100011 '
b1 &
b1 (
0$
1K
#715000
1$
0K
#720000
b0 #
b1 )
b0 &
b0 !
b10100001 '
b1 #
b10110001 '
b10 &
0$
1K
#725000
1$
0K
#730000
b110001 '
b0 (
b110000 '
b11 #
b11 )
b11 &
b10 !
b1 &
0$
1K
#735000
1$
0K
#740000
b10000 '
b10100 '
b11100 '
b1011100 '
b10 (
b1001100 '
b11 (
b0 &
0$
1K
#745000
1$
0K
#750000
b10 )
b1001110 '
b10 #
b1001111 '
b0 #
b0 )
b1101111 '
b1101011 '
b101011 '
b10 (
b1 &
0$
1K
#755000
1$
0K
#760000
b11 !
b11 &
b100011 '
b110011 '
b1 )
b110001 '
b10 #
b110101 '
b1110101 '
0$
1K
#765000
1$
0K
#770000
b11110101 '
b0 (
b1 (
b10 &
b11110111 '
b0 #
b11110011 '
b10110011 '
0$
1K
#775000
1$
0K
#780000
b1 !
b0 !
b10100011 '
b100011 '
b11 (
b11 &
b10 #
b1100011 '
0$
1K
#785000
1$
0K
#790000
b1100010 '
b1000010 '
b1001010 '
b0 )
b10 (
b10 !
b10 &
0$
1K
#795000
1$
0K
#800000
b10 )
b0 &
b1001000 '
b1001100 '
b1011100 '
b0 #
b11100 '
b11101 '
b111101 '
b11 (
b1 &
0$
1K
#805000
1$
0K
#810000
b110101 '
b11 )
b1 )
b11 &
b110001 '
b10 #
b110000 '
b10000 '
b10 (
0$
1K
#815000
1$
0K
#820000
b11 #
b11 !
b1 !
b1010000 '
b10 &
b1011000 '
b11 )
b0 &
b1011100 '
b1 #
b1011101 '
b11 (
0$
1K
#825000
1$
0K
#830000
b1011111 '
b0 #
b0 !
b10 !
b11111 '
b10111 '
b10011 '
b10 #
b10010 '
b10 (
0$
1K
#835000
1$
0K
#840000
b10010010 '
b0 (
b10 )
b0 )
b10010000 '
b11 #
b11 !
b10011000 '
b1 #
b10011001 '
0$
1K
#845000
1$
0K
#850000
b10001001 '
b10101001 '
b1 &
b11 &
b1 !
b11101001 '
b10 (
b10 )
b0 #
b0 !
0$
1K
#855000
1$
0K
#860000
b1101001 '
b11 )
b1100001 '
b1110001 '
b1 &
b10 !
b1 )
b11 !
0$
1K
#865000
1$
0K
#870000
b1110000 '
b1010000 '
b10000 '
b0 (
b10010000 '
b10011000 '
b11 &
b10 !
0$
1K
#875000
1$
0K
#880000
b10011100 '
b1 (
b10 #
b10 &
b11 #
b10011101 '
b10111101 '
b111101 '
0$
1K
#885000
1$
0K
#890000
b111111 '
b101111 '
b1101111 '
b11 (
b1100111 '
b1100011 '
b1 #
b0 #
b1100010 '
0$
1K
#895000
1$
0K
#900000
b0 )
b10 )
b0 &
b11 !
b10 (
b11100010 '
b11100000 '
b10100000 '
b0 (
b1 #
0$
1K
#905000
1$
0K
#910000
b10000000 '
b10010000 '
b10011000 '
b11 #
b11000 '
b11010 '
0$
1K
#915000
1$
0K
#920000
b1 !
b11011 '
b11 )
b10 &
b1 (
b1 #
b11001 '
0$
1K
#925000
1$
0K
#930000
b1 )
b0 !
b0 (
b11 #
0$
1K
#935000
1$
0K
#940000
b111001 '
b101001 '
b101000 '
b0 &
b101010 '
b1 (
0$
1K
#945000
1$
0K
#950000
b101110 '
b1101110 '
b10 #
b11101110 '
b0 )
b0 #
b11001110 '
b11011110 '
b11011100 '
0$
1K
#955000
1$
0K
#960000
b1 &
b11010100 '
b10 !
b10 )
b11 &
b0 (
b11010000 '
b10010000 '
b10000 '
b11 )
b0 '
0$
1K
#965000
1$
0K
#970000
b10 (
b1 '
b10 #
b100001 '
b10 &
b0 !
b110001 '
0$
1K
#975000
1$
0K
#980000
b110011 '
b1 )
b0 &
b11 (
b110111 '
b1110111 '
b1110110 '
b0 #
b1010110 '
b1 &
0$
1K
#985000
1$
0K
#990000
b1 !
b1 #
b1 (
b1000110 '
b1000100 '
b11 )
b11 &
b0 (
b1000000 '
b0 '
b10 &
0$
1K
#995000
1$
0K
