design/simulation/qsim/arch.msim.vcd
$comment
	File created using the following command:
		vcd file arch.msim.vcd -direction
$end
$date
	Tue Mar 18 14:42:26 2025
$end
$version
	ModelSim Version 10.1d
$end
$timescale
	1ps
$end
$scope module regg_vlg_vec_tst $end
$var reg 1 ! CLK $end
$var reg 1 " CLRN $end
$var reg 8 # D [7:0] $end
$var reg 1 $ EN $end
$var wire 1 % Q [7] $end
$var wire 1 & Q [6] $end
$var wire 1 ' Q [5] $end
$var wire 1 ( Q [4] $end
$var wire 1 ) Q [3] $end
$var wire 1 * Q [2] $end
$var wire 1 + Q [1] $end
$var wire 1 , Q [0] $end
$var wire 1 - sampler $end
$scope module i1 $end
$var wire 1 . gnd $end
$var wire 1 / vcc $end
$var wire 1 0 unknown $end
$var tri1 1 1 devclrn $end
$var tri1 1 2 devpor $end
$var tri1 1 3 devoe $end
$var wire 1 4 CLK~combout $end
$var wire 1 5 CLK~clkctrl_outclk $end
$var wire 1 6 CLRN~combout $end
$var wire 1 7 CLRN~clkctrl_outclk $end
$var wire 1 8 EN~combout $end
$var wire 1 9 inst|dffs[6]~feeder_combout $end
$var wire 1 : inst|dffs[5]~feeder_combout $end
$var wire 1 ; inst|dffs[1]~feeder_combout $end
$var wire 1 < inst|dffs[0]~feeder_combout $end
$var wire 1 = inst|dffs [7] $end
$var wire 1 > inst|dffs [6] $end
$var wire 1 ? inst|dffs [5] $end
$var wire 1 @ inst|dffs [4] $end
$var wire 1 A inst|dffs [3] $end
$var wire 1 B inst|dffs [2] $end
$var wire 1 C inst|dffs [1] $end
$var wire 1 D inst|dffs [0] $end
$var wire 1 E D~combout [7] $end
$var wire 1 F D~combout [6] $end
$var wire 1 G D~combout [5] $end
$var wire 1 H D~combout [4] $end
$var wire 1 I D~combout [3] $end
$var wire 1 J D~combout [2] $end
$var wire 1 K D~combout [1] $end
$var wire 1 L D~combout [0] $end
$upscope $end
$upscope $end
$enddefinitions $end
#0
$dumpvars
0!
0"
b110100 #
1$
0,
0+
0*
0)
0(
0'
0&
0%
x-
0.
1/
x0
11
12
13
04
05
06
07
18
09
1:
0;
0<
0D
0C
0B
0A
0@
0?
0>
0=
0L
0K
1J
0I
1H
1G
0F
0E
$end
#5000
1!
14
15
0-
#10000
b1110100 #
b1100100 #
0$
0!
0H
1F
08
04
05
1-
19
#15000
1!
14
15
0-
#20000
b11100100 #
b11000100 #
b11000000 #
b11000001 #
b11010001 #
1$
0!
1L
0J
1H
0G
1E
18
04
05
1-
1<
0:
#25000
1!
14
15
0-
#30000
1"
b11010011 #
b10010011 #
b10010111 #
b10000111 #
0$
0!
16
1K
1J
0H
0F
08
04
05
17
1-
1;
09
#35000
1!
14
15
0-
#40000
b111 #
b100111 #
b100101 #
b1100101 #
b1100001 #
1$
0!
0K
0J
1G
1F
0E
18
04
05
1-
0;
1:
19
#45000
1!
14
15
0-
1D
1?
1>
1,
1'
1&
#50000
b1100000 #
b1110000 #
b1010000 #
b1010010 #
0!
0L
1K
1H
0G
04
05
1-
0<
1;
0:
#55000
1!
14
15
0-
0D
1C
1@
0?
0,
1+
1(
0'
#60000
b1011010 #
b11010 #
0$
b111010 #
b111000 #
0!
0K
1I
1G
0F
08
04
05
1-
0;
1:
09
#65000
1!
14
15
0-
#70000
b111100 #
b1111100 #
b1011100 #
b1011110 #
0!
1K
1J
0G
1F
04
05
1-
1;
0:
19
#75000
1!
14
15
0-
#80000
b11011110 #
b11011111 #
b11001111 #
b10001111 #
b10001101 #
0!
1L
0K
0H
0F
1E
04
05
1-
1<
0;
09
#85000
1!
14
15
0-
#90000
b10000101 #
1$
b10000001 #
b10100001 #
b10100000 #
b10110000 #
b11110000 #
b11110010 #
0!
0L
1K
0J
0I
1H
1G
1F
18
04
05
1-
0<
1;
1:
19
#95000
1!
14
15
0-
1?
1=
1'
1%
#100000
b1110010 #
b1111010 #
b1011010 #
b1001010 #
b1001000 #
0!
0K
1I
0H
0G
0E
04
05
1-
0;
0:
#105000
1!
14
15
0-
0C
1A
0@
0?
0=
0+
1)
0(
0'
0%
#110000
b1001100 #
b1001101 #
b1101 #
b101 #
b111 #
0!
1L
1K
1J
0I
0F
04
05
1-
1<
1;
09
#115000
1!
14
15
0-
1D
1C
1B
0A
0>
1,
1+
1*
0)
0&
#120000
b10111 #
b10011 #
b1010011 #
b1011011 #
0!
0J
1I
1H
1F
04
05
1-
19
#125000
1!
14
15
0-
0B
1A
1@
1>
0*
1)
1(
1&
#130000
b11011011 #
b11011010 #
b11001010 #
b11001110 #
b11000110 #
0!
0L
1J
0I
0H
1E
04
05
1-
0<
#135000
1!
14
15
0-
0D
1B
0A
0@
1=
0,
1*
0)
0(
1%
#140000
b11100110 #
b11100100 #
b10100100 #
b100100 #
b100101 #
b100001 #
b101001 #
0!
1L
0K
0J
1I
1G
0F
0E
04
05
1-
1<
0;
1:
09
#145000
1!
14
15
0-
1D
0C
0B
1A
1?
0>
0=
1,
0+
0*
1)
1'
0&
0%
#150000
b111001 #
b11001 #
b1011001 #
b11011001 #
0!
1H
0G
1F
1E
04
05
1-
0:
19
#155000
1!
14
15
0-
1@
0?
1>
1=
1(
0'
1&
1%
#160000
b11011000 #
b11010000 #
b11000000 #
b10000000 #
b0 #
0!
0L
0I
0H
0F
0E
04
05
1-
0<
09
#165000
1!
14
15
0-
0D
0A
0@
0>
0=
0,
0)
0(
0&
0%
#170000
0$
b10 #
b110 #
0!
08
1K
1J
04
05
1-
1;
#175000
1!
14
15
0-
#180000
b100110 #
b100111 #
b101111 #
1$
b101101 #
b101001 #
0!
1L
0K
0J
1I
1G
18
04
05
1-
1<
0;
1:
#185000
1!
14
15
0-
1D
1A
1?
1,
1)
1'
#190000
b111001 #
b11001 #
b10001 #
b10011 #
b10111 #
0!
1K
1J
0I
1H
0G
04
05
1-
1;
0:
#195000
1!
14
15
0-
1C
1B
0A
1@
0?
1+
1*
0)
1(
0'
#200000
b1010111 #
b1010110 #
0$
b1000110 #
b1001110 #
b1001100 #
0!
0L
0K
1I
0H
1F
08
04
05
1-
0<
0;
19
#205000
1!
14
15
0-
#210000
b1001101 #
1$
b1011101 #
b1011111 #
0!
1L
1K
1H
18
04
05
1-
1<
1;
#215000
1!
14
15
0-
1A
1>
1)
1&
#220000
b11011111 #
b10011111 #
0$
b10011101 #
0!
0K
0F
1E
08
04
05
1-
0;
09
#225000
1!
14
15
0-
#230000
b10010101 #
b10000101 #
b101 #
1$
0!
0I
0H
0E
18
04
05
1-
#235000
1!
14
15
0-
0C
0A
0@
0>
0+
0)
0(
0&
#240000
b100101 #
b100111 #
b110111 #
0!
1K
1H
1G
04
05
1-
1;
1:
#245000
1!
14
15
0-
1C
1@
1?
1+
1(
1'
#250000
b1110111 #
b1111111 #
b11111111 #
0$
b11011111 #
b11011101 #
b11001101 #
0!
0K
1I
0H
0G
1F
1E
08
04
05
1-
0;
0:
19
#255000
1!
14
15
0-
#260000
b11001001 #
b11001000 #
b10001000 #
b1000 #
1$
b1010 #
b11010 #
0!
0L
1K
0J
1H
0F
0E
18
04
05
1-
0<
1;
09
#265000
1!
14
15
0-
0D
0B
1A
0?
0,
0*
1)
0'
#270000
b10010 #
b10010010 #
b10010000 #
b10000000 #
0!
0K
0I
0H
1E
04
05
1-
0;
#275000
1!
14
15
0-
0C
0A
0@
1=
0+
0)
0(
1%
#280000
b10100000 #
b10100100 #
b11100100 #
b11101100 #
b1101100 #
b1101110 #
0!
1K
1J
1I
1G
1F
0E
04
05
1-
1;
1:
19
#285000
1!
14
15
0-
1C
1B
1A
1?
1>
0=
1+
1*
1)
1'
1&
0%
#290000
b1101010 #
b11101010 #
b11101000 #
0!
0K
0J
1E
04
05
1-
0;
#295000
1!
14
15
0-
0C
0B
1=
0+
0*
1%
#300000
b11111000 #
b10111000 #
b111000 #
b111010 #
0!
1K
1H
0F
0E
04
05
1-
1;
09
#305000
1!
14
15
0-
1C
1@
0>
0=
1+
1(
0&
0%
#310000
b111110 #
b101110 #
b1101110 #
b11101110 #
b11101100 #
0!
0K
1J
0H
1F
1E
04
05
1-
0;
19
#315000
1!
14
15
0-
0C
1B
0@
1>
1=
0+
1*
0(
1&
1%
#320000
b11101000 #
b11111000 #
b1111000 #
0!
0J
1H
0E
04
05
1-
#325000
1!
14
15
0-
0B
1@
0=
0*
1(
0%
#330000
b1111001 #
0$
b1110001 #
b110001 #
b110101 #
b100101 #
b10100101 #
0!
1L
1J
0I
0H
0F
1E
08
04
05
1-
1<
09
#335000
1!
14
15
0-
#340000
b10000101 #
b10000111 #
b10000110 #
1$
b10001110 #
b10001010 #
b10011010 #
b11010 #
0!
0L
1K
0J
1I
1H
0G
0E
18
04
05
1-
0<
1;
0:
#345000
1!
14
15
0-
1C
0?
0>
1+
0'
0&
#350000
b1011010 #
b1111010 #
b1111011 #
b1110011 #
b1110111 #
b1100111 #
b11100111 #
0!
1L
1J
0I
0H
1G
1F
1E
04
05
1-
1<
1:
19
#355000
1!
14
15
0-
1D
1B
0A
0@
1?
1>
1=
1,
1*
0)
0(
1'
1&
1%
#360000
b11000111 #
b11000110 #
b11000010 #
b11010010 #
0!
0L
0J
1H
0G
04
05
1-
0<
0:
#365000
1!
14
15
0-
0D
0B
1@
0?
0,
0*
1(
0'
#370000
b11011010 #
b1011010 #
b1111010 #
b1111011 #
b1111111 #
0!
1L
1J
1I
1G
0E
04
05
1-
1<
1:
#375000
1!
14
15
0-
1D
1B
1A
1?
0=
1,
1*
1)
1'
0%
#380000
0$
b1110111 #
b1110011 #
0!
08
0J
0I
04
05
1-
#385000
1!
14
15
0-
#390000
b110011 #
b100011 #
b100010 #
b100110 #
0!
0L
1J
0H
0F
04
05
1-
0<
09
#395000
1!
14
15
0-
#400000
b10100110 #
1$
b10110110 #
b10110111 #
0!
1L
1H
1E
18
04
05
1-
1<
#405000
1!
14
15
0-
0A
0>
1=
0)
0&
1%
#410000
b10110101 #
b110101 #
0!
0K
0E
04
05
1-
0;
#415000
1!
14
15
0-
0C
0=
0+
0%
#420000
b111101 #
b111001 #
b111000 #
0!
0L
0J
1I
04
05
1-
0<
#425000
1!
14
15
0-
0D
0B
1A
0,
0*
1)
#430000
0$
b10111000 #
b10110000 #
b10110001 #
0!
08
1L
0I
1E
04
05
1-
1<
#435000
1!
14
15
0-
#440000
b10100001 #
b10100101 #
0!
1J
0H
04
05
1-
#445000
1!
14
15
0-
#450000
b10000101 #
b11000101 #
1$
b1000101 #
b1000100 #
b1000000 #
0!
0L
0J
0G
1F
0E
18
04
05
1-
0<
0:
19
#455000
1!
14
15
0-
0A
0@
0?
1>
0)
0(
0'
1&
#460000
b1001000 #
b11001000 #
b11001100 #
0!
1J
1I
1E
04
05
1-
#465000
1!
14
15
0-
1B
1A
1=
1*
1)
1%
#470000
b11001110 #
0$
b11001111 #
b11000111 #
b11000011 #
0!
1L
1K
0J
0I
08
04
05
1-
1<
1;
#475000
1!
14
15
0-
#480000
b11100011 #
b10100011 #
b10100001 #
b10100000 #
b10101000 #
0!
0L
0K
1I
1G
0F
04
05
1-
0<
0;
1:
09
#485000
1!
14
15
0-
#490000
b10111000 #
1$
b10111100 #
b10011100 #
b11011100 #
b11011110 #
b11011111 #
b11010111 #
0!
1L
1K
1J
0I
1H
0G
1F
18
04
05
1-
1<
1;
0:
19
#495000
1!
14
15
0-
1D
1C
0A
1@
1,
1+
0)
1(
#500000
b11000111 #
b11000011 #
b11000001 #
b11000000 #
b11001000 #
0!
0L
0K
0J
1I
0H
04
05
1-
0<
0;
#505000
1!
14
15
0-
0D
0C
0B
1A
0@
0,
0+
0*
1)
0(
#510000
b1001000 #
0$
b1101000 #
b1111000 #
b1111010 #
b1111011 #
b1110011 #
0!
1L
1K
0I
1H
1G
0E
08
04
05
1-
1<
1;
1:
#515000
1!
14
15
0-
#520000
b110011 #
b110111 #
b10110111 #
1$
b10110110 #
b10111110 #
0!
0L
1J
1I
0F
1E
18
04
05
1-
0<
09
#525000
1!
14
15
0-
1C
1B
1@
1?
0>
1+
1*
1(
1'
0&
#530000
b10111100 #
b11111100 #
b11111000 #
0$
b11110000 #
0!
0K
0J
0I
1F
08
04
05
1-
0;
19
#535000
1!
14
15
0-
#540000
b11100000 #
b1100000 #
b100000 #
0!
0H
0F
0E
04
05
1-
09
#545000
1!
14
15
0-
#550000
b100001 #
b100011 #
b100111 #
b101111 #
b111111 #
0!
1L
1K
1J
1I
1H
04
05
1-
1<
1;
#555000
1!
14
15
0-
#560000
1$
b10111111 #
b11111111 #
b11111110 #
b11110110 #
b11100110 #
0!
18
0L
0I
0H
1F
1E
04
05
1-
0<
19
#565000
1!
14
15
0-
0A
0@
1>
0)
0(
1&
#570000
b11000110 #
0$
b1000110 #
0!
0G
0E
08
04
05
1-
0:
#575000
1!
14
15
0-
#580000
b110 #
b111 #
b100111 #
1$
0!
1L
1G
0F
18
04
05
1-
1<
1:
09
#585000
1!
14
15
0-
1D
0>
0=
1,
0&
0%
#590000
b100101 #
b110101 #
b10110101 #
b10110100 #
b10010100 #
0!
0L
0K
1H
0G
1E
04
05
1-
0<
0;
0:
#595000
1!
14
15
0-
0D
0C
1@
0?
1=
0,
0+
1(
0'
1%
#600000
0$
b10110100 #
0!
08
1G
04
05
1-
1:
#605000
1!
14
15
0-
#610000
b10110000 #
b110000 #
b110001 #
b10001 #
0!
1L
0J
0G
0E
04
05
1-
1<
0:
#615000
1!
14
15
0-
#620000
b1010001 #
b1010101 #
b11010101 #
b11010100 #
0!
0L
1J
1F
1E
04
05
1-
0<
19
#625000
1!
14
15
0-
#630000
b11011100 #
b11001100 #
b11001000 #
b1001000 #
0!
0J
1I
0H
0E
04
05
1-
#635000
1!
14
15
0-
#640000
b1101000 #
b101000 #
b111000 #
b10111000 #
0!
1H
1G
0F
1E
04
05
1-
1:
09
#645000
1!
14
15
0-
#650000
b10111010 #
b10111011 #
b10111111 #
b10011111 #
b11011111 #
b11001111 #
0!
1L
1K
1J
0H
0G
1F
04
05
1-
1<
1;
0:
19
#655000
1!
14
15
0-
#660000
b11000111 #
b1000111 #
b1000110 #
b1000010 #
b10 #
0!
0L
0J
0I
0F
0E
04
05
1-
0<
09
#665000
1!
14
15
0-
#670000
b1010 #
b10001010 #
b10001011 #
b10001111 #
b11001111 #
0!
1L
1J
1I
1F
1E
04
05
1-
1<
19
#675000
1!
14
15
0-
#680000
1$
b11001101 #
b11011101 #
b1011101 #
b1011001 #
0!
18
0K
0J
1H
0E
04
05
1-
0;
#685000
1!
14
15
0-
1D
0B
1A
1>
0=
1,
0*
1)
1&
0%
#690000
b1010001 #
b1010000 #
b10000 #
b10100 #
0!
0L
1J
0I
0F
04
05
1-
0<
09
#695000
1!
14
15
0-
0D
1B
0A
0>
0,
1*
0)
0&
#700000
0$
b1010100 #
0!
08
1F
04
05
1-
19
#705000
1!
14
15
0-
#710000
b1000100 #
b11000100 #
b11001100 #
b11001000 #
b10001000 #
0!
0J
1I
0H
0F
1E
04
05
1-
09
#715000
1!
14
15
0-
#720000
b10101000 #
b10101010 #
b10111010 #
b10110010 #
b11110010 #
0!
1K
0I
1H
1G
1F
04
05
1-
1;
1:
19
#725000
1!
14
15
0-
#730000
1$
b1110010 #
0!
18
0E
04
05
1-
#735000
1!
14
15
0-
1C
0B
1?
1>
1+
0*
1'
1&
#740000
b1110000 #
b1111000 #
b111000 #
0$
b10111000 #
0!
0K
1I
0F
1E
08
04
05
1-
0;
09
#745000
1!
14
15
0-
#750000
b10111001 #
b10111101 #
b111101 #
0!
1L
1J
0E
04
05
1-
1<
#755000
1!
14
15
0-
#760000
b11101 #
b1101 #
b101 #
b1 #
b10000001 #
0!
0J
0I
0H
0G
1E
04
05
1-
0:
#765000
1!
14
15
0-
#770000
b10000011 #
b11000011 #
1$
b11000010 #
b11100010 #
b1100010 #
0!
0L
1K
1G
1F
0E
18
04
05
1-
0<
1;
1:
19
#775000
1!
14
15
0-
0@
0(
#780000
b1110010 #
b1110000 #
b110000 #
b110001 #
0!
1L
0K
1H
0F
04
05
1-
1<
0;
09
#785000
1!
14
15
0-
1D
0C
1@
0>
1,
0+
1(
0&
#790000
0$
b10110001 #
b10100001 #
b11100001 #
0!
08
0H
1F
1E
04
05
1-
19
#795000
1!
14
15
0-
#800000
b11100101 #
b1100101 #
b1110101 #
b110101 #
0!
1J
1H
0F
0E
04
05
1-
09
#805000
1!
14
15
0-
#810000
b111101 #
b11101 #
b11111 #
b11011 #
b10011011 #
b10001011 #
b11001011 #
0!
1K
0J
1I
0H
0G
1F
1E
04
05
1-
1;
0:
19
#815000
1!
14
15
0-
#820000
1$
b11000011 #
b11100011 #
b11100111 #
b10100111 #
0!
18
1J
0I
1G
0F
04
05
1-
1:
09
#825000
1!
14
15
0-
1C
1B
0@
1=
1+
1*
0(
1%
#830000
b10100101 #
b100101 #
b100001 #
0!
0K
0J
0E
04
05
1-
0;
#835000
1!
14
15
0-
0C
0B
0=
0+
0*
0%
#840000
0$
b101001 #
b1101001 #
b1101011 #
b1101111 #
0!
08
1K
1J
1I
1F
04
05
1-
1;
19
#845000
1!
14
15
0-
#850000
b1111111 #
1$
b1110111 #
b110111 #
b110011 #
0!
0J
0I
1H
0F
18
04
05
1-
09
#855000
1!
14
15
0-
1C
1@
1+
1(
#860000
b10110011 #
b10100011 #
b10101011 #
b11101011 #
0!
1I
0H
1F
1E
04
05
1-
19
#865000
1!
14
15
0-
1A
0@
1>
1=
1)
0(
1&
1%
#870000
b11101010 #
b11101000 #
b11101100 #
b1101100 #
b1111100 #
b1110100 #
b110100 #
0!
0L
0K
1J
0I
1H
0F
0E
04
05
1-
0<
0;
09
#875000
1!
14
15
0-
0D
0C
1B
0A
1@
0>
0=
0,
0+
1*
0)
1(
0&
0%
#880000
0$
b110101 #
b110001 #
b100001 #
b1100001 #
0!
08
1L
0J
0H
1F
04
05
1-
1<
19
#885000
1!
14
15
0-
#890000
b11100001 #
b11100000 #
b11100100 #
b11110100 #
b10110100 #
0!
0L
1J
1H
0F
1E
04
05
1-
0<
09
#895000
1!
14
15
0-
#900000
b10110110 #
b10111110 #
b111110 #
b111111 #
b111011 #
b101011 #
0!
1L
1K
0J
1I
0H
0E
04
05
1-
1<
1;
#905000
1!
14
15
0-
#910000
b1011 #
1$
b11 #
0!
0I
0G
18
04
05
1-
0:
#915000
1!
14
15
0-
1D
1C
0B
0@
0?
1,
1+
0*
0(
0'
#920000
b1000011 #
b11000011 #
b11100011 #
b11101011 #
0!
1I
1G
1F
1E
04
05
1-
1:
19
#925000
1!
14
15
0-
1A
1?
1>
1=
1)
1'
1&
1%
#930000
b11101010 #
b11101110 #
b10101110 #
b101110 #
b100110 #
0!
0L
1J
0I
0F
0E
04
05
1-
0<
09
#935000
1!
14
15
0-
0D
1B
0A
0>
0=
0,
1*
0)
0&
0%
#940000
b100100 #
0!
0K
04
05
1-
0;
#945000
1!
14
15
0-
0C
0+
#950000
b110100 #
b10100 #
b10101 #
b10001 #
b1010001 #
b11010001 #
b11011001 #
0!
1L
0J
1I
1H
0G
1F
1E
04
05
1-
1<
0:
19
#955000
1!
14
15
0-
1D
0B
1A
1@
0?
1>
1=
1,
0*
1)
1(
0'
1&
1%
#960000
0$
b11001001 #
b11101001 #
b11101000 #
b11101100 #
b1101100 #
b1100100 #
0!
08
0L
1J
0I
0H
1G
0E
04
05
1-
0<
1:
#965000
1!
14
15
0-
#970000
b1100110 #
b100110 #
1$
b110110 #
b10110110 #
b10111110 #
0!
1K
1I
1H
0F
1E
18
04
05
1-
1;
09
#975000
1!
14
15
0-
0D
1C
1B
1?
0>
0,
1+
1*
1'
0&
#980000
b10011110 #
b10011111 #
b10011101 #
b11011101 #
0$
b11001101 #
0!
1L
0K
0H
0G
1F
08
04
05
1-
1<
0;
0:
19
#985000
1!
14
15
0-
#990000
b11001001 #
b1001001 #
b1101001 #
b101001 #
1$
b111001 #
0!
0J
1H
1G
0F
0E
18
04
05
1-
1:
09
#995000
1!
14
15
0-
1D
0C
0B
0=
1,
0+
0*
0%
