design/simulation/qsim/arch.msim.vcd
$comment
	File created using the following command:
		vcd file arch.msim.vcd -direction
$end
$date
	Tue Mar 18 03:11:51 2025
$end
$version
	ModelSim Version 10.1d
$end
$timescale
	1ps
$end
$scope module sh1c_vlg_vec_tst $end
$var reg 1 ! Ci $end
$var reg 8 " D [7:0] $end
$var reg 2 # F [1:0] $end
$var wire 1 $ Co $end
$var wire 1 % Q [7] $end
$var wire 1 & Q [6] $end
$var wire 1 ' Q [5] $end
$var wire 1 ( Q [4] $end
$var wire 1 ) Q [3] $end
$var wire 1 * Q [2] $end
$var wire 1 + Q [1] $end
$var wire 1 , Q [0] $end
$var wire 1 - sampler $end
$scope module i1 $end
$var wire 1 . gnd $end
$var wire 1 / vcc $end
$var wire 1 0 unknown $end
$var tri1 1 1 devclrn $end
$var tri1 1 2 devpor $end
$var tri1 1 3 devoe $end
$var wire 1 4 inst|inst4|inst2[8]~0_combout $end
$var wire 1 5 Ci~combout $end
$var wire 1 6 inst|inst4|inst2[7]~1_combout $end
$var wire 1 7 inst|inst4|inst2[7]~2_combout $end
$var wire 1 8 inst|inst4|inst2[6]~3_combout $end
$var wire 1 9 inst|inst4|inst2[6]~4_combout $end
$var wire 1 : inst|inst4|inst2[5]~5_combout $end
$var wire 1 ; inst|inst4|inst2[5]~6_combout $end
$var wire 1 < inst|inst4|inst2[4]~7_combout $end
$var wire 1 = inst|inst4|inst2[4]~8_combout $end
$var wire 1 > inst|inst4|inst2[3]~9_combout $end
$var wire 1 ? inst|inst4|inst2[3]~10_combout $end
$var wire 1 @ inst|inst4|inst2[2]~11_combout $end
$var wire 1 A inst|inst4|inst2[2]~12_combout $end
$var wire 1 B inst|inst4|inst2[1]~13_combout $end
$var wire 1 C inst|inst4|inst2[1]~14_combout $end
$var wire 1 D inst|inst4|inst2[0]~15_combout $end
$var wire 1 E inst|inst4|inst2[0]~16_combout $end
$var wire 1 F F~combout [1] $end
$var wire 1 G F~combout [0] $end
$var wire 1 H D~combout [7] $end
$var wire 1 I D~combout [6] $end
$var wire 1 J D~combout [5] $end
$var wire 1 K D~combout [4] $end
$var wire 1 L D~combout [3] $end
$var wire 1 M D~combout [2] $end
$var wire 1 N D~combout [1] $end
$var wire 1 O D~combout [0] $end
$upscope $end
$upscope $end
$enddefinitions $end
#0
$dumpvars
0!
b1100101 "
b1 #
0$
0,
1+
0*
1)
0(
0'
1&
1%
x-
0.
1/
x0
11
12
13
04
05
16
17
18
19
0:
0;
0<
0=
1>
1?
0@
0A
1B
1C
0D
0E
1G
0F
1O
0N
1M
0L
0K
1J
1I
0H
$end
#10000
b11100101 "
b10100101 "
b10000101 "
b10010101 "
b10010100 "
b11 #
b10 #
0G
1F
0O
1K
0J
0I
1H
0-
0B
0>
08
06
07
0%
#20000
b10010110 "
b10010111 "
b0 #
0F
1O
1N
1-
1D
0C
1B
1@
0?
1<
09
17
1E
1C
1A
1=
0+
0)
0&
1%
1,
1+
1*
1(
#30000
b10011111 "
b11011111 "
b11111111 "
b11111110 "
0O
1L
1J
1I
0-
0D
1>
1:
18
0E
1?
1;
19
0,
1)
1'
1&
#40000
b11111100 "
b10111100 "
b10011100 "
b10011101 "
1O
0N
0J
0I
1-
1D
0B
0:
08
1E
0C
0;
09
1,
0+
0'
0&
#50000
b10011001 "
b1 #
b10010001 "
b10010011 "
b11010011 "
1G
1N
0M
0L
1I
0-
0D
1B
0>
0<
1:
07
16
14
0E
1C
0?
0=
1;
17
0%
1$
0,
1+
0)
0(
1'
1%
#60000
b1010011 "
b11 #
b1110011 "
b1110010 "
b1110110 "
b10 #
b1110100 "
0G
1F
0O
0N
1M
1J
0H
1-
0B
0@
0:
06
04
1?
1=
0A
07
0$
1)
1(
0*
0%
#70000
b1111100 "
b111100 "
b0 #
b111000 "
b1 #
1G
0F
0M
1L
0I
0-
1<
1:
18
0C
0?
0=
0;
1=
1;
19
0+
0)
0(
0'
1(
1'
1&
#80000
b10111000 "
b10111001 "
b10111011 "
b10110011 "
b10110111 "
b0 #
0G
1O
1N
1M
0L
1H
1-
1D
1B
1@
08
17
1E
1C
1A
09
1%
1,
1+
1*
0&
#90000
b110111 "
b110101 "
0N
0H
0-
0B
07
0C
0%
0+
#100000
b100101 "
b1100101 "
b1100100 "
b1 #
1G
0O
0K
1I
1-
0D
0@
1>
0<
0:
18
16
0E
0A
1?
0=
0;
19
17
0,
0*
1)
0(
0'
1&
1%
#110000
b11 #
b1101100 "
b1101110 "
b101110 "
1N
1L
0I
1F
0-
1E
1A
0>
08
06
1C
1=
0?
09
07
1,
1*
1+
1(
0)
0&
0%
#120000
b1110 "
b1010 "
b10001010 "
b10011010 "
b10 #
b10010010 "
b10010000 "
0G
0N
0M
0L
1K
0J
1H
1-
0E
0C
0A
1?
0=
19
0,
0+
0*
1)
0(
1&
#130000
b10010001 "
b11010001 "
b11110001 "
b1110001 "
b1100001 "
b11 #
b1101001 "
1G
1O
1L
0K
1J
1I
0H
0-
14
1A
0?
1=
1;
09
1$
1*
0)
1(
1'
0&
#140000
b1 #
b101001 "
b10101001 "
b0 #
0I
1H
0G
0F
1-
0;
17
04
1D
1>
1:
0A
0=
1E
1?
1;
0'
1%
0$
0*
0(
1,
1)
1'
#150000
b10101101 "
b10 #
b11 #
1G
1F
1M
0-
0D
0>
0:
14
1C
1A
1=
19
0E
0?
0;
1$
1+
1*
1(
1&
0,
0)
0'
#160000
b10101100 "
b101100 "
b10 #
0G
0O
0H
1-
07
04
09
0%
0$
0&
#170000
b1100 "
b11100 "
b10100 "
b1010100 "
b0 #
b1 #
1G
0F
0L
1K
0J
1I
0-
1>
1:
16
0C
0A
0=
1?
1;
17
0+
0*
0(
1)
1'
1%
#180000
b1010110 "
b1010111 "
b1110111 "
b1100111 "
b11 #
1F
1O
1N
0K
1J
1-
1E
1C
0>
1=
0:
06
14
0?
07
1,
1+
1(
1$
0)
0%
#190000
b1100011 "
b1100010 "
b1110010 "
0O
0M
1K
0-
04
0C
1?
0$
0+
1)
#200000
b1110000 "
b1110001 "
b1100001 "
1O
0N
0K
1-
14
0E
0?
1$
0,
0)
#210000
b100001 "
b1 "
b101 "
b111 "
b10111 "
1N
1M
1K
0J
0I
0-
1E
1C
1?
0=
0;
1,
1+
1)
0(
0'
#220000
b11111 "
b10 #
b11110 "
b111110 "
b101110 "
0G
0O
1L
0K
1J
1-
04
1A
0?
1=
0$
1*
0)
1(
#230000
b10101110 "
b0 #
b11101110 "
b11101100 "
b11100100 "
0F
0N
0L
1I
1H
0-
0E
0C
0A
1@
0=
1:
18
17
1A
1;
19
0,
0+
0*
0(
1%
1*
1'
1&
#240000
b1 #
b11100101 "
b11000101 "
b11010101 "
b1010101 "
b10101 "
1O
1K
0J
0I
0H
1G
1-
1B
08
07
0@
1>
1C
09
0A
1?
0%
1+
0&
0*
1)
#250000
b10001 "
b11001 "
b11000 "
b111000 "
b101000 "
b1101000 "
0O
0M
1L
0K
1J
1I
0-
0B
0>
1<
0:
18
16
0C
0?
1=
0;
19
17
0+
0)
1(
0'
1&
1%
#260000
b1101010 "
b11101010 "
b11100010 "
b11100011 "
b11000011 "
b10000011 "
1O
1N
0L
0J
0I
1H
1-
1B
14
1@
0<
08
06
1C
1A
0=
09
07
1$
1+
1*
0(
0&
0%
#270000
b0 #
b10000111 "
b10010111 "
b10010101 "
b10101 "
b10100 "
b1010100 "
0O
0N
1M
1K
1I
0H
0G
0-
0B
04
1<
18
0C
1=
19
0$
0+
1(
1&
#280000
b1110100 "
b1 #
b1110110 "
b1110111 "
b110111 "
1G
1O
1N
1J
0I
1-
1B
1>
0<
1:
1C
1?
0=
1;
1+
1)
0(
1'
#290000
b111111 "
b111011 "
b10111011 "
b10011011 "
b10011010 "
0O
0M
1L
0J
1H
0-
0B
14
0>
1<
08
0C
0?
1=
09
1$
0+
0)
1(
0&
#300000
b10001010 "
b10001000 "
b10001100 "
b1100 "
b1101 "
1O
0N
1M
0K
0H
1-
1B
04
0@
1>
0:
1C
0A
1?
0;
0$
1+
0*
1)
0'
#310000
b11 #
b1001101 "
b1000101 "
b1100101 "
b1110101 "
b1110111 "
1N
0L
1K
1J
1I
1F
0-
1E
0B
0>
0<
1;
14
1,
1'
1$
#320000
b10 #
b1110011 "
b11110011 "
b11111011 "
b11111001 "
0N
0M
1L
1H
0G
1-
0E
0C
1A
19
0,
0+
1*
1&
#330000
b11111000 "
b0 #
b11011000 "
b11011100 "
0F
0O
1M
0J
0-
0A
1@
0?
1>
0=
1<
0;
09
18
17
04
1A
1?
1=
19
0*
0)
0(
0'
0&
1%
0$
1*
1)
1(
1&
#340000
b11001100 "
b11000100 "
b11000110 "
b11000111 "
b11000011 "
1O
1N
0M
0L
0K
1-
1D
1B
0@
0>
0<
1E
1C
0A
0?
0=
1,
1+
0*
0)
0(
#350000
b10000011 "
b1 #
b10100011 "
b10101011 "
b10101111 "
1G
1M
1L
1J
0I
0-
0D
1@
1>
1<
07
14
0E
1A
1?
1=
0%
1$
0,
1*
1)
1(
#360000
b10111111 "
b10111110 "
b11111110 "
b11011110 "
b11010110 "
b11010010 "
0O
0M
0L
1K
0J
1I
1-
0B
0>
0<
1:
08
16
0C
0?
0=
1;
09
17
0+
0)
0(
1'
0&
1%
#370000
b11010000 "
b11000000 "
b11000001 "
b10000001 "
b10100001 "
1O
0N
0K
1J
0I
0-
1B
0@
0:
18
06
1C
0A
0;
19
07
1+
0*
0'
1&
0%
#380000
b100001 "
b11 #
b101001 "
b101011 "
b111011 "
b111010 "
1F
0O
1N
1L
1K
0H
1-
1E
0B
1A
1?
1=
08
04
0C
09
1,
1*
1)
1(
0$
0+
0&
#390000
b10 #
b1111010 "
b1110010 "
b1110000 "
b1110001 "
1O
0N
0L
1I
0G
0-
14
0E
0A
1;
1$
0,
0*
1'
#400000
b11110001 "
b0 #
b11100001 "
b1 #
b10100001 "
b10100011 "
b10100010 "
1G
0F
0O
1N
0K
0I
1H
1-
1@
18
0?
0=
0;
1A
19
0)
0(
0'
1*
1&
#410000
b10100110 "
b10000110 "
b10001110 "
b11 #
b10 #
b11001110 "
b11001100 "
0G
1F
0N
1M
1L
0J
1I
0-
0@
08
04
1C
1;
0$
1+
1'
#420000
b11001000 "
b11000000 "
b0 #
b1 #
b10000000 "
b10000010 "
1G
0F
1N
0M
0L
0I
1-
1@
14
0C
0A
0;
09
1A
1$
0+
0*
0'
0&
1*
#430000
b10 "
b11 "
b100011 "
b101011 "
b11 #
b1101011 "
b1101001 "
1F
1O
0N
1L
1J
1I
0H
0-
0@
1=
1;
1(
1'
#440000
b1111001 "
b1111101 "
b11111101 "
b11011101 "
b10011101 "
b10011111 "
1N
1M
1K
0J
0I
1H
1-
1E
1C
1?
0=
0;
19
17
1,
1+
1)
0(
0'
1&
1%
#450000
b10011011 "
b11011 "
b111011 "
b1111011 "
0M
1J
1I
0H
0-
0C
1=
1;
09
07
0+
1(
1'
0&
0%
#460000
b10 #
b1111010 "
b0 #
b1101010 "
b1101110 "
b11101110 "
0O
1M
0K
1H
0G
0F
1-
1B
04
1@
1>
0?
1:
17
18
0E
0A
0=
0;
1C
1A
1?
1;
19
0$
0)
1%
0,
0*
0(
0'
1+
1*
1)
1'
1&
#470000
b11101100 "
b11001100 "
b10 #
b1001100 "
1F
0N
0J
0H
0-
0B
0@
0>
0:
08
07
0?
09
0%
0)
0&
#480000
b1100 "
b1101 "
b11101 "
b11001 "
b11011 "
b0 #
b10011011 "
0F
1O
1N
0M
1K
0I
1H
1-
1D
0C
1B
0A
1>
1<
0;
17
1E
1C
1?
1=
0+
0*
0'
1%
1,
1+
1)
1(
#490000
b10001011 "
b10001111 "
b10001101 "
b10 #
1F
0N
1M
0K
0-
0D
0B
1A
0>
0<
19
07
14
0E
0?
0=
1*
1&
0%
1$
0,
0)
0(
#500000
b10000101 "
b11 #
b11000101 "
b1000101 "
b1010101 "
b1010001 "
1G
0M
0L
1K
1I
0H
1-
0C
0A
1?
1;
09
0+
0*
1)
1'
0&
#510000
b1110001 "
b1110000 "
b1 #
b1111000 "
b111000 "
b10111000 "
b10111100 "
0F
0O
1M
1L
1J
0I
1H
0-
0?
1>
1<
0;
1:
18
1?
1=
1;
19
0)
0'
1)
1(
1'
1&
#520000
b0 #
b10101100 "
b10001100 "
b10001101 "
b11001101 "
1O
0K
0J
1I
0G
1-
1D
04
0<
0:
1@
17
1E
0=
0;
1A
0$
1%
1,
0(
0'
1*
#530000
b11001111 "
b10 #
b11 #
b11011111 "
b11111111 "
1G
1F
1N
1K
1J
0-
0D
0@
0>
08
14
1C
1=
1;
1$
1+
1(
1'
#540000
b11110111 "
b11110110 "
b10110110 "
b10110100 "
b1 #
b10100100 "
0F
0O
0N
0L
0K
0I
1-
0E
0C
0A
0?
1>
0=
0;
09
18
07
1?
19
0,
0+
0*
0)
0(
0'
0&
0%
1)
1&
#550000
b100100 "
b0 #
b1100100 "
b1100110 "
b10 #
b1110110 "
0G
1F
1N
1K
1I
0H
0-
0>
08
04
1E
1C
1=
1;
09
0$
1,
1+
1(
1'
0&
#560000
b1110010 "
b11110010 "
0M
1H
1-
0C
19
0+
1&
#570000
b11110011 "
b11 #
1G
1O
0-
17
14
1%
1$
#580000
b11111011 "
b11111001 "
b11101001 "
b11101101 "
b1101101 "
b1101100 "
b10 #
0G
0O
0N
1M
1L
0K
0H
1-
07
04
0E
1C
1A
0?
09
0%
0$
0,
1+
1*
0)
0&
#590000
b1111100 "
b1111000 "
b11111000 "
b11 #
1G
0M
1K
1H
0-
17
0C
1?
19
1%
0+
1)
1&
#600000
b11011000 "
b1 #
b11010000 "
b11010001 "
b11010101 "
b1010101 "
0F
1O
1M
0L
0J
0H
1-
1B
0A
0?
1>
0=
0;
1:
09
07
16
1C
1?
1;
17
0*
0)
0(
0'
0&
0%
1+
1)
1'
1%
#610000
b10101 "
b11 #
b10001 "
b10010001 "
1F
0M
0I
1H
0-
0B
0>
0:
19
06
14
0C
0;
1&
1$
0+
0'
#620000
b10010011 "
b10000011 "
b11000011 "
b1000011 "
1N
0K
1I
0H
1-
1E
0?
1;
09
07
1,
0)
1'
0&
0%
#630000
b1001011 "
b1001010 "
b1001110 "
b1011110 "
b11011110 "
0O
1M
1L
1K
1H
0-
04
1C
1A
1?
19
17
0$
1+
1*
1)
1&
1%
#640000
b10 #
b11111110 "
b11111100 "
b11110100 "
b11110101 "
b1110101 "
1O
0N
0L
1J
0H
0G
1-
14
0E
0A
1=
09
07
1$
0,
0*
1(
0&
0%
#650000
b0 #
b1110001 "
b1100001 "
b1 #
b1000001 "
b1000011 "
b1001011 "
b1001010 "
0O
1N
0M
1L
0K
0J
1G
0F
0-
04
1@
0C
1<
0?
0=
16
0;
1A
1=
17
0$
0+
0)
0(
0'
1*
1(
1%
#660000
b1010 "
b11 #
b1000 "
b0 "
1F
0N
0L
0I
1-
0@
0<
06
0A
0=
07
0*
0(
0%
#670000
b100000 "
b101000 "
1L
1J
0-
1A
1=
1*
1(
#680000
b10101000 "
b10101100 "
b10111100 "
b1 #
b10111110 "
b10011110 "
b10010110 "
0F
1N
1M
0L
1K
0J
1H
1-
0A
1@
1>
0=
1:
14
1A
1?
1;
0*
0(
1$
1*
1)
1'
#690000
b11010110 "
b1010110 "
b1010010 "
b1110010 "
b1111010 "
0M
1L
1J
1I
0H
0-
0>
1<
18
16
04
0?
1=
19
17
0$
0)
1(
1&
1%
#700000
b1111110 "
1M
1-
1>
1?
1)
#710000
b111110 "
b11110 "
b10110 "
0L
0J
0I
0-
0<
08
06
0=
09
07
0(
0&
0%
#720000
b0 #
b110 "
b10 "
b100010 "
0M
0K
1J
0G
1-
0@
0>
1B
0A
0?
1C
0*
0)
1+
#730000
b100000 "
b1 #
b110000 "
1G
0N
1K
0-
0B
18
0C
19
0+
1&
#740000
b11 #
b10110000 "
b11110000 "
b11110100 "
b11110110 "
b11100110 "
1N
1M
0K
1I
1H
1F
1-
1E
1C
0:
08
17
1=
1,
1+
1%
1(
#750000
b10 #
b0 #
b11100010 "
b11100000 "
0N
0M
0G
0F
0-
0E
0C
1:
18
0=
0;
09
1;
19
0,
0+
0(
0'
0&
1'
1&
#760000
b11101000 "
b1 #
b11 #
1G
1F
1L
1-
0:
08
1A
1=
1*
1(
#770000
b11101001 "
b11001001 "
b10001001 "
b10 #
b0 #
0G
0F
1O
0J
0I
0-
1D
1>
0A
0=
0;
09
1E
1?
0*
0(
0'
0&
1,
1)
#780000
b1001 "
b11001 "
b11101 "
b10101 "
b110101 "
b1110101 "
b1 #
b11 #
1G
1F
1M
0L
1K
1J
1I
0H
1-
0D
0>
07
14
1C
1=
1;
0E
0%
1$
1+
1(
1'
0,
#790000
b1110111 "
b1110110 "
b1010110 "
b10 #
b0 #
0G
0F
0O
1N
0J
0-
1B
1@
1<
18
04
0C
0?
0=
0;
1C
1A
1=
19
0$
0+
0)
0(
0'
1+
1*
1(
1&
#800000
b11010110 "
b11011110 "
b10011110 "
b10011100 "
b1 #
1G
0N
1L
0I
1H
1-
0B
0@
1>
1:
08
14
0C
0A
1?
1;
09
1$
0+
0*
1)
1'
0&
#810000
b10011000 "
b10111000 "
b111000 "
b110000 "
b1110000 "
b1110010 "
1N
0M
0L
1J
1I
0H
0-
1@
0>
0<
18
16
04
1A
0?
0=
19
17
0$
1*
0)
0(
1&
1%
#820000
b11 #
b10 #
b1010010 "
b11010010 "
b10010010 "
b10010000 "
0N
0J
0I
1H
0G
1F
1-
0@
0:
08
06
1?
0A
0;
07
1)
0*
0'
0%
#830000
b10010001 "
b10011001 "
b11 #
b10011011 "
1G
1O
1N
1L
0-
17
14
1E
1A
1%
1$
1,
1*
#840000
b10011111 "
b1 #
b10111111 "
b11111111 "
b11110111 "
b0 #
0G
0F
1M
0L
1J
1I
1-
1D
1B
1@
1<
1:
18
04
0E
0A
0?
09
1E
1C
1A
1=
1;
19
0$
0,
0*
0)
0&
1,
1+
1*
1(
1'
1&
#850000
b11100111 "
b11100101 "
b11101101 "
b1 #
1G
0N
1L
0K
0-
0D
0@
1>
0:
07
16
14
0E
0A
1?
0;
17
0%
1$
0,
0*
1)
0'
1%
#860000
b1101101 "
b1101100 "
b1101000 "
b1001000 "
b1000 "
b11000 "
b11010 "
b10010 "
0O
1N
0M
0L
1K
0J
0I
0H
1-
0B
04
1@
0>
0<
1:
08
06
0C
1A
0?
0=
1;
09
07
0$
0+
1*
0)
0(
1'
0&
0%
#870000
b11 #
b10011 "
b10111 "
b111 "
b1111 "
1O
1M
1L
0K
1F
0-
14
1C
0@
0:
1E
0;
1$
1+
1,
0'
#880000
b10 #
b101111 "
b100111 "
0L
1J
0G
1-
0A
1=
0*
1(
#890000
b10100111 "
b11100111 "
b0 #
b1 #
1G
0F
1I
1H
0-
1B
1@
1>
18
16
0E
0C
0=
1C
1A
1?
19
17
0,
0+
0(
1+
1*
1)
1&
1%
#900000
b11100101 "
b11000101 "
b11001101 "
b10001101 "
b0 #
0G
0N
1L
0J
0I
1-
1D
0B
08
06
04
1E
0C
09
0$
1,
0+
0&
#910000
b10001001 "
b10 #
b10001011 "
b10000011 "
1F
1N
0M
0L
0-
0D
0@
0>
19
07
14
0A
0?
1&
0%
1$
0*
0)
#920000
b10000010 "
b10010010 "
b0 #
b10011010 "
0F
0O
1L
1K
1-
0E
1B
1>
1<
09
17
04
1C
1?
1=
0,
0&
1%
0$
1+
1)
1(
#930000
b10111010 "
1J
0-
1:
1;
1'
#940000
b111010 "
b1111010 "
b1 #
b1111110 "
b1101110 "
b11 #
b1100110 "
1G
1F
1M
0L
0K
1I
0H
1-
0B
0>
0<
0:
07
1E
0?
0%
1,
0)
#950000
b1100100 "
b1000100 "
b1000000 "
b1010000 "
b1011000 "
0N
0M
1L
1K
0J
0-
0E
0C
1A
1?
0=
0,
0+
1*
1)
0(
#960000
b11011000 "
b10 #
b11111000 "
b11110000 "
0G
0L
1J
1H
1-
0A
1=
19
0*
1(
1&
#970000
b11110001 "
b0 #
b11100001 "
b1100001 "
0F
1O
0K
0H
0-
1D
0?
0=
0;
1:
09
18
1E
1;
19
0)
0(
0'
0&
1,
1'
1&
#980000
b1100011 "
b1100111 "
b1100110 "
0O
1N
1M
1-
0D
1B
1@
0E
1C
1A
0,
1+
1*
#990000
b10 #
b11100110 "
b11100100 "
b11100000 "
0N
0M
1H
1F
0-
0B
0@
1=
0:
08
0C
0A
1(
0+
0*
