design/simulation/qsim/arch.msim.vcd
$comment
	File created using the following command:
		vcd file arch.msim.vcd -direction
$end
$date
	Thu Mar 13 18:50:06 2025
$end
$version
	ModelSim Version 10.1d
$end
$timescale
	1ps
$end
$scope module cnt8_vlg_vec_tst $end
$var reg 1 ! CLK $end
$var reg 1 " CLRN $end
$var reg 1 # CNT $end
$var reg 8 $ D [7:0] $end
$var reg 1 % LD $end
$var wire 1 & OVF $end
$var wire 1 ' Q [7] $end
$var wire 1 ( Q [6] $end
$var wire 1 ) Q [5] $end
$var wire 1 * Q [4] $end
$var wire 1 + Q [3] $end
$var wire 1 , Q [2] $end
$var wire 1 - Q [1] $end
$var wire 1 . Q [0] $end
$var wire 1 / sampler $end
$scope module i1 $end
$var wire 1 0 gnd $end
$var wire 1 1 vcc $end
$var wire 1 2 unknown $end
$var tri1 1 3 devclrn $end
$var tri1 1 4 devpor $end
$var tri1 1 5 devoe $end
$var wire 1 6 CLK~combout $end
$var wire 1 7 CLK~clkctrl_outclk $end
$var wire 1 8 CNT~combout $end
$var wire 1 9 LD~combout $end
$var wire 1 : inst|inst2[0]~0_combout $end
$var wire 1 ; CLRN~combout $end
$var wire 1 < CLRN~clkctrl_outclk $end
$var wire 1 = inst|inst2[1]~1_combout $end
$var wire 1 > inst|inst2[1]~2_combout $end
$var wire 1 ? inst2|inst2|inst2~combout $end
$var wire 1 @ inst|inst2[2]~3_combout $end
$var wire 1 A inst2|inst2|inst~combout $end
$var wire 1 B inst|inst2[3]~4_combout $end
$var wire 1 C inst|inst2[4]~5_combout $end
$var wire 1 D inst|inst2[4]~6_combout $end
$var wire 1 E inst2|inst5|inst2~combout $end
$var wire 1 F inst|inst2[5]~7_combout $end
$var wire 1 G inst2|inst5|inst~combout $end
$var wire 1 H inst|inst2[6]~8_combout $end
$var wire 1 I inst|inst2[7]~9_combout $end
$var wire 1 J inst|inst2[7]~10_combout $end
$var wire 1 K inst|inst2[7]~11_combout $end
$var wire 1 L inst2|inst7|inst~combout $end
$var wire 1 M inst1|inst|dffs [7] $end
$var wire 1 N inst1|inst|dffs [6] $end
$var wire 1 O inst1|inst|dffs [5] $end
$var wire 1 P inst1|inst|dffs [4] $end
$var wire 1 Q inst1|inst|dffs [3] $end
$var wire 1 R inst1|inst|dffs [2] $end
$var wire 1 S inst1|inst|dffs [1] $end
$var wire 1 T inst1|inst|dffs [0] $end
$var wire 1 U D~combout [7] $end
$var wire 1 V D~combout [6] $end
$var wire 1 W D~combout [5] $end
$var wire 1 X D~combout [4] $end
$var wire 1 Y D~combout [3] $end
$var wire 1 Z D~combout [2] $end
$var wire 1 [ D~combout [1] $end
$var wire 1 \ D~combout [0] $end
$upscope $end
$upscope $end
$enddefinitions $end
#0
$dumpvars
0!
1"
1#
b1000000 $
1%
0&
0.
0-
0,
0+
0*
0)
0(
0'
x/
00
11
x2
13
14
15
06
07
18
19
0:
1;
1<
0=
0>
0?
0@
0A
0B
0C
0D
0E
0F
0G
1H
1I
0J
0K
0L
0T
0S
0R
0Q
0P
0O
0N
0M
0\
0[
0Z
0Y
0X
0W
1V
0U
$end
#5000
1!
16
17
0/
1N
1(
#10000
b0 $
0%
0!
0V
09
06
07
1/
1:
#15000
1!
16
17
0/
1T
1=
0:
1.
1>
#20000
0!
06
07
1/
#25000
1!
16
17
0/
1S
0T
1:
1-
0.
#30000
0!
06
07
1/
#35000
1!
16
17
0/
1T
1?
0=
0:
1.
1@
0>
#40000
b10000000 $
b10100000 $
b10110000 $
b11110000 $
1%
0!
1X
1W
1V
1U
19
06
07
1/
1D
1F
1K
0@
#45000
1!
16
17
0/
1M
1O
1P
0S
0T
1E
0?
1'
1)
1*
0-
0.
#50000
b1110000 $
b1010000 $
b1000000 $
b0 $
0%
0!
0X
0W
0V
0U
09
06
07
1/
0D
0K
1J
1C
1:
1K
1D
#55000
1!
16
17
0/
1T
1=
0:
1.
1>
#60000
0!
06
07
1/
#65000
1!
16
17
0/
1S
0T
1:
1-
0.
#70000
0!
06
07
1/
#75000
1!
16
17
0/
1T
1?
0=
0:
1.
1@
0>
#80000
0!
06
07
1/
#85000
1!
16
17
0/
1R
0S
0T
1:
1,
0-
0.
#90000
0!
06
07
1/
#95000
1!
16
17
0/
1T
1=
0:
1.
1>
#100000
0!
06
07
1/
#105000
1!
16
17
0/
1S
0T
1:
1-
0.
#110000
0!
06
07
1/
#115000
1!
16
17
0/
1T
1A
0?
0=
0:
1.
1B
0@
0>
#120000
0!
06
07
1/
#125000
1!
16
17
0/
1Q
0R
0S
0T
0I
1G
0E
0C
0B
0A
1:
1+
0,
0-
0.
1L
0H
0F
0D
0G
1E
1C
1B
0L
1H
1F
1D
1&
0&
#130000
0!
06
07
1/
#135000
1!
16
17
0/
1T
1=
0:
1.
1>
#140000
0!
06
07
1/
#145000
1!
16
17
0/
1S
0T
1:
1-
0.
#150000
0!
06
07
1/
#155000
1!
16
17
0/
1T
1?
0=
0:
1.
1@
0>
#160000
0!
06
07
1/
#165000
1!
16
17
0/
1R
0S
0T
1:
1,
0-
0.
#170000
0!
06
07
1/
#175000
1!
16
17
0/
1T
1=
0:
1.
1>
#180000
0!
06
07
1/
#185000
1!
16
17
0/
1S
0T
1:
1-
0.
#190000
0!
06
07
1/
#195000
1!
16
17
0/
1T
1A
0?
0=
0:
1.
0J
1G
0E
0C
0B
0@
0>
0K
1L
0H
0F
0D
1&
#200000
0!
06
07
1/
#205000
1!
16
17
0/
0M
0N
0O
0P
0Q
0R
0S
0T
0L
1J
1I
1H
0G
1B
0A
1:
0'
0(
0)
0*
0+
0,
0-
0.
1K
0J
0H
0B
0&
0K
#210000
0!
06
07
1/
#215000
1!
16
17
0/
1T
1=
0:
1.
1>
#220000
0!
06
07
1/
#225000
1!
16
17
0/
1S
0T
1:
1-
0.
#230000
0!
06
07
1/
#235000
1!
16
17
0/
1T
1?
0=
0:
1.
1@
0>
#240000
0!
06
07
1/
#245000
1!
16
17
0/
1R
0S
0T
1:
1,
0-
0.
#250000
0!
06
07
1/
#255000
1!
16
17
0/
1T
1=
0:
1.
1>
#260000
0!
06
07
1/
#265000
1!
16
17
0/
1S
0T
1:
1-
0.
#270000
0!
06
07
1/
#275000
1!
16
17
0/
1T
1A
0?
0=
0:
1.
1B
0@
0>
#280000
0!
06
07
1/
#285000
1!
16
17
0/
1Q
0R
0S
0T
1C
0B
0A
1:
1+
0,
0-
0.
1D
0C
1B
0D
#290000
0!
06
07
1/
#295000
1!
16
17
0/
1T
1=
0:
1.
1>
#300000
0!
06
07
1/
#305000
1!
16
17
0/
1S
0T
1:
1-
0.
#310000
0!
06
07
1/
#315000
1!
16
17
0/
1T
1?
0=
0:
1.
1@
0>
#320000
0!
06
07
1/
#325000
1!
16
17
0/
1R
0S
0T
1:
1,
0-
0.
#330000
0!
06
07
1/
#335000
1!
16
17
0/
1T
1=
0:
1.
1>
#340000
0!
06
07
1/
#345000
1!
16
17
0/
1S
0T
1:
1-
0.
#350000
0!
06
07
1/
#355000
1!
16
17
0/
1T
1A
0?
0=
0:
1.
1C
0B
0@
0>
1D
#360000
0!
06
07
1/
#365000
1!
16
17
0/
1P
0Q
0R
0S
0T
1B
0A
1:
1*
0+
0,
0-
0.
0B
#370000
0!
06
07
1/
#375000
1!
16
17
0/
1T
1=
0:
1.
1>
#380000
0!
06
07
1/
#385000
1!
16
17
0/
1S
0T
1:
1-
0.
#390000
0!
06
07
1/
#395000
1!
16
17
0/
1T
1?
0=
0:
1.
1@
0>
#400000
0!
06
07
1/
#405000
1!
16
17
0/
1R
0S
0T
1:
1,
0-
0.
#410000
0!
06
07
1/
#415000
1!
16
17
0/
1T
1=
0:
1.
1>
#420000
0!
06
07
1/
#425000
1!
16
17
0/
1S
0T
1:
1-
0.
#430000
0!
06
07
1/
#435000
1!
16
17
0/
1T
1A
0?
0=
0:
1.
1B
0@
0>
#440000
0!
06
07
1/
#445000
1!
16
17
0/
1Q
0R
0S
0T
1E
0C
0B
0A
1:
1+
0,
0-
0.
1F
0D
0E
1C
1B
0F
1D
#450000
0!
06
07
1/
#455000
1!
16
17
0/
1T
1=
0:
1.
1>
#460000
0!
06
07
1/
#465000
1!
16
17
0/
1S
0T
1:
1-
0.
#470000
0!
06
07
1/
#475000
1!
16
17
0/
1T
1?
0=
0:
1.
1@
0>
#480000
0!
06
07
1/
#485000
1!
16
17
0/
1R
0S
0T
1:
1,
0-
0.
#490000
0!
06
07
1/
#495000
1!
16
17
0/
1T
1=
0:
1.
1>
#500000
0!
06
07
1/
#505000
1!
16
17
0/
1S
0T
1:
1-
0.
#510000
0!
06
07
1/
#515000
1!
16
17
0/
1T
1A
0?
0=
0:
1.
1E
0C
0B
0@
0>
1F
0D
#520000
0!
06
07
1/
#525000
1!
16
17
0/
1O
0P
0Q
0R
0S
0T
1B
0A
1:
1)
0*
0+
0,
0-
0.
0B
#530000
0!
06
07
1/
#535000
1!
16
17
0/
1T
1=
0:
1.
1>
#540000
0!
06
07
1/
#545000
1!
16
17
0/
1S
0T
1:
1-
0.
#550000
0!
06
07
1/
#555000
1!
16
17
0/
1T
1?
0=
0:
1.
1@
0>
#560000
0!
06
07
1/
#565000
1!
16
17
0/
1R
0S
0T
1:
1,
0-
0.
#570000
0!
06
07
1/
#575000
1!
16
17
0/
1T
1=
0:
1.
1>
#580000
0!
06
07
1/
#585000
1!
16
17
0/
1S
0T
1:
1-
0.
#590000
0!
06
07
1/
#595000
1!
16
17
0/
1T
1A
0?
0=
0:
1.
1B
0@
0>
#600000
0!
06
07
1/
#605000
1!
16
17
0/
1Q
0R
0S
0T
1C
0B
0A
1:
1+
0,
0-
0.
1D
0C
1B
0D
#610000
0!
06
07
1/
#615000
1!
16
17
0/
1T
1=
0:
1.
1>
#620000
0!
06
07
1/
#625000
1!
16
17
0/
1S
0T
1:
1-
0.
#630000
0!
06
07
1/
#635000
1!
16
17
0/
1T
1?
0=
0:
1.
1@
0>
#640000
0!
06
07
1/
#645000
1!
16
17
0/
1R
0S
0T
1:
1,
0-
0.
#650000
0!
06
07
1/
#655000
1!
16
17
0/
1T
1=
0:
1.
1>
#660000
0!
06
07
1/
#665000
1!
16
17
0/
1S
0T
1:
1-
0.
#670000
0!
06
07
1/
#675000
1!
16
17
0/
1T
1A
0?
0=
0:
1.
1C
0B
0@
0>
1D
#680000
0!
06
07
1/
#685000
1!
16
17
0/
1P
0Q
0R
0S
0T
1B
0A
1:
1*
0+
0,
0-
0.
0B
#690000
0!
06
07
1/
#695000
1!
16
17
0/
1T
1=
0:
1.
1>
#700000
0!
06
07
1/
#705000
1!
16
17
0/
1S
0T
1:
1-
0.
#710000
0!
06
07
1/
#715000
1!
16
17
0/
1T
1?
0=
0:
1.
1@
0>
#720000
0!
06
07
1/
#725000
1!
16
17
0/
1R
0S
0T
1:
1,
0-
0.
#730000
0!
06
07
1/
#735000
1!
16
17
0/
1T
1=
0:
1.
1>
#740000
0!
06
07
1/
#745000
1!
16
17
0/
1S
0T
1:
1-
0.
#750000
0!
06
07
1/
#755000
1!
16
17
0/
1T
1A
0?
0=
0:
1.
1B
0@
0>
#760000
0!
06
07
1/
#765000
1!
16
17
0/
1Q
0R
0S
0T
1G
0E
0C
0B
0A
1:
1+
0,
0-
0.
1H
0F
0D
0G
1E
1C
1B
0H
1F
1D
#770000
0!
06
07
1/
#775000
1!
16
17
0/
1T
1=
0:
1.
1>
#780000
0!
06
07
1/
#785000
1!
16
17
0/
1S
0T
1:
1-
0.
#790000
0!
06
07
1/
#795000
1!
16
17
0/
1T
1?
0=
0:
1.
1@
0>
#800000
0!
06
07
1/
#805000
1!
16
17
0/
1R
0S
0T
1:
1,
0-
0.
#810000
0!
06
07
1/
#815000
1!
16
17
0/
1T
1=
0:
1.
1>
#820000
0!
06
07
1/
#825000
1!
16
17
0/
1S
0T
1:
1-
0.
#830000
0!
06
07
1/
#835000
1!
16
17
0/
1T
1A
0?
0=
0:
1.
1G
0E
0C
0B
0@
0>
1H
0F
0D
#840000
0!
06
07
1/
#845000
1!
16
17
0/
1N
0O
0P
0Q
0R
0S
0T
0H
0G
1B
0A
1:
1(
0)
0*
0+
0,
0-
0.
1H
0B
#850000
0!
06
07
1/
#855000
1!
16
17
0/
1T
1=
0:
1.
1>
#860000
0!
06
07
1/
#865000
1!
16
17
0/
1S
0T
1:
1-
0.
#870000
0!
06
07
1/
#875000
1!
16
17
0/
1T
1?
0=
0:
1.
1@
0>
#880000
0!
06
07
1/
#885000
1!
16
17
0/
1R
0S
0T
1:
1,
0-
0.
#890000
0!
06
07
1/
#895000
1!
16
17
0/
1T
1=
0:
1.
1>
#900000
0!
06
07
1/
#905000
1!
16
17
0/
1S
0T
1:
1-
0.
#910000
0!
06
07
1/
#915000
1!
16
17
0/
1T
1A
0?
0=
0:
1.
1B
0@
0>
#920000
0!
06
07
1/
#925000
1!
16
17
0/
1Q
0R
0S
0T
1C
0B
0A
1:
1+
0,
0-
0.
1D
0C
1B
0D
#930000
0!
06
07
1/
#935000
1!
16
17
0/
1T
1=
0:
1.
1>
#940000
0!
06
07
1/
#945000
1!
16
17
0/
1S
0T
1:
1-
0.
#950000
0!
06
07
1/
#955000
1!
16
17
0/
1T
1?
0=
0:
1.
1@
0>
#960000
0!
06
07
1/
#965000
1!
16
17
0/
1R
0S
0T
1:
1,
0-
0.
#970000
0!
06
07
1/
#975000
1!
16
17
0/
1T
1=
0:
1.
1>
#980000
0!
06
07
1/
#985000
1!
16
17
0/
1S
0T
1:
1-
0.
#990000
0!
06
07
1/
#995000
1!
16
17
0/
1T
1A
0?
0=
0:
1.
1C
0B
0@
0>
1D
