design/simulation/qsim/arch.msim.vcd
$comment
	File created using the following command:
		vcd file arch.msim.vcd -direction
$end
$date
	Tue Mar 18 20:19:12 2025
$end
$version
	ModelSim Version 10.1d
$end
$timescale
	1ps
$end
$scope module alusys_vlg_vec_tst $end
$var reg 2 ! An [1:0] $end
$var reg 1 " BIMM $end
$var reg 2 # Bn [1:0] $end
$var reg 1 $ CLK $end
$var reg 1 % CLRN $end
$var reg 2 & Fn [1:0] $end
$var reg 8 ' IMM [7:0] $end
$var reg 2 ( Op [1:0] $end
$var reg 2 ) Wn [1:0] $end
$var reg 1 * WREG $end
$var wire 1 + R0 [7] $end
$var wire 1 , R0 [6] $end
$var wire 1 - R0 [5] $end
$var wire 1 . R0 [4] $end
$var wire 1 / R0 [3] $end
$var wire 1 0 R0 [2] $end
$var wire 1 1 R0 [1] $end
$var wire 1 2 R0 [0] $end
$var wire 1 3 R1 [7] $end
$var wire 1 4 R1 [6] $end
$var wire 1 5 R1 [5] $end
$var wire 1 6 R1 [4] $end
$var wire 1 7 R1 [3] $end
$var wire 1 8 R1 [2] $end
$var wire 1 9 R1 [1] $end
$var wire 1 : R1 [0] $end
$var wire 1 ; R2 [7] $end
$var wire 1 < R2 [6] $end
$var wire 1 = R2 [5] $end
$var wire 1 > R2 [4] $end
$var wire 1 ? R2 [3] $end
$var wire 1 @ R2 [2] $end
$var wire 1 A R2 [1] $end
$var wire 1 B R2 [0] $end
$var wire 1 C R3 [7] $end
$var wire 1 D R3 [6] $end
$var wire 1 E R3 [5] $end
$var wire 1 F R3 [4] $end
$var wire 1 G R3 [3] $end
$var wire 1 H R3 [2] $end
$var wire 1 I R3 [1] $end
$var wire 1 J R3 [0] $end
$var wire 1 K sampler $end
$scope module i1 $end
$var wire 1 L gnd $end
$var wire 1 M vcc $end
$var wire 1 N unknown $end
$var tri1 1 O devclrn $end
$var tri1 1 P devpor $end
$var tri1 1 Q devoe $end
$var wire 1 R SEL4_A|inst4|inst2[6]~0_combout $end
$var wire 1 S ALUCOMB|add/sub|inst2|inst|inst|inst2~0_combout $end
$var wire 1 T SEL2_B|inst2[2]~2_combout $end
$var wire 1 U ALUCOMB|logic|inst|inst2[2]~20_combout $end
$var wire 1 V ALUCOMB|logic|inst|inst2[2]~26_combout $end
$var wire 1 W WREG~combout $end
$var wire 1 X CLK~combout $end
$var wire 1 Y CLK~clkctrl_outclk $end
$var wire 1 Z CLRN~combout $end
$var wire 1 [ CLRN~clkctrl_outclk $end
$var wire 1 \ 24|inst6~combout $end
$var wire 1 ] 24|inst7~combout $end
$var wire 1 ^ SEL4_A|inst4|inst2[7]~1_combout $end
$var wire 1 _ SEL4_A|inst4|inst2[7]~2_combout $end
$var wire 1 ` ALUCOMB|inst|inst4|inst2[1]~1_combout $end
$var wire 1 a BIMM~combout $end
$var wire 1 b 24|inst8~combout $end
$var wire 1 c ALUCOMB|logic|inst|inst2[7]~12_combout $end
$var wire 1 d ALUCOMB|logic|inst|inst2[7]~13_combout $end
$var wire 1 e ALUCOMB|logic|inst|inst2[7]~14_combout $end
$var wire 1 f ALUCOMB|logic|inst|inst2[7]~15_combout $end
$var wire 1 g SEL4_B|inst4|inst2[7]~0_combout $end
$var wire 1 h SEL4_B|inst4|inst2[7]~1_combout $end
$var wire 1 i ALUCOMB|inst|inst4|inst2[7]~4_combout $end
$var wire 1 j ALUCOMB|inst|inst4|inst2[1]~3_combout $end
$var wire 1 k ALUCOMB|inst|inst4|inst2[1]~0_combout $end
$var wire 1 l 24|inst~combout $end
$var wire 1 m SEL4_B|inst4|inst2[0]~2_combout $end
$var wire 1 n SEL4_B|inst4|inst2[0]~3_combout $end
$var wire 1 o ALUCOMB|add/sub|inst2|inst|inst|inst|inst2~combout $end
$var wire 1 p ALUCOMB|logic|inst4|inst2[0]~0_combout $end
$var wire 1 q ALUCOMB|logic|inst4|inst2[0]~1_combout $end
$var wire 1 r ALUCOMB|inst|inst4|inst2[0]~34_combout $end
$var wire 1 s ALUCOMB|shift|inst|inst4|inst2[0]~0_combout $end
$var wire 1 t ALUCOMB|inst|inst4|inst2[0]~35_combout $end
$var wire 1 u SEL4_A|inst4|inst2[0]~3_combout $end
$var wire 1 v SEL4_A|inst4|inst2[0]~4_combout $end
$var wire 1 w ALUCOMB|inst|inst4|inst2[1]~2_combout $end
$var wire 1 x inst6|inst|dffs[1]~feeder_combout $end
$var wire 1 y SEL4_B|inst4|inst2[1]~4_combout $end
$var wire 1 z SEL4_B|inst4|inst2[1]~5_combout $end
$var wire 1 { ALUCOMB|logic|inst|inst2[1]~21_combout $end
$var wire 1 | ALUCOMB|logic|inst|inst2[1]~27_combout $end
$var wire 1 } SEL4_A|inst4|inst1[1]~5_combout $end
$var wire 1 ~ ALUCOMB|add/sub|inst2|inst|inst1|inst1|inst2~combout $end
$var wire 1 !! ALUCOMB|inst|inst4|inst2[1]~30_combout $end
$var wire 1 "! ALUCOMB|inst|inst4|inst2[1]~31_combout $end
$var wire 1 #! ALUCOMB|inst|inst4|inst2[1]~32_combout $end
$var wire 1 $! ALUCOMB|inst|inst4|inst2[1]~33_combout $end
$var wire 1 %! SEL4_A|inst4|inst[1]~5_combout $end
$var wire 1 &! SEL4_A|inst4|inst2[1]~9_combout $end
$var wire 1 '! inst|inst|dffs[2]~feeder_combout $end
$var wire 1 (! SEL4_B|inst4|inst2[2]~6_combout $end
$var wire 1 )! SEL4_B|inst4|inst2[2]~7_combout $end
$var wire 1 *! ALUCOMB|add/sub|inst2|inst|inst1|inst2~0_combout $end
$var wire 1 +! ALUCOMB|add/sub|inst2|inst|inst2|inst1|inst2~2_combout $end
$var wire 1 ,! ALUCOMB|inst|inst4|inst2[2]~26_combout $end
$var wire 1 -! ALUCOMB|inst|inst4|inst2[2]~27_combout $end
$var wire 1 .! ALUCOMB|inst|inst4|inst2[2]~28_combout $end
$var wire 1 /! ALUCOMB|inst|inst4|inst2[2]~29_combout $end
$var wire 1 0! SEL4_A|inst4|inst1[2]~4_combout $end
$var wire 1 1! SEL4_A|inst4|inst[2]~4_combout $end
$var wire 1 2! SEL4_A|inst4|inst2[2]~8_combout $end
$var wire 1 3! SEL4_A|inst4|inst[3]~3_combout $end
$var wire 1 4! SEL4_B|inst4|inst2[3]~8_combout $end
$var wire 1 5! SEL4_B|inst4|inst2[3]~9_combout $end
$var wire 1 6! ALUCOMB|logic|inst|inst2[3]~19_combout $end
$var wire 1 7! ALUCOMB|logic|inst|inst2[3]~25_combout $end
$var wire 1 8! ALUCOMB|add/sub|inst2|inst|inst2|inst2~0_combout $end
$var wire 1 9! ALUCOMB|add/sub|inst2|inst|inst3|inst1|inst2~2_combout $end
$var wire 1 :! ALUCOMB|inst|inst4|inst2[3]~22_combout $end
$var wire 1 ;! ALUCOMB|inst|inst4|inst2[3]~23_combout $end
$var wire 1 <! ALUCOMB|inst|inst4|inst2[3]~24_combout $end
$var wire 1 =! ALUCOMB|inst|inst4|inst2[3]~25_combout $end
$var wire 1 >! inst7|inst|dffs[3]~feeder_combout $end
$var wire 1 ?! SEL4_A|inst4|inst1[3]~3_combout $end
$var wire 1 @! SEL4_A|inst4|inst2[3]~7_combout $end
$var wire 1 A! inst5|inst|dffs[4]~feeder_combout $end
$var wire 1 B! SEL4_B|inst4|inst2[4]~10_combout $end
$var wire 1 C! SEL4_B|inst4|inst2[4]~11_combout $end
$var wire 1 D! SEL2_B|inst2[4]~1_combout $end
$var wire 1 E! ALUCOMB|logic|inst|inst2[4]~18_combout $end
$var wire 1 F! ALUCOMB|logic|inst|inst2[4]~24_combout $end
$var wire 1 G! SEL4_A|inst4|inst[4]~2_combout $end
$var wire 1 H! ALUCOMB|add/sub|inst2|inst|inst3|inst2~0_combout $end
$var wire 1 I! ALUCOMB|add/sub|inst2|inst1|inst|inst1|inst2~2_combout $end
$var wire 1 J! ALUCOMB|inst|inst4|inst2[4]~18_combout $end
$var wire 1 K! ALUCOMB|inst|inst4|inst2[4]~19_combout $end
$var wire 1 L! ALUCOMB|inst|inst4|inst2[4]~20_combout $end
$var wire 1 M! ALUCOMB|inst|inst4|inst2[4]~21_combout $end
$var wire 1 N! inst7|inst|dffs[4]~feeder_combout $end
$var wire 1 O! SEL4_A|inst4|inst1[4]~2_combout $end
$var wire 1 P! SEL4_A|inst4|inst2[4]~6_combout $end
$var wire 1 Q! SEL4_A|inst4|inst1[5]~1_combout $end
$var wire 1 R! SEL4_B|inst4|inst2[5]~12_combout $end
$var wire 1 S! SEL4_B|inst4|inst2[5]~13_combout $end
$var wire 1 T! ALUCOMB|logic|inst|inst2[5]~17_combout $end
$var wire 1 U! ALUCOMB|logic|inst|inst2[5]~23_combout $end
$var wire 1 V! ALUCOMB|add/sub|inst2|inst1|inst|inst2~0_combout $end
$var wire 1 W! ALUCOMB|add/sub|inst2|inst1|inst1|inst1|inst2~2_combout $end
$var wire 1 X! ALUCOMB|inst|inst4|inst2[5]~14_combout $end
$var wire 1 Y! ALUCOMB|inst|inst4|inst2[5]~15_combout $end
$var wire 1 Z! ALUCOMB|inst|inst4|inst2[5]~16_combout $end
$var wire 1 [! ALUCOMB|inst|inst4|inst2[5]~17_combout $end
$var wire 1 \! SEL4_A|inst4|inst[5]~1_combout $end
$var wire 1 ]! SEL4_A|inst4|inst2[5]~5_combout $end
$var wire 1 ^! SEL2_B|inst2[6]~0_combout $end
$var wire 1 _! ALUCOMB|logic|inst|inst2[6]~16_combout $end
$var wire 1 `! SEL4_A|inst4|inst[6]~0_combout $end
$var wire 1 a! ALUCOMB|logic|inst|inst2[6]~22_combout $end
$var wire 1 b! SEL4_A|inst4|inst1[6]~0_combout $end
$var wire 1 c! ALUCOMB|add/sub|inst2|inst1|inst1|inst2~0_combout $end
$var wire 1 d! ALUCOMB|add/sub|inst2|inst1|inst2|inst1|inst2~2_combout $end
$var wire 1 e! ALUCOMB|inst|inst4|inst2[6]~10_combout $end
$var wire 1 f! ALUCOMB|inst|inst4|inst2[6]~11_combout $end
$var wire 1 g! ALUCOMB|inst|inst4|inst2[6]~12_combout $end
$var wire 1 h! ALUCOMB|inst|inst4|inst2[6]~13_combout $end
$var wire 1 i! SEL4_B|inst4|inst2[6]~14_combout $end
$var wire 1 j! SEL4_B|inst4|inst2[6]~15_combout $end
$var wire 1 k! ALUCOMB|inst|inst4|inst2[7]~5_combout $end
$var wire 1 l! ALUCOMB|inst|inst4|inst2[7]~6_combout $end
$var wire 1 m! ALUCOMB|inst|inst4|inst2[7]~7_combout $end
$var wire 1 n! ALUCOMB|inst|inst4|inst2[7]~8_combout $end
$var wire 1 o! ALUCOMB|inst|inst4|inst2[7]~9_combout $end
$var wire 1 p! inst5|inst|dffs [7] $end
$var wire 1 q! inst5|inst|dffs [6] $end
$var wire 1 r! inst5|inst|dffs [5] $end
$var wire 1 s! inst5|inst|dffs [4] $end
$var wire 1 t! inst5|inst|dffs [3] $end
$var wire 1 u! inst5|inst|dffs [2] $end
$var wire 1 v! inst5|inst|dffs [1] $end
$var wire 1 w! inst5|inst|dffs [0] $end
$var wire 1 x! Bn~combout [1] $end
$var wire 1 y! Bn~combout [0] $end
$var wire 1 z! IMM~combout [7] $end
$var wire 1 {! IMM~combout [6] $end
$var wire 1 |! IMM~combout [5] $end
$var wire 1 }! IMM~combout [4] $end
$var wire 1 ~! IMM~combout [3] $end
$var wire 1 !" IMM~combout [2] $end
$var wire 1 "" IMM~combout [1] $end
$var wire 1 #" IMM~combout [0] $end
$var wire 1 $" Fn~combout [1] $end
$var wire 1 %" Fn~combout [0] $end
$var wire 1 &" SEL2_B|inst [7] $end
$var wire 1 '" SEL2_B|inst [6] $end
$var wire 1 (" SEL2_B|inst [5] $end
$var wire 1 )" SEL2_B|inst [4] $end
$var wire 1 *" SEL2_B|inst [3] $end
$var wire 1 +" SEL2_B|inst [2] $end
$var wire 1 ," SEL2_B|inst [1] $end
$var wire 1 -" SEL2_B|inst [0] $end
$var wire 1 ." An~combout [1] $end
$var wire 1 /" An~combout [0] $end
$var wire 1 0" ALUCOMB|inst7 [7] $end
$var wire 1 1" ALUCOMB|inst7 [6] $end
$var wire 1 2" ALUCOMB|inst7 [5] $end
$var wire 1 3" ALUCOMB|inst7 [4] $end
$var wire 1 4" ALUCOMB|inst7 [3] $end
$var wire 1 5" ALUCOMB|inst7 [2] $end
$var wire 1 6" ALUCOMB|inst7 [1] $end
$var wire 1 7" ALUCOMB|inst7 [0] $end
$var wire 1 8" Op~combout [1] $end
$var wire 1 9" Op~combout [0] $end
$var wire 1 :" Wn~combout [1] $end
$var wire 1 ;" Wn~combout [0] $end
$var wire 1 <" SEL2_B|inst1 [7] $end
$var wire 1 =" SEL2_B|inst1 [6] $end
$var wire 1 >" SEL2_B|inst1 [5] $end
$var wire 1 ?" SEL2_B|inst1 [4] $end
$var wire 1 @" SEL2_B|inst1 [3] $end
$var wire 1 A" SEL2_B|inst1 [2] $end
$var wire 1 B" SEL2_B|inst1 [1] $end
$var wire 1 C" SEL2_B|inst1 [0] $end
$var wire 1 D" ALUCOMB|add/sub|inst [7] $end
$var wire 1 E" ALUCOMB|add/sub|inst [6] $end
$var wire 1 F" ALUCOMB|add/sub|inst [5] $end
$var wire 1 G" ALUCOMB|add/sub|inst [4] $end
$var wire 1 H" ALUCOMB|add/sub|inst [3] $end
$var wire 1 I" ALUCOMB|add/sub|inst [2] $end
$var wire 1 J" ALUCOMB|add/sub|inst [1] $end
$var wire 1 K" ALUCOMB|add/sub|inst [0] $end
$var wire 1 L" inst6|inst|dffs [7] $end
$var wire 1 M" inst6|inst|dffs [6] $end
$var wire 1 N" inst6|inst|dffs [5] $end
$var wire 1 O" inst6|inst|dffs [4] $end
$var wire 1 P" inst6|inst|dffs [3] $end
$var wire 1 Q" inst6|inst|dffs [2] $end
$var wire 1 R" inst6|inst|dffs [1] $end
$var wire 1 S" inst6|inst|dffs [0] $end
$var wire 1 T" inst7|inst|dffs [7] $end
$var wire 1 U" inst7|inst|dffs [6] $end
$var wire 1 V" inst7|inst|dffs [5] $end
$var wire 1 W" inst7|inst|dffs [4] $end
$var wire 1 X" inst7|inst|dffs [3] $end
$var wire 1 Y" inst7|inst|dffs [2] $end
$var wire 1 Z" inst7|inst|dffs [1] $end
$var wire 1 [" inst7|inst|dffs [0] $end
$var wire 1 \" inst|inst|dffs [7] $end
$var wire 1 ]" inst|inst|dffs [6] $end
$var wire 1 ^" inst|inst|dffs [5] $end
$var wire 1 _" inst|inst|dffs [4] $end
$var wire 1 `" inst|inst|dffs [3] $end
$var wire 1 a" inst|inst|dffs [2] $end
$var wire 1 b" inst|inst|dffs [1] $end
$var wire 1 c" inst|inst|dffs [0] $end
$upscope $end
$upscope $end
$enddefinitions $end
#0
$dumpvars
b10 !
1"
b1 #
0$
0%
b11 &
b10111100 '
b11 (
b1 )
1*
02
01
00
0/
0.
0-
0,
0+
0:
09
08
07
06
05
04
03
0B
0A
0@
0?
0>
0=
0<
0;
0J
0I
0H
0G
0F
0E
0D
0C
xK
0L
1M
xN
1O
1P
1Q
0R
1S
1T
1U
1V
1W
0X
0Y
0Z
0[
1\
0]
0^
0_
0`
1a
0b
0c
0d
1e
1f
0g
0h
1i
1j
1k
0l
0m
0n
1o
0p
1q
1r
0s
0t
1u
1v
1w
0x
0y
0z
0{
0|
0}
0~
1!!
1"!
0#!
0$!
0%!
0&!
0'!
0(!
0)!
1*!
1+!
1,!
1-!
0.!
0/!
00!
01!
02!
03!
04!
05!
16!
17!
08!
09!
1:!
1;!
0<!
0=!
0>!
0?!
0@!
0A!
0B!
0C!
1D!
1E!
1F!
0G!
0H!
0I!
1J!
1K!
0L!
0M!
0N!
0O!
0P!
0Q!
0R!
0S!
1T!
1U!
0V!
0W!
1X!
1Y!
0Z!
0[!
0\!
0]!
0^!
0_!
0`!
0a!
0b!
0c!
1d!
1e!
1f!
0g!
0h!
0i!
0j!
1k!
1l!
1m!
0n!
0o!
0w!
0v!
0u!
0t!
0s!
0r!
0q!
0p!
1y!
0x!
0#"
0""
1!"
1~!
1}!
1|!
0{!
1z!
1%"
1$"
0-"
z,"
z+"
z*"
z)"
z("
z'"
z&"
0/"
1."
z7"
06"
z5"
14"
z3"
12"
z1"
z0"
19"
18"
1;"
0:"
0C"
zB"
zA"
z@"
z?"
z>"
z="
z<"
zK"
1J"
0I"
0H"
0G"
0F"
1E"
zD"
0S"
0R"
0Q"
0P"
0O"
0N"
0M"
0L"
0["
0Z"
0Y"
0X"
0W"
0V"
0U"
0T"
0c"
0b"
0a"
0`"
0_"
0^"
0]"
0\"
$end
#5000
1$
1X
1Y
0K
#10000
1%
b11 #
b111100 '
b1111100 '
b1011100 '
b1011000 '
b1011001 '
b1 (
b1 &
b0 &
b11 )
b10 )
0$
1Z
0;"
1:"
0%"
0$"
08"
1#"
0!"
0|!
1{!
0z!
1x!
0X
0Y
1[
1K
1]
0\
0k!
0U!
1G"
0F!
1H"
07!
0J"
0w
0q
0f
0V
0S
0j
0r
1C"
0o
0U
0T
02"
0T!
1_!
1^!
0i
0e
1i!
1R!
1B!
14!
1(!
1y
1m
1g
0l!
1I!
0J!
19!
0*!
0X!
0:!
0!!
1p
0m!
1J!
0K!
1:!
0+!
0Y!
0;!
0"!
1K!
1;!
0,!
0-!
#15000
1$
1X
1Y
0K
#20000
b11 !
b1001001 '
b1000001 '
b1000011 '
b0 (
b1 #
b11000011 '
b10000011 '
b10000010 '
b1 &
b11 )
0$
1;"
1%"
0x!
09"
0#"
1""
0~!
0}!
0{!
1z!
1/"
0X
0Y
1K
1b
0]
1k!
1a!
1F"
1F!
17!
1I"
1q
0k
1j!
0i!
0R!
1C!
0B!
04!
1)!
0(!
0y
1n
0m
0g
1r
0C"
1o
16"
1{
04"
06!
0E!
0D!
0_!
0^!
1i
1e
1^
1W!
1+!
0r
1g!
1L!
1<!
0j!
0C!
0)!
0n
1t
0p
1S
1|
07!
0F!
0a!
1f
1X!
1,!
0t
1h!
1M!
1=!
0q
1~
1Y!
1-!
1N!
1A!
1>!
1!!
1Z!
1.!
1"!
1[!
1/!
1#!
1'!
1$!
1x
#25000
1$
1X
1Y
0K
1U"
1V"
1W"
1X"
1Y"
1Z"
1b!
1Q!
1O!
1?!
10!
1}
1D
1E
1F
1G
1H
1I
0d!
1a!
1R
1c!
1]!
0W!
1U!
1V!
1P!
0I!
1F!
1H!
1@!
09!
17!
18!
12!
0+!
1V
1*!
1&!
0~
0e!
0k!
1d!
12"
0X!
1W!
0J!
1I!
14"
0:!
19!
0,!
1+!
06"
0!!
0f!
1l!
1e!
1X!
0Y!
0K!
1J!
1:!
0;!
0-!
1,!
0"!
0g!
1m!
1f!
1Y!
0Z!
0L!
1K!
1;!
0<!
0.!
1-!
0#!
0h!
1n!
1g!
1Z!
0[!
0M!
1L!
1<!
0=!
0/!
1.!
0$!
1o!
1h!
1[!
0N!
0A!
1M!
1=!
0>!
0'!
1/!
0x
1N!
1A!
1>!
1'!
#30000
b1 !
b10000110 '
b1 )
b11000110 '
b11000111 '
b0 &
0$
0%"
0:"
1#"
1!"
1{!
0."
0X
0Y
1K
1k!
0a!
0F"
0U!
0G"
0F!
0H"
07!
1J"
0f
0V
0S
0b
1\
1C"
0o
1U
1T
1_!
1^!
0b!
0Q!
0O!
0?!
00!
0}
0u
0^
0l!
0c!
0V!
0H!
0*!
1~
1p
1r
0d!
0R
0]!
0P!
0@!
02!
0+!
0&!
0|
0m!
0k!
1d!
0W!
0I!
08!
1+!
1!!
1t
0e!
02"
04"
0,!
16"
0n!
1l!
1e!
0X!
0J!
09!
1,!
1"!
0f!
0-!
0o!
1m!
1f!
0Y!
0K!
0:!
1-!
1#!
0g!
0.!
1n!
1g!
0Z!
0L!
0;!
1.!
1$!
0h!
0/!
1o!
1h!
0[!
0M!
0<!
1/!
1x
0'!
0N!
0A!
0=!
1'!
0>!
#35000
1$
1X
1Y
0K
1q!
1u!
1v!
1w!
1p!
1i!
1`!
11!
1(!
1%!
1z
0v
1m
1h
1c
1_
14
18
19
1:
13
1j!
0d!
1a!
1R
18!
12!
0+!
1V
1)!
1*!
1&!
0~
1|
1s
1q
1o
1S
1n
0i
1d
1f
0e!
1k!
19!
0,!
1+!
06"
0!!
0r
1~
0l!
0f!
1l!
1:!
0-!
1,!
1!!
0"!
0t
0m!
0g!
1m!
1;!
0.!
1-!
1"!
0#!
0n!
0h!
1n!
1<!
0/!
1.!
1#!
0$!
0o!
1o!
1=!
0'!
1/!
1$!
0x
1>!
1'!
1x
#40000
b0 #
b11100111 '
b10 (
b10 &
b0 !
b11110111 '
b11110101 '
b11 (
b10 #
b1110101 '
b0 )
b1110001 '
b10 )
b110001 '
b11 &
0$
0;"
1:"
0/"
1%"
1$"
19"
18"
0""
0!"
1}!
1|!
0{!
0z!
0y!
1x!
0X
0Y
1K
1]
0\
0`!
01!
0%!
1u
0_
0k!
1H"
1w
0q
1k
1j
1t
1r
16"
0{
0U
0T
1E!
1D!
12"
1T!
0_!
0^!
1i
0e
0i!
0(!
0z
0m
0h
0d
0n
1d!
0a!
0R
02!
0+!
0V
0&!
0~
0|
1v
0o!
0i
0f
1H!
09!
1e!
1X!
1J!
0"!
0n!
1g!
0=!
0<!
0#!
1f!
1K!
0-!
1F!
1U!
0j!
0)!
1k!
0g!
0.!
1-!
0$!
1"!
06"
0s
0t
1q
0o
0S
1I!
1Y!
1h!
0>!
0h!
0/!
0x
0*!
1~
0'!
08!
1+!
0H!
19!
0I!
#45000
1$
1X
1Y
0K
#50000
b111001 '
b10 !
b11 #
b11001 '
b1 (
b1001 '
b1 #
b10001001 '
b10001101 '
b11001101 '
b10 &
0$
0%"
08"
1y!
0x!
1."
1!"
1~!
0}!
0|!
1{!
1z!
0X
0Y
1K
0k!
0U!
0F!
0J"
0w
1`
0r
0j
1i!
1(!
1z
1m
1h
1d
1U
1T
14"
16!
0E!
0D!
02"
0T!
1_!
1^!
1i
1e
0J!
0~
0X!
1n!
1g!
1Z!
1L!
1<!
1.!
1#!
1j!
1)!
1n
0K!
0!!
0Y!
0"!
#55000
1$
1X
1Y
0K
#60000
b11001100 '
b11001110 '
b11000110 '
b0 !
b0 #
b11 (
b10 #
b11000010 '
b10000010 '
b11 &
0$
1%"
18"
0y!
1x!
0."
0#"
1""
0!"
0~!
0{!
0X
0Y
1K
1k!
1a!
1F"
1G"
17!
1w
1f
0`
1V
1r
1j
0i!
0(!
0z
0m
0h
0d
0n
0C"
1o
16"
1{
0U
0T
04"
06!
0_!
0^!
1W!
1I!
1X!
1J!
1!!
0n!
1h!
0g!
0Z!
1M!
0L!
0<!
1/!
0.!
0#!
0j!
0)!
0p
1S
1|
0V
07!
0a!
1Y!
1K!
1"!
0h!
1N!
1A!
0M!
1'!
0/!
1~
0N!
0A!
0'!
#65000
1$
1X
1Y
0K
#70000
b1 !
b10 (
b11 )
b1 )
b10010010 '
b10010 '
b11 !
b11 #
b10110 '
0$
1y!
1!"
1}!
0z!
1;"
0:"
09"
1/"
1."
0X
0Y
1K
1i!
1R!
1B!
14!
1(!
1z
1y
1m
1h
1g
1d
0c
0I"
1U
1T
0G"
1E!
1D!
0i
0e
0]
1\
1t
0k
1b!
1Q!
1O!
1?!
10!
1}
1_
1^
1j!
1S!
1C!
15!
1)!
1i
0h
0d
1V
1F!
1n!
1g!
1Z!
1L!
1<!
1.!
1#!
0d!
1a!
1R
1c!
1]!
0W!
1U!
1P!
1H!
1@!
09!
17!
12!
1*!
1&!
0~
0m!
0_
12"
14"
0i
1o!
1h!
1[!
1M!
1=!
1/!
1$!
0n!
0k!
0f!
1d!
0Y!
0K!
1V!
0I!
0;!
0-!
18!
0+!
0"!
06"
1s
1m!
0f
1N!
1A!
1>!
1'!
1x
0o!
0g!
0Z!
0L!
1W!
0<!
0.!
19!
0#!
1n!
0h!
0[!
0M!
0=!
0/!
0$!
1o!
0N!
0A!
0>!
0'!
0x
#75000
1$
1X
1Y
0K
0q!
0u!
0v!
04
08
09
#80000
b1 &
b11110 '
b1011110 '
b0 &
b10 !
b11 (
b0 )
b10 )
b1001110 '
b0 !
b1001010 '
0$
0;"
1:"
19"
0/"
0."
0!"
1~!
0}!
1{!
0%"
0$"
0X
0Y
1K
1]
0\
0t
1k
0b!
0Q!
0O!
0?!
00!
0}
1_
0^
0U
0T
04"
16!
0E!
0D!
1_!
1^!
1k!
0a!
0F"
0U!
07!
1J"
0s
0q
0S
0j
0o!
0n!
1g!
1[!
1L!
1=!
1.!
1$!
0d!
0R
0c!
0]!
0V!
0P!
1I!
0F!
0@!
09!
08!
02!
1+!
0V
0*!
0&!
1~
0|
0m!
1i
0_
1-!
0:!
1K!
1f!
0l!
0e!
0X!
0!!
1h!
1M!
1>!
1/!
1x
0k!
0g!
0f!
0[!
1d!
02"
0W!
0L!
0=!
0J!
14"
0H!
19!
0.!
0$!
0,!
0+!
16"
0i
1N!
1A!
1'!
0h!
0M!
0>!
0K!
0I!
0/!
0x
0-!
0N!
0A!
0'!
#85000
1$
1X
1Y
0K
#90000
b1 (
b1 #
b11001010 '
b0 #
b10 &
b11000010 '
b10000010 '
b1 !
b0 )
b10000110 '
0$
0:"
1/"
1$"
1!"
0~!
0{!
1z!
0y!
0x!
08"
0X
0Y
1K
1l
0]
0u
1_
0w
1`
1I"
1U
1T
04"
0H"
06!
0E"
0_!
0^!
1i
1e
0i!
0R!
0B!
04!
0(!
0y
0m
1h
0g
1n
0r
0v
1o!
0i
1f
1l!
1e!
1:!
1!!
1n!
1g!
1Z!
1L!
1<!
1.!
1#!
1+!
09!
0d!
0j!
0S!
0C!
05!
0)!
0z
0n
0h
1q
0o
0l!
1m!
1f!
1;!
1"!
0o!
1h!
1,!
0:!
0e!
0m!
1-!
0;!
0f!
#95000
1$
1X
1Y
0K
1]"
1i!
1,
1j!
#100000
b10100110 '
b10100111 '
b0 (
b1 )
b11 !
b10 (
b10 #
b100111 '
b0 &
b1100111 '
b11 )
0$
0$"
1x!
1."
1;"
1:"
09"
18"
1#"
1|!
1{!
0z!
0X
0Y
1K
1w
1s
0q
0k
0`
0i!
1c
1b!
1Q!
1O!
1?!
10!
1}
1u
1^
0l
1b
1r
1C"
1o
1F"
12"
1T!
1E"
1_!
1^!
1i
0e
1m!
0,!
0!!
1t
0r
1o!
0n!
0g!
1[!
0Z!
0L!
1=!
0<!
1$!
1M!
1/!
0j!
1a!
1R
1c!
1]!
1U!
1P!
1I!
1@!
19!
18!
12!
0+!
1V
1*!
1&!
0~
1|
1v
0_
1p
1S
0f
1n!
0-!
0t
0o!
0h!
0[!
0M!
1>!
0=!
1x
1N!
1A!
1'!
1e!
1k!
1d!
1Y!
02"
14"
1H!
09!
1,!
1+!
06"
0s
0o
0S
0m!
0i
1~
1o!
0.!
0N!
0A!
0>!
1f!
1Z!
1V!
0I!
1-!
0~
0n!
0/!
1g!
1[!
1W!
1.!
0o!
0'!
1h!
1/!
1'!
#105000
1$
1X
1Y
0K
0W"
0X"
0O!
0?!
0F
0G
0V!
0P!
1I!
0H!
0@!
19!
0W!
0I!
04"
#110000
b1100101 '
b1 &
b1110101 '
b10 !
b1110100 '
b11 (
b10 )
b0 !
b1 (
b0 #
b0 )
0$
0x!
0;"
0:"
19"
08"
0/"
0."
1%"
0#"
0""
1}!
0X
0Y
1K
1i!
0c
1l
0b
1`
0w
0b!
1`!
0Q!
00!
0}
1_
0^
0k!
0E"
0F"
1H"
0I"
1q
0C"
1o
16"
0{
1E!
1D!
1j!
1n!
0g!
0Z!
1<!
0/!
0.!
0#!
0Y!
1:!
0"!
0d!
0c!
0]!
08!
02!
0*!
0&!
1~
0|
1i
1f
0_
1H!
09!
0p
1S
1F!
1o!
0h!
0[!
1=!
0'!
0$!
1;!
0e!
1k!
1d!
12"
0H!
19!
0<!
0+!
06"
1!!
1l!
0i
0f
1I!
0:!
0q
1*!
0~
1>!
0x
0f!
1e!
0I!
1:!
0=!
0,!
0!!
1"!
1m!
1J!
0;!
1+!
1f!
0J!
1;!
0>!
0-!
0"!
1K!
1,!
0K!
1-!
#115000
1$
1X
1Y
0K
1\"
0]"
1g
1d
1^
0i!
0`!
1+
0,
1h
1_
0j!
0d!
0R
1i
1f
0e!
0n!
0l!
0f!
0o!
0m!
#120000
b1110000 '
b1010000 '
b1010010 '
b0 &
b1000010 '
b1 !
b1000011 '
b11 !
b10 )
0$
1:"
1/"
1."
0%"
1#"
1""
0!"
0}!
0|!
0X
0Y
1K
0l
1]
1b!
1Q!
10!
1}
0_
0k!
1E"
0a!
0U!
0F!
0H"
1k
0f
0`
0V
0S
1C"
0o
16"
1{
0U
0T
0E!
0D!
02"
0T!
1a!
1R
1]!
1W!
18!
12!
0+!
1&!
1|
0i
1l!
09!
1p
1k!
1g!
1[!
12"
1X!
19!
1.!
1$!
0,!
06"
0l!
1m!
0:!
1l!
1h!
1Y!
1:!
1/!
1x
0-!
0m!
0;!
1m!
1;!
1'!
#125000
1$
1X
1Y
0K
1M"
1N"
1Q"
1R"
1<
1=
1@
1A
#130000
b11 '
b100011 '
b100001 '
b110001 '
b10 !
b0 !
b0 )
0$
0:"
0/"
0."
0""
1}!
1|!
0{!
0X
0Y
1K
1l
0]
0b!
0Q!
00!
0}
1_
0J"
16"
0{
1G"
1E!
1D!
1F"
02"
1T!
0E"
0_!
0^!
0a!
0R
0]!
08!
02!
1+!
0*!
0&!
0|
1o!
1i
1I!
0k!
0g!
0[!
12"
09!
0.!
0$!
1,!
0+!
06"
1J!
0h!
0:!
0/!
0x
1-!
0,!
1K!
0;!
0'!
0-!
#135000
1$
1X
1Y
0K
