design/simulation/qsim/arch.msim.vcd
$comment
	File created using the following command:
		vcd file arch.msim.vcd -direction
$end
$date
	Mon Mar 17 20:11:01 2025
$end
$version
	ModelSim Version 10.1d
$end
$timescale
	1ps
$end
$scope module ALU8_181_vlg_vec_tst $end
$var reg 8 ! A [7:0] $end
$var reg 8 " B [7:0] $end
$var reg 1 # Cin $end
$var reg 1 $ M $end
$var reg 4 % S [3:0] $end
$var wire 1 & Cout $end
$var wire 1 ' F [7] $end
$var wire 1 ( F [6] $end
$var wire 1 ) F [5] $end
$var wire 1 * F [4] $end
$var wire 1 + F [3] $end
$var wire 1 , F [2] $end
$var wire 1 - F [1] $end
$var wire 1 . F [0] $end
$var wire 1 / sampler $end
$scope module i1 $end
$var wire 1 0 gnd $end
$var wire 1 1 vcc $end
$var wire 1 2 unknown $end
$var tri1 1 3 devclrn $end
$var tri1 1 4 devpor $end
$var tri1 1 5 devoe $end
$var wire 1 6 inst|78~1_combout $end
$var wire 1 7 inst1|52~0_combout $end
$var wire 1 8 inst1|51~0_combout $end
$var wire 1 9 inst1|45~0_combout $end
$var wire 1 : inst1|78~0_combout $end
$var wire 1 ; inst1|46~0_combout $end
$var wire 1 < inst1|44~0_combout $end
$var wire 1 = inst1|43~0_combout $end
$var wire 1 > inst1|47~0_combout $end
$var wire 1 ? inst1|78~1_combout $end
$var wire 1 @ inst|45~0_combout $end
$var wire 1 A inst|51~0_combout $end
$var wire 1 B inst|52~0_combout $end
$var wire 1 C inst|78~2_combout $end
$var wire 1 D inst1|78~2_combout $end
$var wire 1 E inst1|48~0_combout $end
$var wire 1 F inst1|78~3_combout $end
$var wire 1 G M~combout $end
$var wire 1 H inst1|77~0_combout $end
$var wire 1 I inst1|77~1_combout $end
$var wire 1 J inst1|82~0_combout $end
$var wire 1 K inst1|79~combout $end
$var wire 1 L inst1|81~combout $end
$var wire 1 M inst1|80~combout $end
$var wire 1 N Cin~combout $end
$var wire 1 O inst|46~0_combout $end
$var wire 1 P inst|43~0_combout $end
$var wire 1 Q inst|78~0_combout $end
$var wire 1 R inst|78~3_combout $end
$var wire 1 S inst|77~0_combout $end
$var wire 1 T inst|77~1_combout $end
$var wire 1 U inst|48~0_combout $end
$var wire 1 V inst|82~0_combout $end
$var wire 1 W inst|79~0_combout $end
$var wire 1 X inst|47~0_combout $end
$var wire 1 Y inst|44~0_combout $end
$var wire 1 Z inst|81~combout $end
$var wire 1 [ inst|80~0_combout $end
$var wire 1 \ S~combout [3] $end
$var wire 1 ] S~combout [2] $end
$var wire 1 ^ S~combout [1] $end
$var wire 1 _ S~combout [0] $end
$var wire 1 ` B~combout [7] $end
$var wire 1 a B~combout [6] $end
$var wire 1 b B~combout [5] $end
$var wire 1 c B~combout [4] $end
$var wire 1 d B~combout [3] $end
$var wire 1 e B~combout [2] $end
$var wire 1 f B~combout [1] $end
$var wire 1 g B~combout [0] $end
$var wire 1 h A~combout [7] $end
$var wire 1 i A~combout [6] $end
$var wire 1 j A~combout [5] $end
$var wire 1 k A~combout [4] $end
$var wire 1 l A~combout [3] $end
$var wire 1 m A~combout [2] $end
$var wire 1 n A~combout [1] $end
$var wire 1 o A~combout [0] $end
$upscope $end
$upscope $end
$enddefinitions $end
#0
$dumpvars
b10000001 !
b10111000 "
0#
0$
b1001 %
1&
1.
0-
0,
1+
1*
1)
0(
0'
x/
00
11
x2
13
14
15
06
17
18
09
0:
0;
1<
1=
0>
0?
0@
1A
0B
1C
1D
0E
0F
0G
0H
0I
0J
1K
0L
0M
0N
0O
1P
1Q
1R
0S
1T
0U
0V
1W
0X
0Y
1Z
1[
1_
0^
0]
1\
0g
0f
0e
1d
1c
1b
0a
1`
1o
0n
0m
0l
0k
0j
0i
1h
$end
#10000
b11000001 !
b11100001 !
b11101001 !
b11101101 !
b11101111 !
b111000 "
b11000 "
b1000 "
b0 "
b10 "
1#
1f
0d
0c
0b
0`
1n
1m
1l
1j
1i
1N
0/
1Y
1X
0=
07
1@
19
0[
0W
0Q
0Z
0R
16
1M
1?
1I
1F
1V
1J
0.
0V
1S
0C
1'
1,
1(
1-
0*
0&
0T
0M
0,
0+
1*
#20000
b1101111 !
b1101110 !
b1000010 "
b1000110 "
b1001110 !
0#
1e
1a
0o
0j
0h
0N
1/
1U
1E
0P
0<
08
1[
1W
1V
0J
1H
0F
0[
1L
0I
1:
1Z
1.
1I
1F
1,
0(
0.
0'
1&
0)
0-
1'
0&
#30000
b1011110 !
b1000111 "
b11110 !
b11100 !
b11000111 "
b11010111 "
b11010101 "
b10011100 !
b10011101 !
b10010101 "
b10010001 "
1#
1g
0f
0e
1c
0a
1`
1o
0n
1k
0i
1h
1N
0/
1P
1O
0Y
0X
0U
1=
1;
0E
09
18
17
1[
0W
1R
06
0V
0K
0H
0:
1.
0Z
1V
0S
1C
0L
0I
0F
0,
1T
1M
1,
0'
1-
1)
1&
1+
0*
#40000
b10010101 !
b10010001 !
b10011001 "
b11010001 !
b10001001 "
b10001011 "
b1010001 !
0#
1f
1d
0c
0m
0l
1i
0h
0N
1/
1Y
0;
0@
19
07
0[
1Z
0R
16
0M
1K
0V
1J
1I
1F
0.
1V
1L
0,
1(
1'
0-
1*
0&
1,
0)
#50000
b10101011 "
b1010011 !
b1010010 !
b11101011 "
b11101111 "
b11100111 "
b10010 !
b10010010 !
1#
0o
1n
0i
1h
1e
0d
1b
1a
1N
0/
0O
1X
17
1@
0A
1<
1[
0[
0Z
0I
0F
0V
1S
0T
0L
0?
1.
1T
0.
0'
0,
0+
1-
1&
1)
1+
#60000
b11110111 "
b11110101 "
b11010101 "
b10010000 !
b10010001 !
b11010001 "
b11011001 "
b10001 !
1o
0n
0h
0f
0e
1d
1c
0b
1/
1O
0Y
0X
07
0@
1A
1;
0<
1[
1R
06
1I
1F
1V
0S
0T
1M
0K
0D
1L
1?
0V
1T
0L
0J
1H
0F
1D
1.
1'
1,
0+
0&
0*
0)
0I
1J
0H
1F
0,
1+
0(
1)
1&
1I
0'
1(
0&
1'
#70000
b1011001 "
b11001 !
b11001 "
b1011001 !
b1001 "
b11011001 !
1l
1i
1h
0c
0a
0`
0/
1B
0;
0T
0C
0M
1K
1M
0K
1L
0+
1*
0L
0*
0)
1)
#80000
b11001001 !
b11001000 !
b1 "
b10000001 "
b11000000 !
b11000001 "
b1000000 !
0d
1a
1`
0o
0l
0k
0h
1/
0B
0A
1E
0O
0=
1C
0J
1H
0F
0[
0M
1K
1M
0I
1L
0(
0.
1&
1*
0'
0*
0)
#90000
b11000000 "
b1000100 !
0#
b11100000 "
b1100000 "
b1001100 !
b100000 "
b11001100 !
1m
1l
1h
0g
1b
0a
0`
0N
0/
1@
1A
0P
1<
0E
1[
1W
1Q
1V
1T
0[
0L
1J
0H
1F
1Z
1.
1I
1,
1+
0.
1(
1)
0&
0-
1'
#100000
b100010 "
b11001110 !
b100110 "
b101110 "
b101111 "
b11001010 !
b1111 "
b10001111 "
b11000010 !
b11001111 "
1n
0m
0l
1g
1f
1e
1d
0b
1a
1`
1/
1Y
1X
1P
0<
1E
17
0Q
1[
1L
0J
1H
0F
0I
0R
16
1I
1.
0(
0'
0)
1&
0V
1S
0C
1'
0T
0M
0,
0+
1*
#110000
b11100010 !
b10100010 !
b11011111 "
b10110010 !
1#
b110010 !
b11011101 "
b110000 !
b11010101 "
b11110101 "
b1110101 "
b111000 !
b110101 "
0f
0d
1c
1b
0a
0`
0n
1l
1k
1j
0i
0h
1N
0/
0Y
0X
1=
1;
1>
1<
0E
09
08
07
0[
0W
0Z
1R
06
0K
0?
0H
1F
1:
0.
1V
0S
1C
0L
0D
0I
1-
0&
1T
1M
1J
1,
0'
1)
1+
1(
0*
#120000
b111001 !
b110100 "
b111101 !
b11101 !
b1011101 !
0#
b10100 "
0g
0b
1o
1m
0j
1i
0N
1/
0>
0<
1U
19
1[
1W
1Q
1?
0V
1S
16
0J
1H
1Z
1.
1D
0T
0C
1I
0,
0(
0-
1J
0H
0M
0+
1'
0I
1(
1*
0'
#130000
b10110 "
b10111 "
b11101 !
0i
1g
1f
0/
09
1O
1Y
0J
0[
0W
0Q
0Z
1Z
0R
0(
0.
1-
1V
0-
1,
#140000
b10011 "
b11 "
b1101 !
b10001101 !
b10000011 "
b11000011 "
b11000001 "
b11000000 "
0k
1h
0g
0f
0e
0c
1a
1`
1/
0=
0;
18
17
0O
0Y
0U
19
1K
0:
1[
1W
1Q
0Z
1R
06
0V
1J
1L
0F
1Z
1V
0S
1C
1.
0,
1(
1-
1T
1M
1,
0)
1&
0-
1+
0*
#150000
b11001000 "
b10001100 !
b10001000 !
b10101000 !
b11101000 "
b11111000 "
b10111000 !
b111000 !
b1111000 "
b1111010 "
b1111011 "
0o
0m
1k
1j
0h
1g
1f
1d
1c
1b
0`
0/
0@
1=
1;
1>
1<
08
07
1Y
1B
0V
0C
0K
0?
1:
1F
0Z
0T
0M
0D
0L
0,
0+
0&
1-
0J
1H
1*
1)
1I
0(
1'
#160000
b111010 !
b110010 !
b1111111 "
b1110111 "
b110011 !
b110111 !
b1010111 "
b1000111 "
b1000110 "
0g
1e
0d
0c
0b
1o
1n
1m
0l
1/
1U
1@
0B
0A
0;
0>
1X
1S
16
1C
1M
1L
1Z
0Q
1T
0M
1K
1D
0R
0*
0)
0-
0L
1J
0H
1V
1+
1*
0I
1(
1,
1)
0'
#170000
b110 "
b10111 !
b111 !
b10000110 "
b10000100 "
b101 !
b1101 !
b10100100 "
b10110100 "
0n
1l
0k
0j
0f
1c
1b
0a
1`
0/
0Y
0X
1A
09
18
1R
1Q
0T
0C
0J
1I
0V
1M
0K
0D
0+
0(
1'
1L
1J
0,
0*
1(
0)
#180000
b10001101 !
b10110000 "
b10001001 !
b10110001 "
b11110001 "
b10011001 !
b1110001 "
b1110011 "
b10010001 !
1g
1f
0e
1a
0`
0m
0l
1k
1h
1/
1O
1Y
0U
0@
19
0A
1;
0[
0W
0Q
0Z
06
0S
1C
0J
1H
0:
1T
0M
1Z
0R
16
0T
1M
0I
0F
0.
0(
1+
1-
1*
1V
0+
0'
0-
0*
1&
1,
#190000
1#
b11010001 !
b1111011 "
b11110001 !
b11110011 !
b1011011 "
b1110011 !
b1110111 !
b1011001 "
1N
0f
1d
0b
1n
1m
1j
1i
0h
0/
1[
1A
1@
1E
08
1T
0C
0V
1S
1J
1I
1:
1.
0M
0T
1F
1+
0,
1(
1'
0+
1*
0&
#200000
b1001001 "
b1001 "
b1111111 !
b111111 !
b1 "
b100001 "
b111011 !
0m
1l
0i
0d
0c
1b
0a
1/
0@
0E
09
0;
1>
1V
0S
1C
0H
1M
0L
1T
0M
1K
0I
1,
0*
1)
1L
1+
0'
1*
0)
#210000
b100101 "
b101011 !
b10100101 "
0#
b1011 !
b10110101 "
b10111101 "
b10011101 "
0k
0j
1e
1d
1c
0b
1`
0N
0/
0>
0<
1@
1B
18
0[
1D
1?
0V
1S
0C
0T
1I
0.
0J
1T
1M
0K
0,
0+
1'
0L
0(
1+
0*
1)
#220000
b1010 !
b10011111 "
b10 !
b1000010 !
b10011011 "
1#
b1100010 !
b10111011 "
1f
0e
1b
0o
0l
1j
1i
1N
1/
1X
0@
1>
1<
0O
0B
19
1[
0Z
1V
0S
1C
0?
0[
0T
1J
0:
1.
1T
0M
1K
0D
1,
0.
0+
1(
1-
1L
0J
1H
0F
1+
1*
0I
0(
0)
1&
0'
#230000
b10111010 "
b1100000 !
b11111010 "
b11111000 "
b1101000 !
b101000 !
b11111100 "
0#
b1000 !
0n
1l
0j
0i
0g
0f
1e
1a
0N
0/
0Y
0X
1B
0>
0P
1@
1[
1W
1Z
1R
06
1Q
0T
0C
0L
1D
0[
0V
1S
1.
1V
0S
1M
0K
0D
1J
0H
1F
1T
0+
0.
0,
0-
1)
0T
1L
0J
1H
0F
1I
1,
1(
1+
0*
0&
0I
0+
0(
1'
0)
1&
0'
#240000
b1100 !
b11100 !
b1111100 "
b1110100 "
b1010100 "
b10100 "
b10100 !
b10000 "
1#
0e
0d
0b
0a
0`
1m
0l
1k
1N
1/
0B
0A
0<
09
08
1;
1[
1C
0L
1?
1J
0H
1:
1I
0M
1.
1M
1D
0I
1F
1(
1'
1)
1*
0J
0'
0*
0&
0(
#250000
b10101 !
b1010101 !
b1110101 !
b1100101 !
b11000 "
b1101101 !
b11100 "
0#
1e
1d
1o
1l
0k
1j
1i
0N
0/
1U
1B
1A
1P
0;
1<
19
0[
0V
1S
16
0C
1[
0M
1K
1L
0?
1J
0.
1T
1M
0K
0D
0L
0,
1.
1(
1*
0)
1L
0J
1H
1+
0*
1)
1I
0(
0)
1'
#260000
b11101 "
b11111 "
b111111 "
b1101100 !
b101100 !
b1100 !
b110111 "
b100 !
b110011 "
0o
0l
0j
0i
1g
1f
0e
0d
1b
1/
0B
0A
09
1Y
0U
1C
1J
0H
0Z
06
1V
0S
0M
1K
1D
0I
0T
1(
1,
1-
0L
0J
0'
0+
1*
0(
1)
#270000
b1110011 "
b10100 !
1#
b1110010 "
b1110000 "
b10101 !
b110101 !
b111101 !
b1110100 "
1o
1l
1k
1j
0g
0f
1e
1a
1N
0/
1A
1;
1>
0Y
1U
19
0[
0W
0Q
1T
1M
0K
0D
1L
16
0V
1S
1J
0.
0L
0J
1H
0C
0T
1+
0,
1(
0*
0)
1I
0M
0(
0+
1)
1'
1*
#280000
b1100100 "
b111111 !
b1111111 !
b100100 "
b100101 "
b1110111 !
b100001 "
1n
0l
1i
1g
0e
0c
0a
1/
1Y
0A
1O
0U
0;
1Z
0R
1T
1C
1[
1V
0S
1M
0V
1S
0M
1K
0T
1+
1.
1,
0-
0*
1T
1L
0,
0+
1*
1+
0)
#290000
b10100001 "
b10101001 "
b1110110 !
b1110100 !
b10101000 "
b1111100 !
b10101100 "
0o
0n
1l
0g
1e
1d
1`
0/
0P
0O
0Y
1B
1A
1U
18
1W
1Q
0Z
1R
0C
1V
0I
0:
1Z
0V
1M
0K
0F
1,
0'
1-
0L
0,
0-
0*
1&
1)
#300000
b1111000 !
b10001100 "
b1101000 !
b10001110 "
b10011110 "
b101000 !
b11011110 "
b11011111 "
b100000 !
1g
1f
1c
0b
1a
0m
0l
0k
0i
1/
1P
1Y
0>
0U
0B
0[
0W
0Q
0Z
06
1L
1V
0S
0T
1Z
0R
16
1C
1T
0.
1,
0+
1-
0)
0V
1S
0C
0M
1K
1D
1+
0-
0T
1M
0K
0D
0L
1J
0H
1F
0,
1*
1L
0J
1H
0F
1I
0+
1(
0*
1)
0&
0I
0(
1'
0)
1&
0'
#310000
0#
b0 !
b1011111 "
b1 !
b1011011 "
b101 !
b10101 !
b1011001 "
b1001001 "
b1001 "
b1000 "
0N
0g
0f
0e
0c
0a
0`
1o
1m
1k
0j
0/
1[
1W
1Q
0Y
09
08
0<
1R
06
1J
0H
1:
1I
0L
1?
1.
1V
0S
1C
0I
1F
1D
1(
1'
1)
1T
0M
1K
0J
1,
0'
0&
1L
1+
0(
1*
0)
#320000
b10010101 !
b10010111 !
b101000 "
1#
b10110111 !
b10101000 "
b10110011 !
b10100011 !
b10111000 "
b10111001 "
1g
1c
1b
1`
1n
0m
0k
1j
1h
1N
1/
1O
1>
1<
18
17
1Y
0@
0[
0W
0Q
1[
0?
0:
0R
16
0V
0.
0D
0F
1V
1.
0,
1J
1,
1&
1(
#330000
b10111101 "
b100011 !
0#
b111101 "
b100111 !
b110111 !
b101101 "
1m
1k
0h
1e
0c
0`
0N
0/
1U
1@
08
07
0[
1S
0C
1:
0.
0T
1M
0K
1F
0L
0+
0*
0&
1)
#340000
b1110111 !
b1111111 !
b1111110 !
b101111 "
b1101111 "
b1111100 !
b1001111 "
b1001011 "
b11111100 !
b11111000 !
b11101000 !
1f
0e
0b
1a
0o
0n
0m
1l
0k
1i
1h
1/
0U
0@
0>
1E
19
0O
1B
0=
18
0S
1L
1?
1H
0:
1[
1W
1Q
1T
0M
1K
1I
0T
1D
0I
0F
0Z
1R
06
0L
1.
1+
1'
0)
1*
0J
0V
0+
0'
1&
1-
1)
0(
0,
#350000
b1000011 "
b11001000 !
b1000010 "
1#
b11000010 "
b11010010 "
b10001000 !
b11010000 "
b10010000 "
b10001010 !
b10010100 "
1n
0j
0i
0g
0f
1e
0d
1c
0a
1`
1N
0/
0<
0E
09
0P
1@
0B
1=
17
0[
0W
0Q
1L
0H
1[
1W
1Q
1V
1C
1T
1M
0K
1I
1Z
0R
16
0.
0I
0Z
1R
06
0M
1K
0L
0V
1S
0C
1.
1,
1+
1'
0)
0*
0-
1V
0S
1C
1L
0T
1M
0K
0'
0,
1-
1*
1)
1T
0M
1K
0L
1,
0+
0)
0*
1L
1+
1*
1)
0)
#360000
b10001011 !
b10110100 "
b1011 !
b10111100 "
b10111101 "
0#
b10101101 "
b10101111 "
b1001 !
1g
1f
1d
0c
1b
1o
0n
0h
0N
1/
1P
1O
1B
0=
1<
07
0[
0W
0Q
0T
0C
1M
0L
1I
1F
1:
0.
1Z
0R
16
0M
0+
1'
0*
1)
0&
0V
1S
0-
1*
1T
0,
1+
#370000
b11001 !
b1011001 !
b11101111 "
b1011000 !
b11001111 "
b11011000 !
b11000111 "
b11000110 "
1#
b11010110 "
b11010100 "
b11011010 !
0g
0f
0d
1c
0b
1a
0o
1n
1k
1i
1h
1N
0/
0P
0O
0B
1=
1;
0<
1E
19
17
1[
1W
1Q
0T
0K
1L
1H
0:
0I
1.
0Z
1R
06
0L
1I
0F
0+
0'
0)
1V
0S
1C
1'
1-
1)
1&
1T
1M
1,
1+
0*
#380000
b1010100 "
b11001010 !
b10100 "
b110100 "
b110101 "
0#
b110111 "
b11001000 !
0n
0k
1g
1f
1b
0a
0`
0N
1/
0;
1P
1<
0E
07
0[
0M
1K
1[
1L
0?
1J
0H
1F
0I
0.
0L
1I
1.
1(
0'
1*
0)
0&
1'
1)
#390000
b11000000 !
b110011 "
b11000001 !
b1000001 !
b111011 "
b101011 "
b10101011 "
b1010001 !
b10001011 "
b10001010 "
1#
b10001000 "
0g
0f
0e
1d
0c
0b
1`
1o
0l
1k
0h
1N
0/
0Y
0@
0<
0[
0W
0Q
0V
1L
1?
0.
0,
0)
#400000
b1110001 !
b11001000 "
b11000000 "
b1000000 "
0d
1a
0`
1j
1/
0A
1E
08
1<
0T
0J
1H
0F
0I
1:
0L
0?
1I
1F
0+
0(
0'
1&
1)
1'
0&
#410000
b1110101 !
b1111101 !
b1111100 !
b11111100 !
b11101100 !
b1100000 "
b1100010 "
1f
1b
0o
1m
1l
0k
1h
0/
1Y
1>
0P
1@
1A
0=
18
1Z
0R
16
1L
0D
1[
1W
1Q
1V
1T
1M
0I
0:
0V
1S
0C
1J
0F
0Z
1R
06
1.
1,
1+
0'
0-
0)
0*
0T
0M
1V
0S
1C
0,
1(
1&
1-
1T
1M
0+
1,
1*
1+
0*
#420000
b11101110 !
b100010 "
b101010 "
b10101010 "
b10001010 "
1d
0b
0a
1`
1n
1/
1B
0>
0E
17
1X
0T
0C
0L
1D
1?
0J
1I
1Z
0Q
0M
1J
0H
0R
16
0+
0(
1'
1)
0-
0I
0V
1S
1(
1*
1T
0'
0,
1+
#430000
b10101110 !
b10001011 "
b10001110 !
b10001010 !
b10001011 !
b10011011 !
b10001001 "
b10000001 "
b1 "
1g
0f
0d
0`
1o
0m
1k
0j
0i
0/
1P
1O
0X
0B
07
0@
1=
0<
09
0W
0Z
0T
1C
1I
1F
1:
1V
0S
1M
0K
1L
0J
1Z
0M
1K
1T
0L
0+
1'
1,
0(
1-
0&
0*
0)
1L
1+
0-
1*
1)
0)
#440000
b10011001 !
b11011001 !
b0 "
b11011101 !
b10 "
0g
1f
0n
1m
1i
1/
0O
1@
19
0[
0V
1S
0C
1J
0:
0T
1M
0K
0.
0,
1(
0L
0+
0*
1)
#450000
b1011101 !
b1000010 "
b1100010 "
b1011100 !
b1001100 !
b11100010 "
b1100 !
b1000 !
b11100000 "
0f
1b
1a
1`
0o
0m
0k
0i
0h
0/
0Y
1<
0P
0@
0=
0Z
1R
06
1L
1[
1W
1Q
1V
0S
1C
0M
1K
0V
1Z
1T
1M
0L
1.
1,
1-
0)
1*
0,
1+
0-
0*
1)
#460000
b11110000 "
0#
b0 !
b11111000 "
b10 !
b11111001 "
b10111001 "
b10011001 "
b11 !
b1000011 !
b1000111 !
b10011011 "
0N
1o
1n
1m
0l
1i
1g
1f
1d
1c
0b
0a
1/
0[
1P
1O
1Y
1X
1@
1=
0<
0W
0Q
1V
0M
1L
0.
0Z
0R
16
1,
1*
0)
0V
1S
0C
1-
0T
1M
0K
0,
0L
0+
0*
1)
#470000
b1010111 !
b11011 "
1#
b1011111 !
b1011011 "
b1111011 "
b1111001 "
0f
1b
1a
0`
1l
1k
1N
0/
0X
1<
1E
08
1B
1;
1[
1Z
1L
0?
0J
1H
0F
0I
1:
1T
0M
1.
0D
1I
1F
0(
0'
1+
0-
0)
1&
1*
1J
1'
0&
1(
#480000
b1111101 "
b1111111 !
b1101101 "
b1101100 "
b111111 !
b101111 !
b11101100 "
0#
b11001100 "
0k
1j
0i
0g
1e
0c
0b
1`
0N
1/
0=
0;
0E
0O
1U
18
0[
1K
1?
0J
1[
1W
1Q
1V
0I
0:
0.
0L
1D
0Z
1R
0F
0(
1.
1,
0'
1J
0H
1F
0V
1)
1-
1&
1I
1(
0,
0&
1'
#490000
b10101111 !
b11000100 "
b10101101 !
b10101100 !
b10101000 !
b10000100 "
b10000110 "
b10000010 "
b10001000 !
b10011000 !
1#
b10100010 "
1f
0e
0d
1b
0a
0o
0n
0m
1k
0j
1h
1N
0/
0U
0@
0B
09
0P
1=
17
0[
0W
0Q
0S
1C
0T
0J
1[
1W
1Q
1M
0K
0?
0I
0F
1Z
0R
0.
1T
0M
1K
0Z
1R
06
1L
1V
0+
0(
1.
0'
0*
1&
0-
0L
0V
1+
1,
1*
1-
0)
0,
1)
#500000
b11011000 !
b10101010 "
b11011010 !
b11101010 "
0#
b11001010 "
1d
0b
1a
1n
1i
0N
1/
1B
0<
1E
19
1X
0[
0T
0C
1L
1?
1H
1Z
0Q
0.
1M
0K
1I
0R
16
0+
0)
0-
0L
1V
1'
0*
1,
1)
#510000
b11010010 !
b11011010 "
b1011010 "
b1010010 !
b1010011 !
b1010111 !
b1011000 "
b1010000 "
b10000 "
b110000 "
0f
0d
1c
1b
0a
0`
1o
1m
0l
0h
0/
0X
0B
0A
1;
1<
0E
08
07
1P
1@
0Z
1Q
1C
0M
1L
0?
1J
0H
1F
1:
1[
0V
1S
1R
06
1M
0D
0I
1T
1(
1.
0,
1-
1*
0)
0&
1V
0S
0J
1H
0'
1+
0*
0T
1I
1,
0(
0+
1'
#520000
b110001 "
b1110111 !
b1100111 !
b100111 !
b100101 !
1#
b10100101 !
b10100100 !
b10100000 !
b110011 "
b1110011 "
b1010011 "
0o
0n
0m
0k
1j
0i
1h
1g
1f
0b
1a
1N
1/
0@
0;
18
0[
0W
0Q
0V
0M
1K
1D
0I
0:
1Z
0R
16
0.
0L
1J
0H
1V
0,
0'
1*
0-
1I
1(
1,
1)
1'
#530000
b1010111 "
b11010111 "
b11010110 "
b10000000 !
b11000000 !
b11000010 !
b1000010 !
b1000011 !
b1000111 !
b11010100 "
b10010100 "
b10110100 "
1o
1n
1m
0j
1i
0h
0g
0f
1e
1b
0a
1`
0/
1U
1@
1S
1T
1+
#540000
b10100100 "
b10101100 "
0#
b101100 "
b1100111 !
b1100011 !
b101110 "
0N
0m
1j
1f
1d
0c
0`
1/
1[
1W
1Q
0U
1>
1X
1A
0=
08
1R
06
0V
1L
0D
0Q
0T
0C
1M
0I
1:
1.
1V
0S
1C
0J
1H
0R
16
0M
0,
0+
0'
0)
0*
1T
1M
1I
0V
1S
0C
1,
0(
1*
0T
0M
1+
1'
0,
0*
0+
1*
#550000
b1110011 !
b101111 "
b110011 !
b110001 !
b100111 "
b10100111 "
1g
0d
1`
0n
1k
0i
0/
1O
0A
18
0X
1=
09
0[
0W
1T
1C
0I
0Z
1M
0K
1J
0H
1Z
0M
1K
0L
1I
0.
1+
0'
1(
1-
0*
1L
1'
0-
1*
1)
0)
#560000
b111001 !
b10110111 "
1#
b11001 !
b10111111 "
b111111 "
1d
1c
0`
1l
0j
1N
1/
1B
1A
1;
08
0>
1[
0C
1M
0K
0I
0L
1.
0M
1L
0'
0*
1)
1*
0)
#570000
b10011001 !
b11111 "
b10011101 !
b11110 "
b10011111 !
0#
b10111111 !
0g
0b
1n
1m
1j
1h
0N
0/
0O
1X
1U
18
0[
1[
1W
0Z
1V
1I
0.
1Z
1.
1,
1'
1-
0-
#580000
b10111110 !
b1011110 "
b10101110 !
b10100110 !
b11011110 "
b100110 !
b11111110 "
b100010 !
b100000 !
1#
1b
1a
1`
0o
0n
0m
0l
0k
0h
1N
1/
1>
19
0P
0X
0U
0B
0;
0[
0W
0L
0J
1H
0:
1[
1W
1Q
0V
0T
1M
0.
0I
0F
0Z
1R
06
0(
1.
0,
0+
1)
0*
1V
0S
1C
0'
1&
1-
1T
0M
1K
1,
1L
1+
1*
0)
#590000
b11111100 "
b11101100 "
b11101101 "
b0 !
b1 !
0#
1o
0j
1g
0f
0c
0N
0/
1P
1O
0>
0Y
0=
0[
0W
0Q
0L
1D
1?
1Z
1M
0.
0Z
1J
0H
1F
1)
0-
0*
1I
1(
1-
0&
1'
#600000
b1000001 !
b1001001 !
b11001001 !
b11101111 "
b11111111 "
b11111110 "
b11001000 !
0g
1f
1c
0o
1l
1i
1h
1/
0P
0O
1Y
1=
1B
1E
17
1W
1Q
1Z
0R
16
0M
0?
0T
0C
0J
1H
0F
0I
0Z
1R
06
0V
1S
0D
1M
0K
1I
0+
0(
0'
0-
1*
1&
1V
0S
1T
1J
1L
0,
1'
1-
0*
0T
1,
1+
1(
0)
0+
#610000
b11011110 "
b11001100 !
1#
b10001100 !
b10000100 !
b11011100 "
b11011101 "
b10000101 !
1o
1m
0l
0i
1g
0f
0b
1N
0/
1P
1O
1U
0B
0E
0Y
0<
1[
0W
0Q
0V
1S
16
1T
1C
0J
1Z
0L
1?
1.
0Z
0T
0C
0M
1K
1D
0,
1+
0(
0-
1)
1M
0K
1L
1J
0H
0+
1-
1*
0L
0I
1(
0*
0)
0'
1)
#620000
b10011101 "
b10010101 !
b11101 "
b10010111 !
b10110111 !
b111101 "
b10111111 !
b111100 "
1n
1l
1k
1j
0g
1b
0a
0`
1/
1Y
1B
1;
1>
1<
0O
09
07
1Z
0R
1T
0M
0?
0[
0J
1:
1I
1F
1V
0D
1+
0.
0(
1'
0-
1*
0&
1J
1,
1(
#630000
b111000 "
b101000 "
0#
b10111110 !
b1101000 "
b10101110 !
b11101000 "
b10001110 !
b11001000 "
b10000110 !
0N
0o
0l
0k
0j
0e
0c
0b
1a
1`
0/
1[
1W
1Q
0P
0B
0=
0;
0>
0<
0U
19
17
0Z
1R
06
0[
0T
1K
1?
0V
0J
1H
0:
0I
1.
1V
0S
1C
1L
1D
1I
0F
0.
0+
0,
0(
0'
1-
1T
1M
1J
0H
1,
1'
0)
1&
0I
1+
1(
0*
0'
#640000
b10000010 !
b11000010 !
b11000000 !
b11001100 "
b11010000 !
b11101100 "
b11011000 !
1e
1b
0n
0m
1l
1k
1i
1/
1<
0Y
1B
1=
1E
0L
0?
1Z
0T
0C
0M
0J
1H
0D
1M
0K
1I
0+
0(
1)
0-
1*
1J
1L
1'
0*
1(
0)
#650000
b1011000 !
b11101110 "
1#
b1011001 !
b1111001 !
b1111101 !
b1111111 !
b11101010 "
b1101111 !
b11001010 "
1f
0e
0b
1o
1n
1m
0k
1j
0h
1N
0/
1Y
1X
1P
0=
07
1[
0Q
0[
0W
0M
1K
1?
0I
1.
0R
16
0Z
0L
1D
0.
0'
1*
0V
1S
0J
1-
1)
1T
0,
0(
1+
#660000
b11000010 "
b11010010 "
b101111 !
b11010000 "
b101011 !
b101001 !
b11110000 "
0n
0m
0i
0f
0d
1c
1b
1/
0Y
0X
0@
0E
0B
1=
1>
1R
06
1V
0S
1C
1J
0H
1F
0T
1M
0K
0?
1L
0V
1T
0M
1K
0D
1I
0L
1,
1(
0+
0&
0*
0)
1L
0J
1H
0F
0,
1+
1'
1*
1)
0I
0(
0)
1&
0'
#670000
b1110000 "
b1100000 "
b101101 !
b101111 !
b1000000 "
1n
1m
0c
0b
0`
0/
1Y
1@
0=
0>
08
1Z
0R
16
1V
1M
1?
0L
1D
1I
1:
0V
1S
0C
1J
0H
1F
1,
1'
0-
0*
1)
0T
0M
0I
0,
1(
0&
0+
0'
1*
#680000
b1000001 "
0#
b111111 !
b1001001 "
b111101 !
0N
0n
1k
1g
1d
1/
1[
1W
1Q
0Y
1=
1O
1B
1R
06
1M
0K
0?
0[
0W
0Q
1T
1.
1V
0S
1L
0D
0Z
0.
1+
0*
0T
0J
1H
1,
0)
1-
1I
0+
0(
1'
#690000
b110101 !
b10101 !
b1001011 "
b11001011 "
b10001 !
1#
b10011 !
1f
1`
1n
0m
0l
0j
1N
0/
1Y
1X
18
0@
0B
0<
1[
0R
16
0I
0:
0V
1C
1T
0L
1?
1.
1V
0F
0M
1K
1D
0'
0,
1+
1)
1L
1J
0H
1F
1,
1&
1*
1I
1(
0)
0&
1'
#700000
b10010 !
b11001111 "
b11000111 "
b11000101 "
b10110 !
0f
1e
0d
0o
1m
1/
0X
1U
1@
0A
0O
1Z
1S
0T
0[
1T
0+
0.
0-
1+
#710000
b10000101 "
b10010110 !
b11010110 !
b10100101 "
b10100100 "
b11000110 !
b100100 "
b11000111 !
b100000 "
b101000 "
b11000011 !
1o
0m
0k
1i
1h
0g
0e
1d
1b
0a
0`
0/
0U
0@
0=
1A
1<
0S
1M
0T
0L
1T
0+
0*
1)
1+
