design/simulation/qsim/arch.msim.vcd
$comment
	File created using the following command:
		vcd file arch.msim.vcd -direction
$end
$date
	Tue Mar 11 23:11:24 2025
$end
$version
	ModelSim Version 10.1d
$end
$timescale
	1ps
$end
$scope module dec3_8_vlg_vec_tst $end
$var reg 3 ! D [2:0] $end
$var reg 1 " en $end
$var wire 1 # Q [7] $end
$var wire 1 $ Q [6] $end
$var wire 1 % Q [5] $end
$var wire 1 & Q [4] $end
$var wire 1 ' Q [3] $end
$var wire 1 ( Q [2] $end
$var wire 1 ) Q [1] $end
$var wire 1 * Q [0] $end
$var wire 1 + sampler $end
$scope module i1 $end
$var wire 1 , gnd $end
$var wire 1 - vcc $end
$var wire 1 . unknown $end
$var tri1 1 / devclrn $end
$var tri1 1 0 devpor $end
$var tri1 1 1 devoe $end
$var wire 1 2 en~combout $end
$var wire 1 3 inst1|inst8~0_combout $end
$var wire 1 4 inst1|inst7~0_combout $end
$var wire 1 5 inst1|inst6~0_combout $end
$var wire 1 6 inst1|inst~0_combout $end
$var wire 1 7 inst|inst8~0_combout $end
$var wire 1 8 inst|inst7~0_combout $end
$var wire 1 9 inst|inst6~0_combout $end
$var wire 1 : inst|inst~0_combout $end
$var wire 1 ; D~combout [2] $end
$var wire 1 < D~combout [1] $end
$var wire 1 = D~combout [0] $end
$upscope $end
$upscope $end
$enddefinitions $end
#0
$dumpvars
b111 !
1"
0*
0)
0(
0'
0&
0%
0$
1#
x+
0,
1-
x.
1/
10
11
12
13
04
05
06
07
08
09
0:
1=
1<
1;
$end
#10000
b11 !
0;
0+
17
03
1'
0#
#20000
b10 !
b110 !
0=
1;
1+
07
14
0'
1$
#30000
b100 !
b101 !
b1 !
1=
0<
0;
0+
19
04
1)
0$
#40000
b0 !
0=
1+
1:
09
1*
0)
#50000
b10 !
b110 !
b111 !
1=
1<
1;
0+
0:
13
0*
1#
#60000
b11 !
b10 !
0=
0;
1+
18
03
1(
0#
#70000
b0 !
b100 !
b101 !
1=
0<
1;
0+
08
15
0(
1%
#80000
b111 !
b110 !
0=
1<
1+
05
14
0%
1$
#100000
b10 !
0;
0+
18
04
1(
0$
#110000
b0 !
b1 !
b101 !
1=
0<
1;
1+
08
15
0(
1%
#120000
b1 !
0;
0+
19
05
1)
0%
#130000
b11 !
1<
1+
09
17
0)
1'
#140000
b1 !
0<
0+
19
07
1)
0'
#150000
b0 !
0=
1+
1:
09
1*
0)
#160000
b100 !
b110 !
b111 !
1=
1<
1;
0+
0:
13
0*
1#
#170000
b11 !
b1 !
b0 !
0=
0<
0;
1+
1:
03
1*
0#
#180000
b10 !
b11 !
1=
1<
0+
0:
17
0*
1'
#200000
b111 !
b110 !
0=
1;
1+
07
14
0'
1$
#210000
b100 !
0<
0+
16
04
1&
0$
#220000
b0 !
b1 !
1=
0;
1+
19
06
1)
0&
#230000
b11 !
b111 !
b110 !
0=
1<
1;
0+
09
14
0)
1$
#240000
b10 !
b11 !
1=
0;
1+
17
04
1'
0$
#250000
b111 !
b110 !
0=
1;
0+
07
14
0'
1$
#270000
b10 !
b11 !
1=
0;
1+
17
04
1'
0$
#280000
b10 !
0=
0+
18
07
1(
0'
#290000
b11 !
1=
1+
08
17
0(
1'
#310000
b1 !
0<
0+
19
07
1)
0'
#320000
b101 !
b111 !
1<
1;
1+
09
13
0)
1#
#340000
b11 !
b1 !
0<
0;
0+
19
03
1)
0#
#360000
b11 !
1<
1+
09
17
0)
1'
#370000
b1 !
0<
0+
19
07
1)
0'
#390000
b0 !
b100 !
0=
1;
1+
09
16
0)
1&
#400000
b101 !
b1 !
1=
0;
0+
19
06
1)
0&
#410000
b101 !
1;
1+
09
15
0)
1%
#420000
b100 !
0=
0+
16
05
1&
0%
#430000
b110 !
1<
1+
06
14
0&
1$
#440000
b10 !
b11 !
b1 !
1=
0<
0;
0+
19
04
1)
0$
#450000
b101 !
b100 !
b110 !
0=
1<
1;
1+
09
14
0)
1$
#460000
b10 !
b0 !
0<
0;
0+
1:
04
1*
0$
#470000
b100 !
1;
1+
0:
16
0*
1&
#480000
b101 !
1=
0+
06
15
0&
1%
#490000
b1 !
b0 !
0=
0;
1+
1:
05
1*
0%
#500000
b10 !
1<
0+
0:
18
0*
1(
#510000
b110 !
b111 !
b101 !
1=
0<
1;
1+
08
15
0(
1%
#520000
b1 !
b11 !
1<
0;
0+
17
05
1'
0%
#530000
b111 !
1;
1+
07
13
0'
1#
#540000
b101 !
b1 !
0<
0;
0+
19
03
1)
0#
#550000
b11 !
b111 !
1<
1;
1+
09
13
0)
1#
#560000
b110 !
b100 !
b0 !
0=
0<
0;
0+
1:
03
1*
0#
#570000
b100 !
1;
1+
0:
16
0*
1&
#580000
b101 !
b111 !
1=
1<
0+
06
13
0&
1#
#590000
b11 !
b10 !
0=
0;
1+
18
03
1(
0#
#600000
b0 !
0<
0+
1:
08
1*
0(
#610000
b100 !
1;
1+
0:
16
0*
1&
#620000
b101 !
b111 !
1=
1<
0+
06
13
0&
1#
#640000
b11 !
0;
1+
17
03
1'
0#
#650000
b1 !
0<
0+
19
07
1)
0'
#670000
b101 !
b111 !
1<
1;
1+
09
13
0)
1#
#680000
b110 !
0=
0+
14
03
1$
0#
#700000
b100 !
b101 !
1=
0<
1+
15
04
1%
0$
#710000
b111 !
1<
0+
05
13
0%
1#
#730000
b110 !
0=
1+
14
03
1$
0#
#740000
b10 !
b11 !
1=
0;
0+
17
04
1'
0$
#750000
b1 !
0<
1+
19
07
1)
0'
#760000
b0 !
0=
0+
1:
09
1*
0)
#770000
b100 !
1;
1+
0:
16
0*
1&
#780000
b110 !
b111 !
1=
1<
0+
06
13
0&
1#
#790000
b11 !
b10 !
0=
0;
1+
18
03
1(
0#
#800000
b0 !
b1 !
1=
0<
0+
19
08
1)
0(
#810000
b101 !
1;
1+
09
15
0)
1%
#820000
b111 !
1<
0+
05
13
0%
1#
#830000
b101 !
0<
1+
15
03
1%
0#
#840000
b1 !
0;
0+
19
05
1)
0%
#850000
b0 !
b100 !
0=
1;
1+
09
16
0)
1&
#860000
b110 !
b10 !
1<
0;
0+
18
06
1(
0&
#870000
b11 !
1=
1+
08
17
0(
1'
#880000
b111 !
b110 !
0=
1;
0+
07
14
0'
1$
#890000
b100 !
0<
1+
16
04
1&
0$
#900000
b0 !
b10 !
1<
0;
0+
18
06
1(
0&
#910000
b110 !
b100 !
0<
1;
1+
08
16
0(
1&
#920000
b101 !
b1 !
1=
0;
0+
19
06
1)
0&
#930000
b11 !
b111 !
1<
1;
1+
09
13
0)
1#
#940000
b101 !
b1 !
0<
0;
0+
19
03
1)
0#
#950000
b11 !
b111 !
1<
1;
1+
09
13
0)
1#
#960000
b110 !
0=
0+
14
03
1$
0#
#980000
b100 !
0<
1+
16
04
1&
0$
#990000
b0 !
b1 !
1=
0;
0+
19
06
1)
0&
