design/simulation/qsim/arch.msim.vcd
$comment
	File created using the following command:
		vcd file arch.msim.vcd -direction
$end
$date
	Tue Mar 18 12:31:48 2025
$end
$version
	ModelSim Version 10.1d
$end
$timescale
	1ps
$end
$scope module alucomb_vlg_vec_tst $end
$var reg 8 ! A [7:0] $end
$var reg 8 " B [7:0] $end
$var reg 1 # Ci $end
$var reg 2 $ Fn [1:0] $end
$var reg 2 % Op [1:0] $end
$var wire 1 & Co $end
$var wire 1 ' Q [7] $end
$var wire 1 ( Q [6] $end
$var wire 1 ) Q [5] $end
$var wire 1 * Q [4] $end
$var wire 1 + Q [3] $end
$var wire 1 , Q [2] $end
$var wire 1 - Q [1] $end
$var wire 1 . Q [0] $end
$var wire 1 / sampler $end
$scope module i1 $end
$var wire 1 0 gnd $end
$var wire 1 1 vcc $end
$var wire 1 2 unknown $end
$var tri1 1 3 devclrn $end
$var tri1 1 4 devpor $end
$var tri1 1 5 devoe $end
$var wire 1 6 add/sub|inst2|inst|inst2|inst2~0_combout $end
$var wire 1 7 add/sub|inst2|inst1|inst|inst2~0_combout $end
$var wire 1 8 add/sub|inst2|inst1|inst1|inst2~0_combout $end
$var wire 1 9 add/sub|inst2|inst1|inst2|inst2~0_combout $end
$var wire 1 : add/sub|inst2|inst|inst3|inst1|inst2~0_combout $end
$var wire 1 ; inst7[0]~0_combout $end
$var wire 1 < inst|inst4|inst2[3]~79_combout $end
$var wire 1 = inst|inst4|inst2[6]~85_combout $end
$var wire 1 > inst|inst4|inst2[6]~86_combout $end
$var wire 1 ? inst|inst4|inst[8]~4_combout $end
$var wire 1 @ Ci~combout $end
$var wire 1 A inst|inst4|inst[8]~5_combout $end
$var wire 1 B inst|inst4|inst[8]~7_combout $end
$var wire 1 C inst|inst4|inst[8]~8_combout $end
$var wire 1 D inst|inst4|inst[8]~6_combout $end
$var wire 1 E logic|inst4|inst2[7]~0_combout $end
$var wire 1 F select|inst2[7]~0_combout $end
$var wire 1 G inst|inst4|inst2[7]~45_combout $end
$var wire 1 H inst|inst4|inst2[7]~87_combout $end
$var wire 1 I inst|inst4|inst2[7]~88_combout $end
$var wire 1 J inst|inst4|inst2[7]~46_combout $end
$var wire 1 K inst|inst4|inst2[7]~47_combout $end
$var wire 1 L inst|inst4|inst2[7]~48_combout $end
$var wire 1 M inst|inst4|inst2[6]~50_combout $end
$var wire 1 N inst|inst4|inst2[6]~44_combout $end
$var wire 1 O inst|inst4|inst2[6]~51_combout $end
$var wire 1 P inst|inst4|inst2[6]~49_combout $end
$var wire 1 Q inst|inst4|inst2[6]~52_combout $end
$var wire 1 R inst|inst4|inst2[6]~53_combout $end
$var wire 1 S inst|inst4|inst2[6]~54_combout $end
$var wire 1 T add/sub|inst2|inst1|inst1|inst1|inst2~0_combout $end
$var wire 1 U inst|inst4|inst2[5]~83_combout $end
$var wire 1 V inst|inst4|inst2[5]~84_combout $end
$var wire 1 W inst|inst4|inst2[5]~55_combout $end
$var wire 1 X inst|inst4|inst2[5]~56_combout $end
$var wire 1 Y inst|inst4|inst2[5]~57_combout $end
$var wire 1 Z add/sub|inst2|inst|inst3|inst2~0_combout $end
$var wire 1 [ add/sub|inst2|inst1|inst|inst1|inst2~0_combout $end
$var wire 1 \ inst|inst4|inst2[4]~58_combout $end
$var wire 1 ] inst|inst4|inst2[4]~81_combout $end
$var wire 1 ^ inst|inst4|inst2[4]~82_combout $end
$var wire 1 _ inst|inst4|inst2[4]~59_combout $end
$var wire 1 ` inst|inst4|inst2[4]~60_combout $end
$var wire 1 a inst|inst4|inst2[3]~80_combout $end
$var wire 1 b inst|inst4|inst2[3]~61_combout $end
$var wire 1 c inst|inst4|inst2[3]~62_combout $end
$var wire 1 d inst|inst4|inst2[3]~63_combout $end
$var wire 1 e add/sub|inst2|inst|inst|inst2~0_combout $end
$var wire 1 f add/sub|inst2|inst|inst1|inst2~0_combout $end
$var wire 1 g add/sub|inst2|inst|inst2|inst1|inst2~0_combout $end
$var wire 1 h inst|inst4|inst2[2]~64_combout $end
$var wire 1 i inst|inst4|inst2[2]~77_combout $end
$var wire 1 j inst|inst4|inst2[2]~78_combout $end
$var wire 1 k inst|inst4|inst2[2]~65_combout $end
$var wire 1 l inst|inst4|inst2[2]~66_combout $end
$var wire 1 m inst|inst4|inst2[1]~75_combout $end
$var wire 1 n inst|inst4|inst2[1]~76_combout $end
$var wire 1 o add/sub|inst2|inst|inst1|inst1|inst2~0_combout $end
$var wire 1 p inst|inst4|inst2[1]~67_combout $end
$var wire 1 q inst|inst4|inst2[1]~68_combout $end
$var wire 1 r inst|inst4|inst2[1]~69_combout $end
$var wire 1 s inst|inst4|inst2[0]~70_combout $end
$var wire 1 t inst|inst4|inst2[0]~73_combout $end
$var wire 1 u inst|inst4|inst2[0]~74_combout $end
$var wire 1 v inst|inst4|inst2[0]~71_combout $end
$var wire 1 w inst|inst4|inst2[0]~72_combout $end
$var wire 1 x Op~combout [1] $end
$var wire 1 y Op~combout [0] $end
$var wire 1 z Fn~combout [1] $end
$var wire 1 { Fn~combout [0] $end
$var wire 1 | B~combout [7] $end
$var wire 1 } B~combout [6] $end
$var wire 1 ~ B~combout [5] $end
$var wire 1 !! B~combout [4] $end
$var wire 1 "! B~combout [3] $end
$var wire 1 #! B~combout [2] $end
$var wire 1 $! B~combout [1] $end
$var wire 1 %! B~combout [0] $end
$var wire 1 &! A~combout [7] $end
$var wire 1 '! A~combout [6] $end
$var wire 1 (! A~combout [5] $end
$var wire 1 )! A~combout [4] $end
$var wire 1 *! A~combout [3] $end
$var wire 1 +! A~combout [2] $end
$var wire 1 ,! A~combout [1] $end
$var wire 1 -! A~combout [0] $end
$upscope $end
$upscope $end
$enddefinitions $end
#0
$dumpvars
b100101 !
b1110110 "
1#
b11 $
b1 %
1&
0.
1-
0,
0+
1*
0)
0(
0'
x/
00
11
x2
13
14
15
06
07
08
09
1:
1;
1<
1=
1>
1?
1@
1A
1B
1C
1D
1E
0F
0G
0H
0I
0J
0K
0L
0M
1N
1O
1P
0Q
0R
0S
1T
0U
1V
1W
0X
0Y
0Z
0[
1\
1]
1^
1_
1`
0a
1b
0c
0d
1e
0f
1g
1h
0i
1j
0k
0l
1m
1n
1o
1p
1q
1r
1s
0t
0u
0v
0w
1y
0x
1{
1z
0%!
1$!
1#!
0"!
1!!
1~
1}
0|
1-!
0,!
1+!
0*!
0)!
1(!
0'!
0&!
$end
#10000
b10100101 !
b11100101 !
b11000101 !
b11000100 !
b110110 "
b100110 "
b101110 "
b101010 "
b101000 "
b101001 "
b11 %
b1 $
0z
1x
1%!
0$!
0#!
1"!
0!!
0}
0-!
0(!
1'!
1&!
0/
1t
0m
1i
0]
1U
1H
0B
0N
1L
1J
1u
0e
0o
0n
1f
0j
0g
16
1a
0:
0^
1[
0>
19
0_
0T
1X
1Q
1G
0A
1I
0C
0s
0p
0h
1c
0\
0O
1K
1o
0f
1g
1:
0`
1Y
1S
1'
0D
1v
0q
1d
0Q
0L
0g
0*
1)
1(
1w
0r
0S
0&
1+
0'
1.
0-
0(
#20000
b11000000 !
b11000010 !
b0 $
b11100010 !
b1101001 "
b1111001 "
b1111101 "
b1111111 "
b1111110 "
0%!
1$!
1#!
1!!
1}
0{
1,!
0+!
1(!
1/
0u
0t
0;
0o
1n
1m
1f
1j
0i
1g
06
1^
1>
1Z
0E
1A
0<
0:
18
0v
1p
0g
16
1k
0Z
1:
1_
1Q
0[
17
1M
0w
1q
1Z
0:
1l
1[
07
1`
1S
1T
1r
0[
17
0T
0.
1,
1*
1(
1T
1-
#30000
b11110010 !
b11111010 !
b11111110 "
b11011110 "
b10 %
b1111010 !
b111010 !
b11010110 "
b10 $
b111000 !
b11000 !
b10010110 "
b10000110 "
1z
0y
0"!
0!!
0~
0}
1|
0,!
1*!
1)!
0(!
0'!
0&!
0/
1i
1]
0U
0H
1E
0=
1<
0j
0a
0^
0J
0G
08
09
1F
1o
0f
1j
1^
0V
0I
1L
0>
1a
0k
0b
0_
0K
1H
0M
0A
1g
06
1k
1_
0W
0Q
1b
0l
0c
0`
1I
0Z
1:
1'
1l
1`
0X
0S
1c
0d
1[
07
0,
0*
0Y
1d
0T
1,
1*
0(
0+
0)
1+
#40000
b11100 !
b11 $
b1100 !
b100 !
b110 "
b100110 "
b110 !
b100110 !
b110110 "
1!!
1~
0|
1{
1,!
1+!
0*!
0)!
1(!
1/
0[
1T
0F
1A
1t
0m
0i
1M
0H
1=
1u
0n
0j
0I
1>
1v
0p
0k
1Q
1w
0q
0l
1S
0r
1.
0,
1(
0-
#50000
0#
b110010 "
b11 %
b10100110 !
b11100110 !
b1 $
b1110010 "
b11100010 !
b0 $
b11101010 !
b1010010 "
0@
0{
0z
0+!
1*!
1'!
1&!
1y
0#!
0~
1}
0/
1R
1F
0t
0o
1m
0g
1f
0]
1[
0M
1G
0E
0A
0<
19
0u
1n
0a
1J
0w
1r
0`
1Y
0L
1p
1g
1K
1H
1A
0v
0b
1q
1L
1I
0c
0.
1-
0*
1)
0'
1'
#60000
b11101011 !
b1010000 "
b1011000 "
b11111011 !
b11011000 "
b11111001 !
1#
b11111101 !
b11110101 !
0$!
1"!
1|
1-!
0,!
1+!
0*!
1)!
1@
1/
0n
0m
0f
1a
1E
1w
1e
1;
0r
1l
0g
16
0d
1`
1]
0[
17
0R
0p
1g
06
1b
1o
1Z
0:
0T
18
0w
1r
0l
0Y
1.
0-
1,
0+
1*
0q
0Z
1:
1c
1[
1M
0.
1-
0,
0)
0r
0[
1d
0-
1+
#70000
b11011001 "
b11001001 "
b10110101 !
b10 $
b10001001 "
b11 $
b10101001 "
b10101011 "
b10100011 "
b10110111 !
0#
b10110011 !
1{
1z
1,!
0+!
0'!
1%!
1$!
0"!
0!!
1~
0}
0@
0/
0o
1i
1f
0]
1R
0M
0E
0A
1<
1u
0;
1n
0a
0^
1V
0>
1p
0g
16
1w
1r
0d
1Y
0S
1v
0b
0_
1W
0Q
1q
1Z
0:
0c
1X
1.
1-
0+
1)
0(
1[
#80000
b10 %
b10100011 !
b10100010 "
b10110010 "
b1 $
b11110010 "
b0 $
b11110000 "
0{
0z
0%!
0$!
1!!
1}
0)!
0y
1/
0i
1g
0e
0[
0Z
1U
1T
1E
1A
0=
0<
1:
06
0u
1;
0n
1>
0`
1j
1a
0V
0J
0j
1o
0f
1[
07
1V
0W
0>
0a
1b
0:
0v
0p
1Q
1k
0K
0*
0k
0g
0T
1W
0X
0Q
0b
1c
0w
0q
1S
1l
0l
1X
0Y
0S
0c
1d
0r
0.
1(
1,
1Y
0d
0,
0)
0(
1+
0-
1)
0+
#90000
b10000011 !
b11 !
b1110000 "
b1011 !
b1010000 "
1#
b11011 !
b1000000 "
b0 "
b10 "
1$!
0!!
0~
0}
0|
1*!
1)!
0(!
0&!
1@
0/
0o
1m
1f
0U
08
1M
09
0F
0E
0A
1:
1e
0R
1n
1g
0V
0M
0L
1o
1p
0W
0'
1q
0X
1r
0Y
1-
0)
#100000
b1011011 !
b1010 "
b1011111 !
b1 $
b1111111 !
b11111111 !
b10001010 "
0#
b11001010 "
b11001000 "
1{
0$!
1"!
1}
1|
1+!
1(!
1'!
1&!
0@
1/
1t
1i
1]
0[
1U
1R
1M
0G
1E
1A
1=
1<
18
17
16
1F
1u
1j
1^
1V
1L
1>
1a
0M
19
1T
1Z
0:
1v
1k
1_
1W
1Q
1b
0A
1[
1'
1w
1l
1`
1X
1S
1c
1Y
1d
1.
1,
1*
1(
1)
1+
#110000
b0 %
b11111110 !
b11111100 !
b11110100 !
b11101000 "
b11100100 !
b11100000 !
b11000000 !
b1000000 !
b1101000 "
1#
b1101010 "
1$!
1~
0|
0-!
0,!
0+!
0*!
0)!
0(!
0&!
0x
1@
0/
0f
08
0F
0E
0t
0e
0;
0i
0g
0Z
1:
0]
0[
0R
0P
0L
1J
0?
1g
06
1M
09
0u
0o
1s
0j
1[
07
0^
0v
0k
0_
0Q
1D
0'
1h
0:
1O
1K
1A
1v
0p
1\
0T
0w
0l
0`
0S
1&
1k
0b
1Q
1L
0D
1w
0q
1_
0W
0.
0,
0*
0(
1l
0c
1S
0r
1`
0X
1'
0&
1.
0d
0Y
1,
1(
0-
1*
0+
0)
#120000
b1101110 "
b0 !
b1100110 "
b0 $
b1 !
b11 !
b10011 !
b10111 !
b110111 !
b11100110 "
b11100100 "
0{
1-!
1,!
1+!
1)!
1(!
0'!
0$!
1#!
0"!
1|
1/
1o
0m
1i
0g
1e
1R
0H
0A
0=
0<
18
16
1;
1F
1p
0n
1j
0h
0o
1f
0I
1D
0>
0a
0M
19
1:
0s
1q
0p
0k
1g
1b
0O
0K
1A
0v
1&
1r
0q
0l
1h
1c
0Q
0L
0D
0w
0r
1k
1d
0S
1-
0,
0'
0&
0.
1l
0-
1+
0(
1,
#130000
b1 %
b11100101 "
b10 $
b10100101 "
b11 %
b10000101 "
b10000001 "
b11 $
b110110 !
b100110 !
b100010 !
b10 !
b1 "
b11 "
0-!
0+!
0)!
0(!
1{
1z
1%!
1$!
0#!
0~
0}
0|
1y
1x
0/
1t
0e
0l
0g
0`
1]
1T
08
1Z
0R
1E
0A
1=
1<
0:
1P
1u
1n
0j
0V
0F
1r
0d
1K
1?
1o
0f
0h
1M
09
0[
17
0r
1l
1d
1`
0b
1v
1p
0k
0_
0\
0,
0*
1-
0+
1g
06
1A
0T
18
0c
1w
1q
0l
0`
0-
1,
1+
1*
0Z
1:
0M
19
0d
1r
1.
0,
0*
1[
07
0A
0+
1-
1T
08
1M
09
1A
#140000
b1010 !
b10 %
b100011 "
b10 $
b1011 !
b1111 !
b10100011 "
b10100001 "
0{
0$!
1~
1|
0y
1-!
1+!
1*!
1/
0t
1m
1e
0]
0[
0M
1H
0A
0=
0n
1V
1F
1j
1a
1^
0J
1>
0;
0u
1n
0o
1f
0^
1I
0>
0p
1W
1L
1k
1b
1_
0K
1Q
0v
1p
0g
16
0_
0Q
0q
1X
1l
1c
1`
1S
1'
0w
1q
1Z
0:
0`
0S
0r
1Y
1d
1,
1*
1(
1r
1[
0.
0*
0(
0-
1)
1+
1-
#150000
b1001111 !
b1001101 !
b11100001 "
b1001100 !
b1001000 !
b11100011 "
1$!
1}
0-!
0,!
0+!
1'!
0/
19
1t
1;
0i
1g
06
1A
1u
0j
0Z
1:
1v
0k
0[
1w
0l
1.
0,
#160000
b11110011 "
0#
b11110010 "
b0 %
b1101000 !
b1100000 !
b1 %
b1110010 "
b100000 !
b100001 !
b1110000 "
0@
1-!
0*!
1(!
0'!
1y
0x
0%!
0$!
1!!
0|
1/
0e
0I
0F
1B
0<
0:
0U
0T
18
1M
1=
09
0u
0n
0a
1^
1N
1J
1>
0L
1o
0m
0f
1]
1[
0E
0A
0o
0J
1C
0M
19
1O
1K
0v
1_
1s
0q
1h
0c
1\
0X
1Q
0g
0'
0K
1D
0Q
1L
0w
1`
0r
0d
0Y
1S
0L
0S
1&
1'
0.
1*
0-
0+
0)
1(
0'
0(
#170000
b1111000 "
b0 $
b110001 !
b1011000 "
b11000 "
b1000 "
b10001 !
b0 %
b10001000 "
b1010001 !
b1010000 !
0y
0-!
1)!
0(!
1'!
0z
1"!
0!!
0~
0}
1|
0/
1u
0V
0P
0N
1J
0B
0?
0t
0;
1c
0]
1X
0_
08
0H
0=
1R
1I
0C
1:
1A
1v
0W
0s
0p
1k
0h
1_
1Q
0O
1q
0u
1d
0^
1Y
0`
1M
09
0I
0>
1w
0X
0v
0q
1l
0k
1`
1S
0Q
1r
1O
1K
0A
1+
1)
0*
0Y
0w
0r
0l
0S
1Q
1L
0D
1.
1,
1*
1(
1-
1S
0)
0.
0-
0,
0(
1'
0&
1(
#180000
b11010000 !
b10001100 "
b10001101 "
b11011000 !
b10000101 "
b10 $
b101 "
1z
1%!
1#!
0"!
0|
1*!
1&!
1/
1t
1i
1]
0R
1H
1E
1=
1<
1;
1g
1F
1u
1j
1^
1>
1a
1s
1h
1v
1k
1w
1l
1.
1,
#190000
b11 $
b11011100 !
b11001100 !
b100101 "
b1100101 "
b1110101 "
b1 %
b10001100 !
b10000100 !
b1 $
1y
1!!
1~
1}
1+!
0*!
0)!
0'!
1{
0z
0/
0a
1V
1N
0J
1G
1B
1?
0[
1U
0M
0<
0H
1o
1I
0b
0s
0h
0c
0\
0O
0K
0I
1C
1J
1c
0v
0k
0d
0_
0Q
0L
0J
1D
1K
1d
0w
0l
0`
0S
0K
1L
0+
0'
1&
0L
1+
0.
0,
0*
0(
1'
0'
#200000
1#
b11 %
b1110111 "
b10100100 !
b100100 !
b11110111 "
b110100 !
b10110111 "
b10100111 "
b10 %
b1110100 !
b1111100 !
b11 $
1@
1z
1*!
1)!
1(!
1'!
0&!
1$!
0!!
0}
1|
0y
1x
1/
1s
1I
1m
0i
0]
0U
1P
1H
0B
0=
1\
1Z
0:
1X
17
1T
1O
19
1A
0o
0N
1L
1n
0j
0^
0V
0s
1k
1_
0\
1W
0O
0C
0>
1[
1Y
0T
18
0c
0X
1'
1p
0k
0_
0W
1v
1l
1`
1X
0D
1M
0d
0Y
1)
1q
0l
0`
0X
1w
1Y
1,
1*
0&
0+
0)
1r
0Y
0,
0*
1.
1)
1-
0)
#210000
b1111110 !
b10100011 "
b10101011 "
b1111010 !
b10001011 "
b1011 "
b1101010 !
b11 %
b101010 !
b100010 !
1y
0#!
1"!
0~
0|
1,!
0+!
0*!
0)!
0'!
0/
1a
1J
0G
1i
0Z
1<
1T
0F
0A
1o
0m
1]
0[
0M
1=
1b
1K
0H
1[
07
1c
0L
0I
0T
1d
0'
1+
#220000
b100011 !
0#
b10100011 !
b1001011 "
b1 $
b1001111 "
b1101111 "
b11101111 "
b10110011 !
b10 %
b10111011 !
0@
0y
0z
1#!
1~
1}
1|
1-!
1*!
1)!
1&!
1/
1e
1R
1F
0n
1j
1^
0K
0J
1>
1m
1U
0g
1T
08
1M
09
0;
1:
0[
17
0o
1f
1L
0p
1k
1_
1Q
1n
1V
0M
1A
0T
18
1p
1g
0q
1l
1`
1S
1W
1M
1'
1q
0r
1X
1,
1*
1(
1r
1Y
0-
1-
1)
#230000
b11101110 "
b11101100 "
b10011011 !
b10011111 !
b10101100 "
b11 $
b10001100 "
b10001111 !
b10000111 !
1z
1+!
0*!
0)!
0(!
0%!
0$!
0~
0}
0/
0t
0m
0i
0E
0g
16
0:
1[
07
1;
1o
0M
19
0u
0n
0j
0L
1:
1T
08
0A
0v
0p
0k
1M
09
0'
0w
0q
0l
1A
0r
0.
0,
0-
#240000
b0 %
b10011100 "
b10010100 "
1#
b111 !
b10010000 "
b10000 "
b10001 "
b110001 "
b1111 !
1@
1*!
0&!
1%!
0#!
0"!
1!!
1~
0|
0x
1/
0e
0R
0F
1Z
0<
1E
0;
1g
0[
0T
0P
1J
0?
0o
1[
0a
1s
1h
0W
1p
0_
0Q
1O
1K
0p
1\
1v
1k
0X
1q
0`
0S
1Q
1L
0q
1_
1w
1l
0Y
1r
1S
0*
0(
1'
0r
1`
1.
1,
0)
1-
1(
0-
1*
#250000
b1101 !
b1100 !
b1 %
b110011 "
b1 $
b11100 !
b11 %
b100011 "
b101011 "
0#
b101010 "
b10100 !
0z
0%!
1$!
1"!
0!!
1y
1x
0-!
0,!
0*!
1)!
0@
0/
1m
1i
1R
1P
0E
0=
1<
1e
1n
0f
1a
0Z
0^
17
1?
0>
0L
0s
1D
0w
0d
0S
0v
1p
0k
0h
0_
0\
1W
0Q
0O
1o
0g
0[
1T
0D
0'
1&
1q
1X
0.
0+
0(
0&
#260000
b0 $
b110100 !
b110000 !
b1101010 "
b1101110 "
b11101110 "
b110010 !
b11101100 "
b100010 !
b1 %
b11111100 "
b11110100 "
1#
b101010 !
0x
0$!
1#!
0"!
1!!
1}
1|
1,!
0+!
1*!
0)!
1(!
0{
1@
1/
0P
1N
1L
0J
1B
0o
0n
0m
1f
1j
0i
1g
06
0a
1Z
0<
0:
1^
0]
1[
07
1>
1F
0A
1r
0l
1d
0`
1Y
18
0e
1s
0p
1h
0b
1\
0W
1O
0q
0c
0X
0K
0g
16
0Z
1:
0[
17
0T
0M
19
1o
0f
1'
1-
0,
1+
0*
1)
1v
1k
1_
1Q
0L
1Z
0:
1[
07
1T
1A
1g
06
0[
17
0T
0Z
1:
0'
1T
1[
07
0T
#270000
b1101010 !
b11010100 "
b0 %
b10 $
b1101110 !
b1010100 "
b1101100 !
b10 %
0#
1z
0y
1x
0~
0|
0,!
1+!
1'!
0@
0/
1]
1P
1H
1C
0B
1<
1w
0r
1l
0j
0d
1`
0^
0Y
1S
0N
1G
0>
1T
08
0F
0A
0o
0h
0g
1c
16
1M
0s
1^
0v
0k
0\
1W
0Q
0O
1I
1D
0C
1a
0c
0H
0M
1d
1Z
0:
1.
0-
1,
0+
1*
0)
1(
0w
0l
1X
0S
0D
1b
0d
0I
0[
17
1&
1+
1Y
1c
0T
18
0.
0,
0(
0&
0+
1d
1M
1)
1+
#280000
b1101101 !
b1010000 "
b1111101 !
b1000000 "
b1110101 !
b110101 !
b1100000 "
0#!
0!!
1~
1-!
0*!
1)!
0'!
1/
1i
1g
06
0U
1T
1t
1;
0Z
0<
1:
0M
1=
1j
0:
0V
1u
1[
07
0a
1>
1k
0b
0W
1v
0T
1Q
1l
0c
0X
1w
1S
0d
0Y
1,
1.
1(
0+
0)
#290000
b10110101 !
b11 $
b100000 "
b101000 "
b11 %
b1 $
b10110001 !
1#
b10100001 !
b111000 "
b10101001 !
b11000 "
1y
1"!
1!!
0~
0}
1{
0z
0+!
1*!
0)!
1&!
1@
0/
0u
0l
0j
1d
1a
0`
1Y
0S
1J
0>
1<
1:
0[
1U
0=
1o
0i
1e
0R
1E
0v
0k
1b
1K
0Q
0o
1f
1l
0d
1`
0Y
1S
1L
0,
1+
0*
1)
0(
0w
0l
1c
0L
0S
0g
16
1,
0+
1*
0)
1(
1'
1d
1Z
0:
0.
0,
0'
0(
1[
1+
#300000
b11010 "
b10101000 !
b11110 "
b101000 !
b0 $
b10 %
b101100 !
0y
0{
0-!
1+!
0&!
1$!
1#!
1/
1u
1V
0J
0t
1i
1g
0e
0]
0[
0U
1T
1M
1H
0E
1:
09
08
17
0;
1v
1W
0K
0u
1j
1o
0f
0^
0V
1I
0M
0T
18
1w
1X
0v
1k
0g
0_
0W
1M
1Y
0w
1l
0`
0X
1.
0Y
1)
0.
1,
0*
0)
#310000
b10011110 "
b101110 !
b1101110 !
b11011110 "
b11010110 "
0#
b1111110 !
b1110110 !
b11010100 "
b1 $
0@
1{
1,!
0*!
1)!
1'!
0$!
0"!
1}
1|
0/
1e
1R
0o
1m
1g
1f
1]
1U
1T
0M
1E
1A
1=
0<
0:
19
06
1o
1n
0g
16
1^
1V
1L
1>
0a
0Z
1:
1p
1Z
0:
1_
1W
1Q
0b
1[
07
1'
1q
0[
17
1`
1X
1S
0c
0T
1r
1T
1Y
0d
1*
1(
1-
1)
0+
#320000
b11010101 "
b11 $
b11000101 "
b11100101 "
b11100001 "
b1110010 !
b11101001 "
1#
b1100010 !
b1101010 !
b10 $
0+!
1*!
0)!
0{
1z
1%!
0#!
1"!
0!!
1~
1@
1/
0i
1g
06
1:
0]
1[
07
1t
0o
0U
0R
1M
0H
0G
0=
1;
1F
0j
0:
0^
0T
1u
0V
0I
1H
0>
0k
0_
0W
1v
1I
0Q
0l
0`
0X
1w
0S
0Y
0,
0*
1.
0(
0)
#330000
b1001010 !
b1001011 !
b1011 !
b0 $
b11001001 "
b11001101 "
b11000101 "
b11011 !
b10011 !
1#!
0"!
0~
0z
1-!
0*!
1)!
0(!
0'!
0/
0g
16
0Z
08
0m
0H
0E
0;
0[
17
0M
1:
1[
07
1M
09
0n
0I
0L
1T
0T
0A
0p
0'
0q
0r
0-
#340000
b10000101 "
b10111 !
0#
b110111 !
b10100101 "
b10100001 "
b10101001 "
1+!
1(!
0#!
1"!
1~
0}
0@
1/
1U
18
1Z
0:
0M
1R
0F
1V
1M
0[
17
1W
1T
1X
1Y
1)
#350000
b0 %
b1 $
b1110111 !
b10100001 "
0"!
1'!
1{
0x
0/
1H
1=
19
1o
1m
1i
1g
1]
1[
0T
0R
1G
1E
1A
0P
1J
0?
1I
1>
1K
1p
1n
1j
1h
1^
1\
0W
1D
0v
1O
1Q
1L
1q
1k
1_
0X
0w
1&
1S
1r
1l
1`
0Y
1'
0.
1(
1-
1,
1*
0)
#360000
b1 %
b100001 "
b1110101 !
b1110100 !
b1110000 !
1#
b1 "
b101 "
b110000 !
b1101 "
0-!
0,!
0+!
0'!
1#!
1"!
0~
0|
1y
1@
1/
0e
1B
1;
0o
0m
06
0M
0H
0=
1a
0Z
1<
1:
0V
1T
0G
0E
0A
0n
0^
1N
1?
0>
1s
0D
1o
0f
0p
0:
0I
0[
0q
0h
0\
1X
1v
0&
0g
0J
0r
0k
0_
1Y
1w
0K
0l
0`
0-
1)
1.
0L
0,
0*
0'
#370000
b1100 "
b11100 "
b111000 !
b1011100 "
b0 $
b11011100 "
b111100 !
0#
b11111100 "
b1111100 !
b11110100 "
0{
1+!
1*!
1'!
0%!
0"!
1!!
1~
1}
1|
0@
0/
0t
0o
1R
1M
1A
1=
0<
1:
16
1c
1\
0u
0;
0a
1^
1V
1>
0s
0w
1l
1d
1`
1Z
0:
1_
0v
1[
0.
1,
1+
1*
#380000
b11111100 !
b10 $
b11101100 !
b11001100 !
b11001110 !
b11100100 "
b11000110 !
b10100100 "
b11 $
b11000010 !
b10000010 !
b10101100 "
1"!
0!!
0}
1{
1z
1,!
0+!
0*!
0)!
0(!
0'!
1&!
1/
1a
0Z
1<
1:
0^
0[
0M
0>
1t
1f
1e
0R
1G
1C
0A
08
06
1P
0B
1r
1h
0l
0c
0d
0\
0`
0X
0Y
0O
0S
1F
1b
1[
07
0_
1\
1O
0Q
1g
1o
0r
1`
1S
1H
1D
1M
09
0:
1s
1p
1W
0C
1-
0,
0+
0*
0)
0(
0T
0`
1Q
0S
1I
1A
1v
0D
0-
1*
1(
1&
1S
1J
1w
0*
0(
0&
1K
1(
1.
1L
1'
#390000
1#
b10 !
b1 $
b10010 !
b11101100 "
b0 $
b10110 !
b1010110 !
1@
1}
0{
0z
1+!
1)!
1'!
0&!
0/
0e
1R
0M
1>
19
0t
0o
0]
0U
1T
0G
0A
0<
1:
16
0P
1B
1q
1c
1X
0Q
1o
0f
0w
1r
1l
1`
0O
1Q
1A
0p
0W
0H
0b
1Z
0:
1k
1_
0\
0g
0Q
0q
0I
0[
17
0_
0.
1-
1,
1*
0J
0T
18
0K
1M
0L
0'
#400000
b11101110 "
b11 %
b10 %
b11101010 "
b11101011 "
b1101011 "
b1001011 "
b1011011 "
b1011110 !
b1010011 "
0#
b10 $
b11110 !
0@
1z
1*!
0'!
0y
1x
1%!
1$!
0#!
0"!
1!!
0~
0|
1/
0s
0F
1t
1P
1H
1C
0B
1<
1d
1\
0S
0M
1w
0r
0a
0`
1Y
0V
0N
1G
1;
0o
1f
1g
06
1[
1T
08
0A
0v
1u
0h
0\
1Q
1I
1D
0C
1a
0c
0X
0H
0g
16
0Z
1:
1M
09
1+
0(
1.
0-
0*
1)
0w
1v
1S
0D
1b
0d
0Y
0I
1Z
0:
0[
1&
1w
1c
1[
0.
1(
0&
0+
0)
1d
1.
1+
#410000
b1110 !
b10011 "
b11 $
b1010 !
b10001 "
b10101 "
b10010101 "
b10 !
b1 $
1{
0z
0$!
1#!
0}
1|
0+!
0*!
0)!
0/
1m
1g
1]
0T
1E
1A
0=
0<
18
07
06
1n
1^
1L
0>
0a
0M
19
1T
08
0Z
1:
1p
1_
0Q
0b
1M
09
0[
1'
1q
1`
0S
0c
1r
0d
1*
0(
1-
0+
#420000
b11 !
b10000011 !
b0 %
1#
b11000011 !
b0 $
b10010001 "
b10001 "
b10 $
1@
0#!
0|
0{
1z
0x
1-!
1'!
1&!
1/
1e
0R
1I
0i
0G
0A
0t
1o
0f
1[
0T
1=
0:
0P
0L
1J
0?
0;
0o
1f
0j
1K
0I
1H
1D
0u
0g
1\
1>
0v
1s
0k
1h
0_
1O
0'
0p
1g
1k
1L
1I
1v
0h
1_
1Q
0w
0l
0`
1&
0q
1h
1l
1w
0k
1`
1S
1'
0.
0,
0*
0r
1k
0l
1,
1.
1*
1(
1l
0-
0,
1,
#430000
b10000 "
b0 "
b1000 "
b11000010 !
b1000010 !
b0 $
0z
0-!
0&!
0%!
1"!
0!!
0/
0m
0]
1R
0H
0E
0=
0e
1G
1:
0[
0n
0^
0I
0>
1o
0f
0K
1H
1b
0\
1p
0_
0g
0L
1I
1c
1q
0`
0h
1d
0'
1r
0k
0*
1+
0l
1-
0,
#440000
b1000000 !
b1 %
b101000 "
b1010000 !
b1101000 "
b1101010 "
b1011000 !
b11000 !
b1101011 "
b1100011 "
b11001 !
b10 $
1z
1%!
1$!
0"!
1~
1}
1y
1-!
0,!
1*!
1)!
0'!
1/
1m
1]
1U
0R
1P
0H
1B
1=
1<
1u
1e
1n
1V
1T
1>
0r
1`
0S
1N
1K
0G
1?
1[
1r
0`
1S
0v
1h
1\
1W
0Q
0I
1C
0o
1f
0q
1X
1L
1H
0D
0-
1*
0(
0w
1k
0X
0S
0J
1D
1g
0r
1Y
1I
1-
0*
1(
1'
0&
1l
0Y
0K
1J
0.
0(
1&
0-
1)
0L
1K
1,
0)
1L
0'
1'
